setup_vision = yes
government = tribal
add_government_reform = shadow_horde
government_rank = 1
primary_culture = swamp_troll
religion = night_coven
technology_group = tech_swamp_troll
capital = 6685


1000.1.1 = { 
    set_estate_privilege = estate_mages_organization_guilds 
    set_country_flag = troll_mengi_invasion_flag
}
1420.4.30 = {
    monarch = {
        name = "Adurmag"
        dynasty = "'The Nailed One'"
        birth_date = 1414.11.11
        adm = 4
        dip = 2
        mil = 6

        leader = {
            name = "Adurmag 'The Nailed One'"
            type = general
            fire = 0
            shock = 10
            manuever = 6
            siege = 2
            personality = hardy_warrior_personality
        }
    }
    set_ai_personality = {
        personality = ai_militarist
        locked = yes
    }
    add_ruler_personality = conqueror_personality
    add_ruler_personality = bold_fighter_personality
}