
# FROM = sender, ROOT = receiver
# Anbennar-specific at bottom

insult_default = {
	trigger = {
		FROM = {
			NOT = {
				AND = {
					tag = I20
					krakazol_is_drunk = { Drunk = yes }
				}
			}
		}
	}
}

insult_default2 = {
	trigger = {
		FROM = {
			religion_group = cannorian
		}
	}
}

insult_default3 = {
	trigger = {
		FROM = {
			NOT = {
				AND = {
					tag = I20
					krakazol_is_drunk = { Drunk = yes }
				}
			}
		}
	}
}

insult_default4 = {
	trigger = {
		FROM = {
			NOT = {
				AND = {
					tag = I20
					krakazol_is_drunk = { Drunk = yes }
				}
			}
		}
	}
}

insult_default5 = {
	trigger = {
		FROM = {
			NOT = {
				AND = {
					tag = I20
					krakazol_is_drunk = { Drunk = yes }
				}
			}
		}
	}
}

insult_default6 = {
	trigger = {
		FROM = {
			NOT = {
				AND = {
					tag = I20
					krakazol_is_drunk = { Drunk = yes }
				}
			}
		}
	}
}

insult_default7 = {
	trigger = {
		FROM = {
			NOT = {
				AND = {
					tag = I20
					krakazol_is_drunk = { Drunk = yes }
				}
			}
		}
	}
}

insult_default8 = {
	trigger = {
		FROM = {
			NOT = {
				AND = {
					tag = I20
					krakazol_is_drunk = { Drunk = yes }
				}
			}
		}
	}
}

insult_default9 = {
	trigger = {
		NOT = { primary_culture = FROM }
		FROM = {
			NOT = {
				AND = {
					tag = I20
					krakazol_is_drunk = { Drunk = yes }
				}
			}
		}
	}
}

insult_default10 = {
	trigger = {
		FROM = {
			NOT = {
				AND = {
					tag = I20
					krakazol_is_drunk = { Drunk = yes }
				}
			}
		}
	}
}

insult_default11 = {
	trigger = {
		FROM = {
			NOT = {
				AND = {
					tag = I20
					krakazol_is_drunk = { Drunk = yes }
				}
			}
		}
	}
}

insult_default12 = {
	trigger = {
		FROM = { NOT = { culture_is_ruinborn = yes } }
		FROM = {
			NOT = {
				AND = {
					tag = I20
					krakazol_is_drunk = { Drunk = yes }
				}
			}
		}
	}
}

insult_default12_ynn = {
	trigger = {
		FROM = { culture_group = ynnic_ruinborn_elf }
	}
}


insult_default13 = {
	trigger = {
		FROM = {
			NOT = {
				AND = {
					tag = I20
					krakazol_is_drunk = { Drunk = yes }
				}
			}
		}
	}
}

insult_default14 = {
	trigger = {
		NOT = { 
			capital_scope = {
				has_subterranean_race = yes
			}
		}
	}
}

insult_default15 = {
	trigger = {
		FROM = {
			NOT = { has_country_modifier = monstrous_nation }
		}
	}
}

insult_no_army = {
	trigger = {
		NOT = { army_size = 1 }
	}
}

insult_bookkeeping = {
	trigger = {
		FROM = {
			trade_income_percentage = 0.33
			NOT = { has_country_modifier = monstrous_nation }
		}
		NOT  = { trade_income_percentage = 0.33 }
	}
}


insult_heir_hunter = {
	trigger = {
		has_regency = no
		has_heir = yes
		OR = {
			heir_adm = 4
			heir_mil = 4
			heir_dip = 4
		}
	}
}

insult_monarchy = {
	trigger = {
		government = monarchy
		has_regency = no
		FROM = {
			government = monarchy
		}
	}
}

insult_european_indian = {
	trigger = {
		capital_scope = { superregion = india_superregion }
		FROM = { capital_scope = { continent = europe } }
	}
}


insult_explorer_vs_africa_or_india = {
	trigger = {
		FROM = {
			capital_scope = { continent = europe }
		}
		NOT = { religion_group = FROM }
		OR = {
			capital_scope = { superregion = india_superregion }
			capital_scope = { continent = africa }
		}
	}
}



insult_guybrush = {
	trigger = {
		FROM = { has_ruler = "Guybrush" }
	}
}

insult_against_guybrush = {
	trigger = {
		has_ruler = "Guybrush"
	}
}

insult_low_dipadm = {
	trigger = {
		has_regency = no
		OR = {
			NOT = { ADM = 2 }
			NOT = { DIP = 2 }
		}
	}
}

insult_pvp = {
	trigger = {
		ai = no
		FROM = { ai = no }
	}
}

insult_pvp2 = {
	trigger = {
		ai = no
		FROM = { ai = no }
	}
}


insult_fort = {
	trigger = {
		any_owned_province = {
			fort_level = 3
		}
		FROM = {
			mil_tech = 7
		}
	}
}

insult_revolutionary = {
	trigger = {
		has_regency = no
		FROM = {
			OR = {
				has_reform = revolutionary_empire_reform
				is_revolutionary_republic_trigger = yes
			}
		}
	}
}

insult_monarchy_rank = {
	trigger = {
		FROM = {
			government = monarchy
			government_rank = 2
		}
		government_rank = 1
		has_regency = no
	}
}

insult_low_adm = {
	trigger = {
		NOT = {
			ADM = 2
		}
	}
}

insult_against_craven = {
	trigger = {
		ruler_has_personality = craven_personality
	}
}

insult_against_sinner = {
	trigger = {
		ruler_has_personality = sinner_personality
		has_consort = yes
	}
}

insult_against_hre = {
	trigger = {
		is_emperor = yes
	}
}


insult_loans = {
	trigger = {
		OR = {
			num_of_loans = 5
			is_bankrupt = yes
		}
	}
}

insult_rebels = {
	trigger = {
		num_of_rebel_armies = 1
	}
}

insult_low_mil_tech = {
	trigger = {
		NOT = { mil_tech = FROM }
	}
}


insult_republic_to_monarchy = {
	trigger = {
		government = monarchy
		FROM = {
			has_reform = peasants_republic
		}
	}
}

insult_pirates_1 = {
	trigger = {
		FROM = {
			has_government_attribute = is_pirate_republic_reform
		}
	}
}

insult_pirates_2 = {
	trigger = {
		FROM = {
			has_government_attribute = is_pirate_republic_reform
		}
	}
}

insult_pirates_3 = {
	trigger = {
		FROM = {
			has_government_attribute = is_pirate_republic_reform
		}
	}
}

insult_pirates_4 = {
	trigger = {
		FROM = {
			has_government_attribute = is_pirate_republic_reform
		}
		ruler_has_personality = drunkard_personality
	}
}

insult_pirates_5 = {
	trigger = {
		FROM = {
			has_government_attribute = is_pirate_republic_reform
		}
	}
}

insult_jungle = {
	trigger = {
		FROM = {
			NOT = { num_of_cities = ROOT }
			NOT = {
				capital_scope = {
					OR = {
						has_terrain = jungle
						has_terrain = marsh
					}
				}
			}
		}
		capital_scope = {
			OR = {
				has_terrain = jungle
				has_terrain = marsh
			}
		}
	}
}

# Anbennar-specific

insult_marrhold_adventurer = {
	trigger = {
		is_adventurer = yes
		capital_scope = { superregion = escann_superregion }
		FROM = { tag = B36 }
	}
}

insult_corin_waifu = {
	trigger = {
		FROM = { religion = regent_court }
		religion = corinite
	}
}

insult_tall_small_1 = {
	trigger = {
		FROM = {
			OR = {
				culture_group = ogre
				culture_group = giantkind
			}
			NOT = { primary_culture = horned_ogre }
		}
		OR = {
			culture_group = halfling
			culture_group = kobold
			culture_group = goblin
			culture_group = gnomish
			culture_group = dwarven
		}
	}
}

insult_tall_small_2 = {
	trigger = {
		FROM = {
			OR = {
				culture_group = ogre
				culture_group = giantkind
			}
			NOT = { primary_culture = horned_ogre }
		}
		OR = {
			culture_group = halfling
			culture_group = kobold
			culture_group = goblin
			culture_group = gnomish
			culture_group = dwarven
		}
	}
}

insult_tall_small_3 = {
	trigger = {
		FROM = {
			OR = {
				culture_group = ogre
				culture_group = giantkind
			}
			NOT = { primary_culture = horned_ogre }
		}
		OR = {
			culture_group = halfling
			culture_group = kobold
			culture_group = goblin
			culture_group = gnomish
			culture_group = dwarven
		}
	}
}

insult_garden_gnomes = {
	trigger = {
		culture_group = gnomish
		FROM = { NOT = { culture_group = gnomish } }
	}
}

insult_silmuna_1 = {
	trigger = {
		dynasty = "Silmuna"
	}
}

insult_from_pelomar = {
	trigger = {
		FROM = { tag = H08 }
		capital_scope = { superregion = eordand_superregion }
	}
}

insult_from_winter_court = {
	trigger = {
		FROM = { religion = winter_court }
		OR = {
			religion = eordellon
			religion = spring_court
			religion = autumn_court
			religion = summer_court
		}
	}
}

insult_ogres = {
	trigger = {
		culture_group = ogre
	}
}

insult_from_undead_army = {
	trigger = {
		FROM = { has_country_modifier = undead_military }
		NOT = { has_country_modifier = undead_military }
	}
}

insult_from_xhazobkult = {
	trigger = {
		FROM = { religion = xhazobkult }
	}
}

insult_from_harpy_1 = {
	trigger = {
		FROM = { religion = the_hunt }
		is_female = no
	}
}

insult_from_harpy_2 = {
	trigger = {
		FROM = { religion = the_hunt }
		NOT = { has_country_modifier = harpy_administration }
	}
}

insult_lencori_1 = {
	trigger = {
		culture_group = lencori
		wine = 1
	}
}

insult_lencori_2 = {
	trigger = {
		culture_group = lencori
		wine = 1
	}
}

insult_lencori_alenic = {
	trigger = {
		culture_group = lencori
		FROM = { culture_group = alenic }
	}
}

insult_from_dumb_ogres_1 = {
	trigger = {
		FROM = {
			religion = feast_of_the_gods
		}
	}
}

insult_from_dumb_ogres_2 = {
	trigger = {
		FROM = {
			culture_group = ogre
			NOT = { primary_culture = horned_ogre }
		}
	}
}

insult_from_mossmouth_1 = {
	trigger = {
		FROM = {
			primary_culture = mossmouth_ogre
		}
	}
}

insult_from_mossmouth_2 = {
	trigger = {
		FROM = {
			primary_culture = mossmouth_ogre
		}
	}
}

insult_from_gnomes_1 = {
	trigger = {
		FROM = {
			culture_group = gnomish
		}
		NOT = { culture_group = gnomish }
	}
}

insult_from_gnomes_2 = {
	trigger = {
		FROM = {
			culture_group = gnomish
		}
		NOT = { culture_group = gnomish }
	}
}


insult_closed_dwarves = {
	trigger = {
		culture_group = dwarven
		OR = {
			mercantilism = 25
			FROM = { tag = B36 }
		}
	}
}

insult_against_colonizer = {
	trigger = {
		FROM = {
			culture_is_ruinborn = yes
		}
		NOT = { culture_is_ruinborn = yes }
		any_owned_province = {
			OR = {
				continent = north_america
				continent = south_america
			}
		}
	}
}

insult_against_anbennar = {
	trigger = {
		is_emperor = yes
	}
}

insult_against_silmuna = {
	trigger = {
		FROM = { government = monarchy }
		dynasty = "Silmuna"
	}
}

insult_anbenncost = {
	trigger = {
		tag = A38
	}
}

insult_dwarf_1 = {
	trigger = {
		culture_group = dwarven
	}
}

insult_dwarf_2 = {
	trigger = {
		culture_group = dwarven
		NOT = { FROM = { culture_group = dwarven } }
	}
}

insult_dwarf_3 = {
	trigger = {
		culture_group = dwarven
		NOT = { tag = I24 }
		NOT = { FROM = { culture_group = dwarven } }
	}
}


insult_from_dwarf = {
	trigger = {
		FROM = { culture_group = dwarven }
		NOT = { culture_group = dwarven }
	}
}

insult_rianvisa_end = {
	trigger = {
		has_country_flag = aelnar_civil_war_end
	}
}

insult_ynn = {
	trigger = {
		FROM = {
			OR = {
				religion = ynn_river_worship
				religion = ynn_river_reformed
			}
		}
	}
}

insult_cannorian_rahen = {
	trigger = {
		capital_scope = { superregion = rahen_superregion }
		FROM = { capital_scope = { superregion = western_cannor_superregion } }
	}
}

insult_centaur_civilization = {
	trigger = {
		FROM = { culture_group = centaur }
		NOT = { has_country_modifier = monstrous_nation }
	}
}

insult_ruinborn_light = {
	trigger = {
		FROM = { religion = bulwari_sun_cult }
		has_country_modifier = ruinborn_administration
	}
}

insult_wex_damerian = {
	trigger = {
		tag = A30
		FROM = {
			OR = {
				dynasty = "Silmuna"
				dynasty = "Silistra"
			}
		}
	}
}

insult_slavers = {
	trigger = {
		OR = {
			has_country_modifier = orcish_slaves_in_colonies
			slaves = 1
		}
		FROM = {
			culture_group = orcish
			NOT = { has_country_modifier = monstrous_nation }
		}
	}
}

insult_damerian_wex = {
	trigger = {
		OR = { dynasty = "Silmuna" dynasty = "Silistra" }
		FROM = { has_country_flag = lilac_wars_rose_party }
	}
}

insult_gerudian = {
	trigger = {
		culture_group = gerudian
	}
}

insult_marrhold_1 = {
	trigger = {
		tag = B36
	}
}

insult_marrhold_2 = {
	trigger = {
		tag = B36
	}
}


insult_wood_elves_green_orcs = {
	trigger = {
		primary_culture = wood_elf
		FROM = { OR = { primary_culture = green_orc primary_culture = emerald_orc } }
	}
}

insult_wood_elves = {
	trigger = {
		primary_culture = wood_elf
		NOT = { FROM = { primary_culture = wood_elf } }
	}
}

insult_reavers = {
	trigger = {
		OR = {
			culture_group = gerudian
			tag = A02 #Deranne
			tag = A05 #Reveria
			tag = A11 #Pearlsedge
		}
	}
}

insult_heir_mage = {
	trigger = {
		has_ruler_modifier = heir_mage_personality_mod
	}
}

insult_esmari_1 = {
	trigger = {
		primary_culture = esmari
		FROM = { capital_scope = { superregion = western_cannor_superregion } }
	}
}

insult_esmari_2 = {
	trigger = {
		primary_culture = esmari
		FROM = { culture = esmari }
	}
}

insult_elves_industrialists = {
	trigger = {
		culture = wood_elf
		FROM = {
			OR = {
				culture_group = dwarven
				culture_group = goblin
				has_institution = industrialization
			}
		}
	}
}

insult_elves_1 = {
	trigger = {
		culture_group = elven
		FROM = { has_country_modifier = monstrous_nation }
	}
}

insult_elves_2 = {
	trigger = {
		culture_group = elven
	}
}

insult_great_power = {
	trigger = {
		is_great_power = yes
	}
}

insult_from_gnolls_1 = {
	trigger = {
		FROM = { has_country_modifier = gnollish_administration }
	}
}

insult_from_monstrous = {
	trigger = {
		NOT = { has_country_modifier = monstrous_nation }
		FROM = { has_country_modifier = monstrous_nation }
	}
}

insult_centaurs = {
	trigger = {
		has_country_modifier = centaur_administration
		FROM = { NOT = { has_country_modifier = monstrous_nation } }
	}
}

insult_humans_orcs_1 = {
	trigger = {
		has_country_modifier = human_administration
		FROM = { culture_group = orcish }
	}
}

insult_humans_orcs_2 = {
	trigger = {
		has_country_modifier = human_administration
		FROM = { culture_group = orcish }
	}
}

insult_from_kobolds_1 = {
	trigger = {
		FROM = { religion = kobold_dragon_cult }
		government = monarchy
	}
}

insult_from_kobolds_2 = {
	trigger = {
		FROM = { religion = kobold_dragon_cult }
		treasury = 500
	}
}

insult_blademarches = {
	trigger = {
		tag = B33 # Blademarches
	}
}

insult_raj = {
	trigger = {
		FROM = { tag = R38 }
		owns = 4411
	}
}


insult_gnolls_1 = {
	trigger = {
		culture_group = gnollish
	}
}

insult_gnolls_2 = {
	trigger = {
		NOT = { is_female = yes }
		culture_group = gnollish
	}
}


insult_from_longlived_1 = {
	trigger = {
		FROM = { ruler_has_personality = immortal_personality }
		NOT = { ruler_has_personality = immortal_personality }
	}
}


insult_celliande_toarnen = {
	trigger = {
		tag = A56
		FROM = { tag = A57 }
	}
}

insult_elves_ravelian = {
	trigger = {
		culture_group = elven
		FROM = { religion = ravelian }
	}
}

insult_sun_elves_nsc = {
	trigger = {
		FROM = { religion = bulwari_sun_cult }
		primary_culture = sun_elf
	}
}

insult_hehodovar = {
	trigger = {
		tag = I15
	}
}

insult_khozrugan = {
	trigger = {
		tag = Z51
	}
}

insult_ravelian_1 = {
	trigger = {
		religion = ravelian
		FROM = { NOT = { religion = ravelian } }
	}
}

insult_from_castanor_1 = {
	trigger = {
		has_country_modifier = human_administration
		FROM = { tag = B32 } # Castanor
	}
}

insult_from_castanor_2 = {
	trigger = {
		OR = {
			culture_group = ogre
			culture_group = orcish
			culture_group = gnollish
			culture_group = harpy
			culture_group = giantkind
			has_country_modifier = monstrous_nation
		}
		FROM = { tag = B32 } # Castanor
	}
}


insult_gawed = {
	trigger = {
		tag = A13
		FROM = {
			OR = {
				culture_group = lencori
				culture_group = anbennarian
			}
		}
	}
}

insult_monstrous = {
	trigger = {
		has_country_modifier = monstrous_nation
		NOT = { FROM = { has_country_modifier = monstrous_nation } }
	}
}

insult_halflings = {
	trigger = {
		has_country_modifier = halfling_administration
		NOT = {
			FROM = {
				OR = {
					culture_group = halfling
					culture_group = kobold
					culture_group = goblin
					culture_group = gnomish
					culture_group = dwarven
				}
			}
		}
	}
}

insult_from_regent_court = {
	trigger = {
		FROM = { religion = regent_court }
		has_global_flag = "castellos_is_dead_pantheonic_council"
	}
}

insult_lich = {
	trigger = {
		has_country_flag = lich_ruler_has_phylactery
	}
}

insult_from_dahvar = {
	trigger = {
		any_owned_province = {
			OR = {
				continent = north_america
				continent = south_america
			}
		}
		NOT = { religion = nur_dahvaraesa }
		FROM = { religion = nur_dahvaraesa }
	}
}

insult_from_xia_1 = {
	trigger = {
		FROM = { OR = { has_reform = wulin has_reform = xiaken has_reform = indep_xiaken } }
	}
}

insult_from_xia_2 = {
	trigger = {
		FROM = { OR = { has_reform = wulin has_reform = xiaken has_reform = indep_xiaken } }
	}
}

insult_from_xia_3 = {
	trigger = {
		FROM = { OR = { has_reform = wulin has_reform = xiaken has_reform = indep_xiaken } }
		NOT = { army_professionalism = 0.50 }
	}
}

insult_from_xia_4 = {
	trigger = {
		FROM = { OR = { has_reform = wulin has_reform = xiaken has_reform = indep_xiaken } }
		NOT = { army_professionalism = 0.50 }
	}
}

insult_vizier_1 = {
	trigger = {
		has_country_flag = raj_vizier
	}
}

insult_raja_1 = {
	trigger = {
		has_reform = raja_reform
	}
}

insult_from_ghavaanaj_1 = {
	trigger = {
		FROM = { primary_culture = ghavaanaj }
	}
}

insult_from_ghavaanaj_2 = {
	trigger = {
		NOT = {
			OR = { adm = 5 dip = 5 mil = 5 }
		}
		FROM = { primary_culture = ghavaanaj }
	}
}

insult_shuvuush_1 = {
	trigger = {
		primary_culture = shuvuush
	}
}

insult_shuvuush_2 = {
	trigger = {
		primary_culture = shuvuush
	}
}

insult_shuvuush_3 = {
	trigger = {
		primary_culture = shuvuush
	}
}

insult_shuvuush_4 = {
	trigger = {
		primary_culture = shuvuush
	}
}



insult_ghost_emperor_1 = {
	trigger = {
		has_ruler_flag = ghost_emperor
	}
}

insult_ghost_emperor_2 = {
	trigger = {
		has_ruler_flag = ghost_emperor
	}
}

insult_feiten = {
	trigger = {
		tag = Y20
	}
}

insult_elves_haless = {
	trigger = {
		FROM = {
			OR = {
				capital_scope = { region = bomdan_region }
				capital_scope = { region = lupulan_rainforest_region }
				capital_scope = { region = lower_yanshen_region }
				capital_scope = { region = north_yanshen_region }
				capital_scope = { region = upper_yanshen_region }
				capital_scope = { region = demon_hills_region }
				capital_scope = { region = xianjie_region }
				capital_scope = { region = thidinkai_region }
				capital_scope = { region = ringlet_isles_region }
				capital_scope = { region = odheongu_region }
			}
			NOT = { has_country_modifier = elven_administration }
		}
		has_country_modifier = elven_administration
	}
}

insult_xiaken_1 = {
	trigger = {
		OR = { has_reform = wulin has_reform = xiaken has_reform = indep_xiaken }
		FROM = { OR = { has_reform = wulin has_reform = xiaken has_reform = indep_xiaken } }
	}
}

insult_goldbolds = {
	trigger = {
		primary_culture = goldscale_kobold
		FROM = { NOT = { religion = righteous_path } }
	}
}

insult_eunuchs_rp = {
	trigger = {
		has_reform = eunuch_republic
		FROM = { religion = righteous_path }
	}
}

insult_from_verkal_dromak = {
	trigger = {
		FROM = { tag = I25 }
	}
}

insult_not_oni = {
	trigger = {
		FROM = { religion = righteous_path }
		OR = {
			capital_scope = { region = bomdan_region }
			capital_scope = { region = lupulan_rainforest_region }
			capital_scope = { region = lower_yanshen_region }
			capital_scope = { region = north_yanshen_region }
			capital_scope = { region = upper_yanshen_region }
			capital_scope = { region = demon_hills_region }
			capital_scope = { region = xianjie_region }
			capital_scope = { region = thidinkai_region }
			capital_scope = { region = ringlet_isles_region }
			capital_scope = { region = odheongu_region }
		}
		NOT = { primary_culture = horned_ogre }
	}
}

insult_krakazol_1 = {
	trigger = {
		FROM = { 
			tag = I20
			krakazol_is_drunk = { Drunk = yes }
		}
	}
}
insult_krakazol_2 = {
	trigger = {
		FROM = { 
			tag = I20
			krakazol_is_drunk = { Drunk = yes }
		}
	}
}
insult_krakazol_3 = {
	trigger = {
		FROM = { 
			tag = I20
			krakazol_is_drunk = { Drunk = yes }
		}
	}
}
insult_krakazol_4 = {
	trigger = {
		FROM = { 
			tag = I20
			krakazol_is_drunk = { Drunk = yes }
		}
	}
}
insult_krakazol_5 = {
	trigger = {
		FROM = { 
			tag = I20
			krakazol_is_drunk = { Drunk = yes }
		}
	}
}
insult_krakazol_6 = {
	trigger = {
		FROM = { 
			tag = I20
			krakazol_is_drunk = { Drunk = yes }
		}
	}
}
insult_krakazol_7 = {
	trigger = {
		FROM = { 
			tag = I20
			krakazol_is_drunk = { Drunk = yes }
		}
	}
}
insult_krakazol_8 = {
	trigger = {
		FROM = { 
			tag = I20
			krakazol_is_drunk = { Drunk = yes }
		}
	}
}
insult_krakazol_9 = {
	trigger = {
		FROM = { 
			tag = I20
			krakazol_is_drunk = { Drunk = yes }
		}
	}
}
insult_krakazol_10 = {
	trigger = {
		FROM = { 
			tag = I20
			krakazol_is_drunk = { Drunk = yes }
		}
	}
}
insult_krakazol_11 = {
	trigger = {
		FROM = { 
			tag = I20
			krakazol_is_drunk = { Drunk = yes }
		}
		NOT = { has_country_modifier = dwarven_administration }
	}
}
insult_krakazol_12 = {
	trigger = {
		FROM = { 
			tag = I20
			krakazol_is_drunk = { Drunk = yes }
		}
		has_country_modifier = ogre_administration
	}
}

insult_no_maidens = {
	trigger = {
		FROM = {
			tag = Y26
		}
	}
}
