#Designed by: Druplesnubb
#Coded by: Druplesnubb & asdsfsgshsjk

vazhatun_1 = { 
	slot = 1
	generic = no
	ai = yes 
	has_country_shield = yes
	potential = { tag = I03 }

	vazhatun_discovery_of_the_survivors = {
		#icon = fight_bosnian_heresies
		icon = mission_bridge_the_heresy
		position = 2
		required_missions = { vazhatun_fresh_air }
		
		provinces_to_highlight = {
			NOT = { 4208 = { owned_by = ROOT } }
			OR = {
				owned_by = I02
				province_id = 4208
			}
		}

		trigger = {
			OR = {
				controls = 4208
				
				I02 = {
					has_opinion = {
						who = ROOT
						value = 75
					}

					is_neighbor_of = ROOT
				}

				I02 = {
					is_rival = ROOT
					is_neighbor_of = ROOT
				}
			}
		}
		
		effect = { country_event = { id = flavor_vazhatun.2 } }
	}
	
	vazhatun_records_of_the_fall = {
		icon = mission_court_education
		position = 3
		required_missions = { vazhatun_discovery_of_the_survivors }
		
		provinces_to_highlight = {
			area = amldihr_area
			NOT = {
				AND = {
					owned_by = ROOT
					OR = {
						NOT = { province_id = 4119 }
						development = 50
					}
				}
			}
		}

		trigger = {
			amldihr_area = {
				type = all
				owned_by = ROOT
			}
			4119 = { development = 50 }
		}
		
		effect = {
			country_event = { id = flavor_vazhatun.3 }
			
			royal_terrace_area = { add_permanent_claim = ROOT }
			assembly_terrace_area = { add_permanent_claim = ROOT }
		}
	}

	vazhatun_securing_the_vale = {
		icon = the_alpine_wall
		position = 6
		required_missions = { vazhatun_records_of_the_fall }
		
		provinces_to_highlight = {
			OR = {
				province_id = 4122
				province_id = 4128
				province_id = 4151
				province_id = 4164
			}
			NOT = {
				AND = {
					owned_by = ROOT
					has_fort_building_trigger = yes
				}
			}
		}

		trigger = {
			4122 = {
				owned_by = ROOT
				has_fort_building_trigger = yes
			}
			4128 = {
				owned_by = ROOT
				has_fort_building_trigger = yes
			}
			4151 = {
				owned_by = ROOT
				has_fort_building_trigger = yes
			}
			4164 = {
				owned_by = ROOT
				has_fort_building_trigger = yes
			}
		}
		
		effect = {
			4122 = {
				add_permanent_province_modifier = {
					name = vazhatun_entrance_secured
					duration = -1
				}
			}
			4128 = {
				add_permanent_province_modifier = {
					name = vazhatun_entrance_secured
					duration = -1
				}
			}
			4151 = {
				add_permanent_province_modifier = {
					name = vazhatun_entrance_secured
					duration = -1
				}
			}
			4164 = {
				add_permanent_province_modifier = {
					name = vazhatun_entrance_secured
					duration = -1
				}
			}
		}
	}

	vazhatun_western_connections = {
		icon = develop_konigsberg
		position = 7
		required_missions = {
			vazhatun_securing_the_vale
			vazhatun_fortifying_the_pass
		}
		
		provinces_to_highlight = {
			OR = {
				province_id = 2863
				AND = {
					superregion = gerudia_superregion
					sea_zone = { region = giants_grave_sea_region }
				}
			}
		}

		trigger = {
			if = {
				limit = { has_estate = estate_nobles }
				estate_loyalty = {
   					estate = estate_nobles
    				loyalty = 60
				}
			}

			is_at_war = no

			OR = {
				2863 = {
					num_of_units_in_province = {
						who = ROOT
						amount = 1
					}
				}
				gerudia_superregion = {
					has_port = yes
					sea_zone = { region = giants_grave_sea_region }
					num_of_units_in_province = {
						who = ROOT
						amount = 1
					}
				}
			}
		}
		
		effect = {
			western_cannor_superregion = { discover_country = ROOT }
			escann_superregion = { discover_country = ROOT }

			southern_giants_tears_area = { add_permanent_claim = ROOT }
			zeindalr_area = { add_permanent_claim = ROOT }
			northern_giants_tears_area = { add_permanent_claim = ROOT }
			vrorenmarch_area = { add_permanent_claim = ROOT }
			
			add_country_modifier = {
				name = vazhatun_new_settlers
				duration = 10950
			}
		}
	}

	vazhatun_the_western_port = {
		icon = mission_heart_of_the_hansa
		#icon = mission_develop_nevas_port
		#icon = mission_hanseatic_city
		position = 8
		required_missions = { vazhatun_western_connections }
		
		provinces_to_highlight = {
			NOT = {
				ROOT = {
					any_owned_province = {
						superregion = gerudia_superregion
						has_trade_building_trigger = yes
						has_shipyard_building_trigger = yes
						has_dock_building_trigger = yes
					}
				}
			}
			has_port = yes
			superregion = gerudia_superregion
		}

		trigger = {
			any_owned_province = {
				superregion = gerudia_superregion
				has_trade_building_trigger = yes
				has_shipyard_building_trigger = yes
				has_dock_building_trigger = yes
			}

			treasury = 2000

			vazhatun_has_knowledge = { amount_20 = yes }

		}
		
		effect = {
			vazhatun_spend_knowledge = { amount_20 = yes }

			country_event = { id = flavor_vazhatun.12 }
		}
	}

	vazhatun_experts_of_magic = {
		icon = mission_magic_tower
		position = 9
		required_missions = { vazhatun_the_western_port }
		
		provinces_to_highlight = {
			NOT = { ROOT = { mage_tower = 5 } }
			owned_by = ROOT
			NOT = { has_building = mage_tower }
		}

		trigger = {
			court_mage = 3

			mage_tower = 5

			estate_influence = {
    			estate = estate_mages
    			influence = 60
			}
			estate_loyalty = {
   				estate = estate_mages
    			loyalty = 50
			}
			has_estate_privilege = estate_mages_patronage_of_the_magical_arts
			has_estate_privilege = estate_mages_vazhatun_study_runes

		}
		
		effect = {
			country_event = { id = flavor_vazhatun.14 }
		}
	}

	vazhatun_the_new_science = {
		icon = mission_state_manufactories
		position = 10
		required_missions = { vazhatun_disseminate_the_knowledge }
		
		provinces_to_highlight = {}

		trigger = {
			has_estate = estate_artificers

			adm_power = 100
			dip_power = 100
			mil_power = 100

			if = {
				limit = { has_dlc = "Rule Britannia" }
				innovativeness = 70
			}
		}
		
		effect = {
			add_adm_power = -100
			add_dip_power = -100
			add_mil_power = -100

			custom_tooltip = vazhatun_unlock_artificer_privilege_tt
			set_estate_privilege = estate_artificers_organization_vazhatun_enhanced_astronomy
		}
	}

	vazhatun_the_ravelian_church = {
		icon = catholic_volunteers
		position = 11
		required_missions = { vazhatun_the_new_science }
		
		provinces_to_highlight = {}

		trigger = {
			has_estate = estate_artificers

			OR = {
				philosopher = 3
				natural_scientist = 3
				theologian = 3
			}

			custom_trigger_tooltip = {
				tooltip = vazhatun_nonnegative_ravelian_tolerance_tt
				#Note: This trigger has no correct localization according to the eu4 wiki, and will thus need a custom loc
				ravelian = 0
			}

			if = {
				limit = { has_dlc = "Rule Britannia" }
				innovativeness = 80
			}
		}
		
		effect = { country_event = { id = flavor_vazhatun.19 } }
	}
}

vazhatun_2 = { 
	slot = 2
	generic = no
	ai = yes 
	has_country_shield = yes
	potential = { tag = I03 }
	
	vazhatun_fresh_air = {
		icon = mission_develop_the_scandes
		position = 1
		required_missions = {}
		
		provinces_to_highlight = {
			NOT = {
				ROOT = {
					Development_in_provinces = {
						value = 40
						OR ={
							Region = northern_pass_region
							Region = serpents_vale_region
							Region = yyl_moista_region
						}
					}
				}
			}
			OR = {
				region = northern_pass_region
				region = serpents_vale_region
				region = yyl_moista_region
			}
		}

		trigger = {
			Development_in_provinces = {
				value = 40
				OR ={
					Region = northern_pass_region
					Region = serpents_vale_region
					Region = yyl_moista_region
				}
			}
		}
		
		effect = {
			add_country_modifier = {
				name = vazhatun_exploring_outside
					duration = 7300
			}
		}
	}
	
	vazhatun_proper_equipment = {
		icon = mission_industrial_forging
		position = 2
		required_missions = { vazhatun_fresh_air }
		
		provinces_to_highlight = {
			province_id = 4147
			NOT = { owned_by = ROOT }
		}

		trigger = { owns = 4147 }
		
		effect = {
			add_country_modifier = {
				name = vazhatun_expedition_equipment
				duration = 7300
			}
			
			castle_hill_area = { add_permanent_claim = ROOT }
			orlazam_area = { add_permanent_claim = ROOT }
			common_terrace_area = { add_permanent_claim = ROOT }
		}
	}
	
	vazhatun_records_of_the_refugees = {
		icon = mission_writing_book
		#icon = medici_bank_ledgers
		#icon = mission_vedic_education
		position = 3
		required_missions = { vazhatun_discovery_of_the_survivors }
		
		provinces_to_highlight = {
			owner = {
				owns = 4208
				NOT = { tag = ROOT }
			}
		}

		trigger = {
			custom_trigger_tooltip = {
				tooltip = vazhatun_astronomy_unlocked_tt
				has_country_flag = vazhatun_astronomy_unlocked
			}

			OR = {
				AND = {
					owns = 4208
					
					accepted_culture = quartz_dwarf
				}
				
				any_subject_country = {
					AND = {
						owns = 4208

						is_subject_of = ROOT
						NOT = { liberty_desire = 50 }
					}
				}
			}
		}
		
		effect = { vazhatun_increase_astral_efficiency = yes }
	}
	
	vazhatun_sequester_the_insane = {
		icon = prosper_in_piedmont
		position = 4
		required_missions = {
			vazhatun_records_of_the_fall
			vazhatun_records_of_the_refugees
			vazhatun_what_they_left_behind
		}
		
		provinces_to_highlight = {
			OR = {
				province_id = 4182
				area = lonely_mountains_area
			}
			NOT = {
				AND = {
					owned_by = ROOT
					OR = {
						has_fort_building_trigger = yes
						area = lonely_mountains_area
					}
				}
			}
		}

		trigger = {
			lonely_mountains_area = {
				type = all
				owned_by = ROOT
			}
			4182 = {
				owned_by = ROOT
				has_fort_building_trigger = yes
			}
			
			custom_trigger_tooltip = {
				tooltip = vazhatun_completed_1_observations_tt
				check_variable = {
					which = vazhatun_observations_completed
					value = 1
				}
			}
		}
		
		effect = {
			lonely_mountains_area = {
				add_base_manpower = 1
				add_province_modifier = {
					name = vazhatun_recieving_madmen
					duration = 3650
				}
			}
			vazhatun_drop_terror = { small = yes }
		}
	}

	vazhatun_study_the_terror = {
		icon = the_hungarian_succession
		#icon = medici_bank_ledgers
		#icon = mission_educated_people
		position = 5
		required_missions = { vazhatun_sequester_the_insane }
		
		provinces_to_highlight = {
			area = lonely_mountains_area
			lonely_mountains_area = { has_building = mage_tower }
			NOT = {
				AND = {
					base_manpower = 5
					has_tax_building_trigger = yes
				}
			}
		}

		trigger = {
			lonely_mountains_area = {
				type = all
				owned_by = ROOT
				base_manpower = 5
				has_tax_building_trigger = yes
			}
			lonely_mountains_area = { has_building = mage_tower }

			if = {
				limit = { has_dlc = "Rule Britannia" }
				innovativeness = 15
			}
		}
		
		effect = { country_event = { id = flavor_vazhatun.5 } }
	}

	vazhatun_fortifying_the_pass = {
		#icon = alpine_defenses
		icon = mission_control_the_desh
		position = 6
		required_missions = { vazhatun_study_the_terror }
		
		provinces_to_highlight = {
			OR = {
				AND = {
					OR = {
						area = tanning_valley_area
						area = upper_logr_area
						area = the_copperwood_area
						area = middle_logr_area
						area = hidden_respite_area
					}
					NOT = { owned_by = ROOT }
				}
				AND = {
					NOT = {
						ROOT = {
							num_of_owned_provinces_with = {
								value = 3
								has_fort_building_trigger = yes
								region = northern_pass_region
							}
						}
					}
					region = northern_pass_region
					owned_by = ROOT
					has_fort_building_trigger = no
				}
			}
		}

		trigger = {		
			tanning_valley_area = {
				type = all
				owned_by = ROOT
			}
			upper_logr_area = {
				type = all
				owned_by = ROOT
			}
			the_copperwood_area = {
				type = all
				owned_by = ROOT
			}
			middle_logr_area = {
				type = all
				owned_by = ROOT
			}
			hidden_respite_area = {
				type = all
				owned_by = ROOT
			}

			num_of_owned_provinces_with = {
				value = 3
				has_fort_building_trigger = yes
				region = northern_pass_region
			}
		}
		
		effect = {
			lower_logr_area = { add_permanent_claim = ROOT }
			hjyrtsikki_area = { add_permanent_claim = ROOT }
			dwaroval_area = { add_permanent_claim = ROOT }
		}
	}

	vazhatun_back_to_school = {
		icon = mission_taula_de_canvi
		position = 7
		required_missions = { vazhatun_eastern_connections }
		
		provinces_to_highlight = {
			OR = {
				AND = {
					province_id = 4020
					NOT = { owned_by = ROOT }
				}
				owner = { owns = 5229 }
			}
		}

		trigger = {
			if = {
				limit = {
					5229 = {
						owner = {
							OR = {
								has_country_modifier = monstrous_nation
								has_country_flag = semi_monstrous
								ai_attitude = {
									who = ROOT
									attitude = attitude_hostile
								}
								is_rival = ROOT
							}
						}
					}
				}
				5229 = {
					owner = {
						has_spy_network_from = {
							who = ROOT
							value = 35
						}
					}
				}
			}
			else = {
				5229 = {
					owner = {
						has_opinion = {
							who = ROOT
							value = 50
						}
					}
				}
			}
			
			4020 = {
				owned_by = ROOT
				NOT = { has_construction = any }
			}
			treasury = 150

			has_dip_advisor_3 = yes
			has_adm_advisor_3 = yes
			has_mil_advisor_3 = yes

			if = {
				limit = { has_dlc = "Rule Britannia" }
				innovativeness = 30
			}
		}
		
		effect = {
			country_event = { id = flavor_vazhatun.9 }

			4020 = {
				add_building_construction = {
    				building = university
    				speed = 1
    				cost = 0.5
				}
			}
		}
	}

	vazhatun_the_knowledge_of_the_dame = {
		icon = mission_mosque
		position = 8
		required_missions = {
			vazhatun_western_connections
			vazhatun_back_to_school
		}
		
		provinces_to_highlight = {
			OR = {
				AND = {
					province_id = 4020
					NOT = {
						AND = {
							owned_by = ROOT
							has_building = university
						}
					}
				}
				owner = { owns = 4 }
			}
		}

		trigger = {
			if = {
				limit = {
					4 = {
						owner = {
							OR = {
								has_country_modifier = monstrous_nation
								has_country_flag = semi_monstrous
								ai_attitude = {
									who = ROOT
									attitude = attitude_hostile
								}
								is_rival = ROOT
							}
						}
					}
				}
				4 = {
					owner = {
						has_spy_network_from = {
							who = ROOT
							value = 35
						}
					}
				}
			}
			else = {
				4 = {
					owner = {
						has_opinion = {
							who = ROOT
							value = 25
						}
					}
				}
			}

			vazhatun_has_knowledge = { amount_50 = yes }

			custom_trigger_tooltip = {
				tooltip = vazhatun_completed_9_observations_tt
				check_variable = {
					which = vazhatun_observations_completed
					value = 9
				}
			}

			4020 = {
				owned_by = root
				has_building = university
			}

			if = {
				limit = { has_dlc = "Rule Britannia" }
				innovativeness = 50
			}
		}
		
		effect = {
			vazhatun_spend_knowledge = { amount_50 = yes }
			
			country_event = { id = flavor_vazhatun.13 }
		}
	}

	vazhatun_disseminate_the_knowledge = {
		icon = found_the_vatican_library
		#icon = bibliotheca_corviana
		position = 9
		required_missions = {
			vazhatun_the_western_port
			vazhatun_the_knowledge_of_the_dame
		}
		
		provinces_to_highlight = {
			OR = {
				owner = { owns = 275 }
				sea_zone = { region = giants_grave_sea_region }
				AND = {
					owned_by = ROOT
					has_province_modifier = dwarovar_rail
				}
				AND = {
					NOT = {
						ROOT = {
							num_of_owned_provinces_with = {
								value = 7
								has_manufactory_trigger = yes
							}
						}
					}
					owned_by = ROOT
					has_manufactory_trigger = no
				}
				AND = {
					province_id = 4020
					NOT = { owned_by = ROOT }
				}
			}
		}

		trigger = {
			if = {
				limit = {
					275 = {
						owner = {
							OR = {
								has_country_modifier = monstrous_nation
								has_country_flag = semi_monstrous
								ai_attitude = {
									who = ROOT
									attitude = attitude_hostile
								}
								is_rival = ROOT
							}
						}
					}
				}
				275 = {
					owner = {
						has_spy_network_from = {
							who = ROOT
							value = 35
						}
					}
				}
			}
			else = {
				275 = {
					owner = {
						has_opinion = {
							who = ROOT
							value = 25
						}
					}
				}
			}

			4020 = { owned_by = root }

			any_owned_province = {
				has_port = yes
  				sea_zone = { region = giants_grave_sea_region }
  				light_ships_in_province = 15
			}

			num_of_owned_provinces_with = {
				value = 7
				has_manufactory_trigger = yes
			}

			all_owned_province = {
				NOT = { has_province_modifier = dwarovar_rail }
			}
		}
		
		effect = { country_event = { id = flavor_vazhatun.15 } }
	}

	vazhatun_center_of_learning = {
		icon = counter_reformation
		position = 11
		required_missions = {
			vazhatun_disseminate_the_knowledge
			vazhatun_journey_to_the_oracle
		}
		
		provinces_to_highlight = {
			OR = {
				AND = {
					province_id = 4020
					OR = {
						NOT = { owned_by = ROOT }
						has_dwarven_hold_8 = no
					}
				}
				AND = {
					ROOT = {
						NOT = {
							num_of_owned_provinces_with = {
								value = 15
								has_manufactory_trigger = yes
							}
						}
					}
					owned_by = ROOT
					has_manufactory_trigger = no
				}
			}
		}

		trigger = {
			4020 = {
				owned_by = ROOT
				has_dwarven_hold_8 = yes
			}

			num_of_owned_provinces_with = {
				value = 15
				has_manufactory_trigger = yes
			}

			if = {
				limit = { has_estate = estate_burghers }
				has_estate_privilege = estate_burghers_patronage_of_the_arts
			}
			else_if = {
				limit = { has_estate = estate_castonath_patricians }
				has_estate_privilege = estate_castonath_patricians_glorify_castanorian_culture
			}

			if = {
				limit = { has_dlc = "Rule Britannia" }
				innovativeness = 99
			}
			#TODO
			#Replacement for innovativeness requirement?
		}
		
		effect = {
			add_splendor = 400

			vazhatun_increase_astral_efficiency_huge = yes
		}
	}

	vazhatun_a_message_from_the_stars = {
		icon = mission_well_of_majesty
		#icon = mission_star_comet
		#icon = mission_the_dame_tears
		position = 12
		required_missions = { vazhatun_center_of_learning }
		
		provinces_to_highlight = {
			OR = {
				province_id = 4182
				area = lonely_mountains_area
			}
			NOT = { owned_by = ROOT }
		}

		trigger = {
			owns = 4182
			lonely_mountains_area = {
				type = all
				owned_by = ROOT
			}
			
			custom_trigger_tooltip = {
				tooltip = vazhatun_completed_13_observations_tt
				check_variable = {
					which = vazhatun_observations_completed
					value = 13
				}
			}
		}
		
		effect = { country_event = { id = flavor_vazhatun.20 } }
	}
}

vazhatun_3 = { 
	slot = 3
	generic = no
	ai = yes 
	has_country_shield = yes
	potential = { tag = I03 }

	vazhatun_clearing_our_home = {
		icon = alpine_defenses
		#icon = mission_armor_choice
		#icon = unify_piedmont
		position = 2
		required_missions = { vazhatun_repairing_the_setzunkhupa }
		
		provinces_to_highlight = {
			area = vazhatun_area
			NOT = { owned_by = ROOT }
		}
		
		trigger = {
			vazhatun_area = {
				type = all
				owned_by = ROOT
			}
		}
		
		effect = {
			dagrinrod_13_15_area = { add_permanent_claim = ROOT }
			old_dagrinrod_area = { add_permanent_claim = ROOT }
		}
	}
	
	vazhatun_securing_our_backs = {
		icon = establish_the_musketeers
		position = 3
		required_missions = {
			vazhatun_proper_equipment
			vazhatun_clearing_our_home
		}
		
		provinces_to_highlight = {
			OR = {
				area = vazhatun_area
				area = orlazam_area
				area = dagrinrod_13_15_area
				area = old_dagrinrod_area
			}
			NOT = {
				AND = {
					owned_by = ROOT
					OR = {
						has_fort_building_trigger = yes
						NOT = {
							province_id = 4020
							province_id = 4147
							province_id = 2996
						}
					}
				}
			}
		}
		
		trigger = {
			vazhatun_area = {
				type = all
				owned_by = ROOT
			}
			orlazam_area = {
				type = all
				owned_by = ROOT
			}
			dagrinrod_13_15_area = {
				type = all
				owned_by = ROOT
			}
			old_dagrinrod_area = {
				type = all
				owned_by = ROOT
			}
			4020 = { has_fort_building_trigger = yes }
			4147 = { has_fort_building_trigger = yes }
			2996 = { has_fort_building_trigger = yes }
		}
		
		effect = {
			2996 = {
				add_permanent_province_modifier = {
					name = vazhatun_entrance_secured
					duration = -1
				}
			}
		}
	}

	vazhatun_reclaim_the_research_stations = {
		icon = mission_che_the_cave_country
		position = 4
		required_missions = { vazhatun_what_they_left_behind }
		
		provinces_to_highlight = {
			OR = {
				AND = {
					region = northern_pass_region
                	NOT = {
                	    AND = {
                	        owned_by = ROOT
                	        development = 6
                	    }
                	}
					NOT = {
                    	ROOT = {
                        	num_of_owned_provinces_with = {
                            	value = 5
                            	region = northern_pass_region
                            	development = 6
                        	}
                    	}
                	}
            	}
				AND = {
                	region = serpents_vale_region
                	NOT = {
                	    AND = {
                	        owned_by = ROOT
                	        development = 6
                	    }
                	}
					NOT = {
                    	ROOT = {
                        	num_of_owned_provinces_with = {
                            	value = 5
                            	region = serpents_vale_region
                            	development = 6
                        	}
                    	}
                	}
            	}
				AND = {
                	region = yyl_moista_region
                	NOT = {
                	    AND = {
                	        owned_by = ROOT
                	        development = 6
                	    }
                	}
					NOT = {
                    	ROOT = {
                        	num_of_owned_provinces_with = {
                            	value = 5
                            	region = yyl_moista_region
                            	development = 6
                        	}
                    	}
                	}
            	}
				AND = {
                	region = ogre_mountains_region
                	NOT = {
                	    AND = {
                	        owned_by = ROOT
                	        development = 6
                	    }
                	}
					NOT = {
                    	ROOT = {
                        	num_of_owned_provinces_with = {
                            	value = 5
                            	region = ogre_mountains_region
                            	development = 6
                        	}
                    	}
                	}
            	}
			}
		}
		
		trigger = {
			num_of_owned_provinces_with = {
				value = 5
				region = northern_pass_region
				development = 6
			}
			num_of_owned_provinces_with = {
				value = 5
				region = serpents_vale_region
				development = 6
			}
			num_of_owned_provinces_with = {
				value = 5
				region = yyl_moista_region
				development = 6
			}
			num_of_owned_provinces_with = {
				value = 5
				region = ogre_mountains_region
				development = 6
			}
		}
		
		effect = {
			5003 = { add_permanent_claim = ROOT }

			add_country_modifier = {
				name = vazhatun_research_stations
				duration = 7300
			}
			
			vazhatun_increase_astral_efficiency_small = yes
		}
	}

	vazhatun_contact_with_the_kukatodic_tribes = {
		icon = mission_the_sami
		position = 5
		required_missions = { vazhatun_reclaim_the_research_stations }
		
		provinces_to_highlight = {
			province_id = 5003
			NOT = {
				AND = {
					owned_by = ROOT
					development = 6
					has_trade_building_trigger = yes
				}
			}
		}
		
		trigger = {
			5003 = {
				owned_by = ROOT
				development = 6
				has_trade_building_trigger = yes
			}

			treasury = 50

			vazhatun_has_knowledge = { amount_5 = yes }
		}
		
		effect = {
			vazhatun_spend_knowledge = { amount_5 = yes }
			
			country_event = { id = flavor_vazhatun.6 }
		}
	}

	vazhatun_eastern_connections = {
		icon = develop_provence
		position = 6
		required_missions = { vazhatun_contact_with_the_kukatodic_tribes }
		
		provinces_to_highlight = {
			OR = {
				AND = {
					NOT = {
						ROOT = {
							num_of_owned_provinces_with = {
								value = 4
								region = yyl_moista_region
								has_trade_building_trigger = yes
							}
						}
					}

					region = yyl_moista_region
					has_trade_building_trigger = no
				}
				AND = {
					superregion = forbidden_lands_superregion
					sea_zone = { region = northern_sea_region }
				}
			}
		}
		
		trigger = {
			is_at_war = no

			num_of_owned_provinces_with = {
				value = 4
				region = yyl_moista_region
				has_trade_building_trigger = yes
			}

			if = {
				limit = { has_estate = estate_burghers }
				estate_loyalty = {
    				estate = estate_burghers
    				loyalty = 60
				}
			}
			else_if = {
				limit = { has_estate = estate_castonath_patricians }
				estate_loyalty = {
    				estate = estate_castonath_patricians
    				loyalty = 60
				}
			}

			forbidden_lands_superregion = {
				has_port = yes
				sea_zone = { region = northern_sea_region }
				num_of_units_in_province = {
					who = ROOT
					amount = 1
				}
			}
		}
		
		effect = {
			southern_isles_region = { discover_country = ROOT }
			northern_isles_region = { discover_country = ROOT }

			add_dip_power = 100
		}
	}

	vazhatun_the_city_reaching_for_the_sky = {
		icon = mission_reclaim_dehli
		position = 7
		required_missions = { vazhatun_eastern_connections }
		
		provinces_to_highlight = {
			OR = {
				owner = { owns = 5287 }
				AND = {
					province_id = 4020
					NOT = { owned_by = ROOT }
				}
			}
		}

		trigger = {
			if = {
				limit = {
					5287 = {
						owner = {
							OR = {
								has_country_modifier = monstrous_nation
								has_country_flag = semi_monstrous
								ai_attitude = {
									who = ROOT
									attitude = attitude_hostile
								}
								is_rival = ROOT
							}
						}
					}
				}
				5287 = {
					owner = {
						has_spy_network_from = {
							who = ROOT
							value = 35
						}
					}
				}
			}
			else = {
				5287 = {
					owner = {
						has_opinion = {
							who = ROOT
							value = 75
						}
					}
				}
			}
			
			owns = 4020

			natural_scientist = 3

			custom_trigger_tooltip = {
				tooltip = vazhatun_completed_5_observations_tt
				check_variable = {
					which = vazhatun_observations_completed
					value = 5
				}
			}
			
			vazhatun_has_knowledge = { amount_25 = yes }
		}
		
		effect = {
			vazhatun_spend_knowledge = { amount_25 = yes }
			
			country_event = { id = flavor_vazhatun.10 }
		}
	}

	vazhatun_board_the_treasure_fleet = {
		icon = mission_dharma_mission_arabian_trade
		position = 8
		required_missions = {
			vazhatun_back_to_school
			vazhatun_the_city_reaching_for_the_sky
		}
		
		provinces_to_highlight = { owner = { owns = 5226 } }

		trigger = {
			if = {
				limit = {
					5226 = {
						owner = {
							OR = {
								has_country_modifier = monstrous_nation
								has_country_flag = semi_monstrous
								ai_attitude = {
									who = ROOT
									attitude = attitude_hostile
								}
								is_rival = ROOT
							}
						}
					}
				}
				5226 = {
					owner = {
						has_spy_network_from = {
							who = ROOT
							value = 35
						}
					}
				}
			}
			else = {
				5226 = {
					owner = {
						has_opinion = {
							who = ROOT
							value = 50
						}
					}
				}
			}

			5003 = { has_most_province_trade_power = ROOT }
		}
		
		effect = {
			yanshen_superregion = { discover_country = ROOT }

			yyl_moitsa_east_area = { add_permanent_claim = ROOT }
			moitsahdi_area = { add_permanent_claim = ROOT }

			add_years_of_income = 0.5
		}
	}

	vazhatun_the_yangcheng_academy = {
		icon = mission_scholar_officials
		position = 9
		required_missions = { vazhatun_board_the_treasure_fleet }
		
		provinces_to_highlight = {
			OR = {
				owner = { owns = 4861 }
				AND = {
					province_id = 4020
					NOT = { has_building = university }
				}
			}
		}

		trigger = {
			if = {
				limit = {
					4861 = {
						owner = {
							OR = {
								has_country_modifier = monstrous_nation
								has_country_flag = semi_monstrous
								ai_attitude = {
									who = ROOT
									attitude = attitude_hostile
								}
								is_rival = ROOT
							}
						}
					}
				}
				4861 = {
					owner = {
						has_spy_network_from = {
							who = ROOT
							value = 35
						}
					}
				}
			}
			else = {
				4861 = {
					owner = {
						has_opinion = {
							who = ROOT
							value = 25
						}
					}
				}
			}
			
			4020 = {
				owned_by = ROOT
				has_building = university
			}

			full_idea_group = innovativeness_ideas

			if = {
				limit = { has_dlc = "Rule Britannia" }
				innovativeness = 70
			}

			vazhatun_has_knowledge = { amount_20 = yes }
		}
		
		effect = {
			vazhatun_spend_knowledge = { amount_20 = yes }
			
			country_event = { id = flavor_vazhatun.16 }
		}
	}

	vazhatun_journey_to_the_oracle = {
		icon = mission_buddhist_monk_praying
		position = 10
		required_missions = {
			vazhatun_the_yangcheng_academy
			vazhatun_the_eastern_port
		}
		
		provinces_to_highlight = { sea_zone = { region = northern_sea_region } }

		trigger = {
			any_owned_province = {
				has_port = yes
  				sea_zone = { region = northern_sea_region }
  				light_ships_in_province = 15
			}

			land_forcelimit = 100
			army_size = 100
		}
		
		effect = { country_event = { id = flavor_vazhatun.18 } }
	}
}

vazhatun_4 = { 
	slot = 4
	generic = no
	ai = yes 
	has_country_shield = yes
	potential = { tag = I03 }
	
	vazhatun_repairing_the_setzunkhupa = {
		icon = public_works
		position = 1
		required_missions = {}
		
		provinces_to_highlight = {
			province_id = 4020
			NOT = {
				AND = {
					owned_by = ROOT
					has_tax_building_trigger = yes
					has_production_building_trigger = yes
					has_manufactory_trigger = yes
				}
			}
		}
		
		trigger = {
			4020 = {
				owned_by = ROOT
				has_tax_building_trigger = yes
				has_production_building_trigger = yes
				has_manufactory_trigger = yes
			}
		}
			
		effect = { country_event = { id = flavor_vazhatun.1 } }
	}
	
	vazhatun_what_they_left_behind = {
		icon = mission_lit_jesuit_academy
		position = 3
		required_missions = { vazhatun_repairing_the_setzunkhupa }
		
		provinces_to_highlight = {
			province_id = 4020
			NOT = {
				AND = {
					owned_by = ROOT
					has_dwarven_hold_3 = yes
				}
			}
		}
		
		trigger = {
			4020 = {
				owned_by = ROOT
				has_dwarven_hold_3 = yes
			}
		}
		
		effect = { country_event = { id = flavor_vazhatun.4 } }
	}

	vazhatun_excavating_the_secrets = {
		icon = mission_treasure_room
		#icon = mission_armoury
		#icon = mission_rb_trinity_college_dublin
		position = 5
		required_missions = { vazhatun_what_they_left_behind }
		
		provinces_to_highlight = {
			province_id = 4020
			NOT = {
				AND = {
					owned_by = ROOT
					has_dwarven_hold_5 = yes
				}
			}
		}
		
		trigger = {
			4020 = {
				owned_by = ROOT
				has_dwarven_hold_5 = yes
			}

			treasury = 1500
			adm_power = 100
		}
		
		effect = {
			vazhatun_increase_astral_efficiency_small = yes

			country_event = { id = flavor_vazhatun.7 }
		}
	}

	vazhatun_the_damestear_expedition = {
		icon = mission_the_dame_tears
		#icon = mission_star_comet
		position = 6
		required_missions = {
			vazhatun_contact_with_the_kukatodic_tribes
			vazhatun_excavating_the_secrets
		}
		
		provinces_to_highlight = {
			province_id = 5006
			NOT = {
				AND = {
					owned_by = ROOT
					development = 6
					has_building = mage_tower
				}
			}
		}
		
		trigger = {
			5006 = {
				owned_by = ROOT
				development = 6
				has_building = mage_tower
			}

			estate_influence = {
    			estate = estate_mages
    			influence = 60
			}

			vazhatun_has_knowledge = { amount_10 = yes }

			custom_trigger_tooltip = {
				tooltip = vazhatun_expedition_completed_tt
				has_country_flag = vazhatun_expedition_completed
			}
		}
		
		effect = {
			vazhatun_spend_knowledge = { amount_10 = yes }

			5006 = {
				change_trade_goods = damestear
				add_permanent_province_modifier = {
					name = vazhatun_careful_extraction
					duration = -1
					#custom_tooltip = vazhatun_careful_extraction_desc
					#tooltip = vazhatun_careful_extraction_desc
				}
				#custom_tooltip = vazhatun_careful_extraction_desc
				hidden_effect = {
					set_province_flag = permanent_damestear
					remove_building = wharf
					remove_building = weapons
					remove_building = textile
					remove_building = plantations
					remove_building = farm_estate
					remove_building = mills
				}
			}
			custom_tooltip = vazhatun_careful_extraction_desc
		}
	}

	vazhatun_damestear_research = {
		icon = mission_sw_torquoise_mining
		position = 7
		required_missions = { vazhatun_the_damestear_expedition }
		
		provinces_to_highlight = {
			NOT = {
				ROOT = {
					any_core_province = {
						trade_goods = damestear
						base_production = 5
						has_production_building_trigger = yes
						has_building = mage_tower
					}
				}
			}
			trade_goods = damestear
		}
		
		trigger = {
			any_core_province = {
				trade_goods = damestear
				base_production = 5
				has_production_building_trigger = yes
				has_building = mage_tower
			}

			4020 = { has_building = university }

			full_idea_group = innovativeness_ideas

			vazhatun_has_knowledge = { amount_15 = yes }
		}
		
		effect = {
			vazhatun_spend_knowledge = { amount_15 = yes }
			
			country_event = { id = flavor_vazhatun.11 }
		}
	}

	vazhatun_the_eastern_port = {
		icon = mission_tianlou
		#icon = mission_asian_city
		position = 9
		required_missions = { vazhatun_board_the_treasure_fleet }
		
		provinces_to_highlight = {
			NOT = {
				ROOT = {
					any_owned_province = {
						superregion = forbidden_lands_superregion
						has_trade_building_trigger = yes
						has_shipyard_building_trigger = yes
						has_dock_building_trigger = yes
					}
				}
			}
			has_port = yes
			superregion = forbidden_lands_superregion
		}

		trigger = {
			any_owned_province = {
				superregion = forbidden_lands_superregion
				has_trade_building_trigger = yes
				has_shipyard_building_trigger = yes
				has_dock_building_trigger = yes
			}

			prestige = 99

			if = {
				limit = { has_estate = estate_burghers }
				has_estate_privilege = estate_burghers_patronage_of_the_arts
			}
			else_if = {
				limit = { has_estate = estate_castonath_patricians }
				has_estate_privilege = estate_castonath_patricians_glorify_castanorian_culture
			}

			vazhatun_has_knowledge = { amount_25 = yes }
		}
		
		effect = {
			vazhatun_spend_knowledge = { amount_25 = yes }
			
			country_event = { id = flavor_vazhatun.17 }
		}
	}
}

vazhatun_5 = { 
	slot = 5
	generic = no
	ai = yes 
	has_country_shield = yes
	potential = { tag = I03 }

	vazhatun_improving_the_lens = {
		icon = mission_rb_inland_india
		position = 2
		required_missions = { vazhatun_repairing_the_setzunkhupa }
		
		provinces_to_highlight = {
			NOT = {
				ROOT = {
					any_core_province = {
						OR = {
							trade_goods = glass
							trade_goods = gems
						}
						base_production = 8
						has_production_building_trigger = yes
					}
				}
			}
			OR = {
				trade_goods = glass
				trade_goods = gems
			}
		}
		
		trigger = {
			any_core_province = {
				OR = {
					trade_goods = glass
					trade_goods = gems
				}
				
				base_production = 8
				
				has_production_building_trigger = yes
			}
		}
		
		effect = { vazhatun_increase_astral_efficiency = yes }
	}

	vazhatun_secrets_applied = {
		icon = mission_plc_edict_education
		position = 6
		required_missions = { vazhatun_excavating_the_secrets }
		
		provinces_to_highlight = {
			province_id = 4020
			NOT = {
				AND = {
					owned_by = ROOT
					has_building = mage_tower
				}
			}
		}
		
		trigger = {
			4020 = {
				owned_by = ROOT
				has_building = mage_tower
			}
			
			estate_loyalty = {
    			estate = estate_mages
    			loyalty = 40
			}
			estate_influence = {
    			estate = estate_mages
    			influence = 50
			}
			has_estate_privilege = estate_mages_patronage_of_the_magical_arts
			
			custom_trigger_tooltip = {
				tooltip = vazhatun_expedition_completed_tt
				has_country_flag = vazhatun_expedition_completed
			}
		}
		
		effect = {
			custom_tooltip = vazhatun_unlock_mage_privilege_tt
		}
	}
}