#Designed and coded by: Auirus

##########Part 1##########
krakazol_1 = { 
	slot = 1
	generic = no
	ai = yes 
	has_country_shield = yes
	potential = { tag = I20 }
	
	krakazol_block_passage = {
		icon = mission_unite_home_region
		position = 2
		required_missions = { 
			krakazol_mining_ale
		}

		provinces_to_highlight = {
			area = dwarovrod_63_65_area
			OR = {
				NOT = { owned_by = ROOT }
				NOT = { has_fort_building_trigger = yes }
			}
		}

		trigger = {
			dwarovrod_63_65_area = {
				owned_by = ROOT
				has_fort_building_trigger = yes
			}
		}
		
		effect = {
			random_owned_province = {
				limit = {
					area = dwarovrod_63_65_area
					has_fort_building_trigger = yes
				}
				add_province_modifier = { name = krakazol_blocked_passage duration = 18250 }
			}
		}
	}

	krakazol_beer_chill = {
		icon = mission_al_andalus
		position = 4
		required_missions = { 
			krakazol_block_passage
		}
		
		provinces_to_highlight = {
			OR = {
				owned_by = R66
				owned_by = R81
			}
		}

		trigger = {
			if = {
				limit = { is_subject = yes }
				is_subject = no
			}
			mission_completed = krakazol_strong_base
			if = {
				limit = { exists = R66 }
				is_neighbor_of = R66
			}
			else_if = {
				limit = { exists = R81 }
				is_neighbor_of = R81
			}
			else_if = {
				limit = { exists = R62 }
				is_neighbor_of = R62
			}
			else = {
				stability = 1
			}
		}
		
		effect = {
			if = {
				limit = { exists = R62 }
				country_event = { id = flavor_krakazol.1 }
			}
			else = { add_prestige_excess_to_splendour_effect = { VAL = 25 } }
		}
	}
}

krakazol_2 = { 
	slot = 2
	generic = no
	ai = yes 
	has_country_shield = yes
	potential = { tag = I20 }

	krakazol_mining_ale = {
		icon = mission_industria_sedera
		position = 1
		provinces_to_highlight = {
			province_id = 4296
			NOT = {
				owned_by = ROOT
				is_city = yes
			}
		}
		
		trigger = {
			if = {
				limit = { is_subject = yes }
				is_subject = no
			}
			4296 = {
				owned_by = ROOT
				is_city = yes
			}
		}
		
		effect = {
			if = {
				limit = { 4300 = { NOT = { owned_by = R66 owned_by = R81 } } }
				4300 = { add_permanent_province_modifier = { name = krakazol_rushed_defense duration = 9125 } }
			}
			else_if = {
				limit = { 4298 = { NOT = { owned_by = R66 owned_by = R81 } } }
				4298 = { add_permanent_province_modifier = { name = krakazol_rushed_defense duration = 9125 } } 
			}
			ovdal_az_an_area = { 
				discover_country = ROOT
				add_permanent_claim = ROOT 
			}
		}
	}
	krakazol_slaying_rail = {
		icon = mission_head_on_spike
		position = 4
		required_missions = { 
			krakazol_mining_ale
		}
		
		provinces_to_highlight = {
			area = ovdal_az_an_area
			NOT = { 
				owned_by = ROOT 
				is_city = yes
			}
		}
		
		trigger = {
			if = {
				limit = { is_subject = yes }
				is_subject = no
			}
			ovdal_az_an_area = {
				type = all
				owned_by = ROOT
				is_city = yes
			}
		}
		
		effect = {
			add_stability_or_adm_power = yes
			ovdal_az_an_area = { add_local_autonomy = -25 }
		}
	}
}

krakazol_3 = { 
	slot = 3
	generic = no
	ai = yes 
	has_country_shield = yes
	potential = { tag = I20 }

	krakazol_other_home = {
		icon = mission_invade_the_deccan_dlh
		position = 2
		required_missions = { 
			krakazol_find_key
		}
		provinces_to_highlight = {
			owned_by = R07
		}
		
		trigger = {
			if = {
				limit = { is_subject = yes }
				is_subject = no
			}
			dip_power = 100
			if = {
				limit = { exists = R73 }
				R73 = {
					OR = { 
						has_opinion = { who = ROOT value = 50 }
						is_rival = ROOT 
					}
				}
			}
			else_if = {
				limit = { exists = R07 } #incase players suck
				R07 = {
					OR = { 
						has_opinion = { who = ROOT value = 50 }
						is_rival = ROOT 
					}
				}
			}
		}
		
		effect = {
			add_dip_power = -100
			if = {
				limit = { exists = R73 }
				R73 = { add_historical_friend = ROOT }
				add_historical_friend = R73
				if = {
					limit = { OR = { is_rival = R73 is_enemy = R73 } }
					force_remove_rival = R73
					R73 = { force_remove_rival = ROOT }
				}
				if = {
					limit = { NOT = { alliance_with = R73 } }
					create_alliance = R73
				}
				hidden_effect = { every_owned_province = { discover_country = R73 } }
			}
			else_if = {
				limit = { exists = R07 }
				R07 = { add_historical_friend = ROOT }
				add_historical_friend = R07
				if = {
					limit = { OR = { is_rival = R07 is_enemy = R07 } }
					force_remove_rival = R07
					R07 = { force_remove_rival = ROOT }
				}
				if = {
					limit = { NOT = { alliance_with = R07 } }
					create_alliance = R07
				}
				hidden_effect = { every_owned_province = { discover_country = R07 } }
			}
			else = { add_stability_or_adm_power = yes }
		}
	}

	krakazol_amethysts_tree = {
		icon = mission_integrate_the_purbias
		position = 3
		required_missions = { 
			krakazol_other_home
			krakazol_start_brewing
		}
		
		provinces_to_highlight = {
			OR = {
				province_id = 4397
				province_id = 4467
				province_id = 4434
			}
			owner = {
				NOT = { has_opinion = { who = ROOT value = 75 } }
				NOT = { is_rival = ROOT }
				NOT = { is_enemy = ROOT }
			}
		}
		
		trigger = {
			if = {
				limit = { is_subject = yes }
				is_subject = no
			}
			num_of_cities = 10
			calc_true_if = {
				amount = 3
				all_states = { has_state_edict = edict_advancement_effort }
			}
			4397 = { 
				owner = {
					OR = {
						has_opinion = { who = ROOT value = 75 }
						is_rival = ROOT
						is_enemy = ROOT
					}
				}
			}
			4467 = { 
				owner = {
					OR = {
						has_opinion = { who = ROOT value = 75 }
						is_rival = ROOT
						is_enemy = ROOT
					}
				}
			}
			4434 = { 
				owner = {
					OR = {
						has_opinion = { who = ROOT value = 75 }
						is_rival = ROOT
						is_enemy = ROOT
					}
				}
			}
		}
		
		effect = {
			4397 = { remove_dwarven_minority_size_effect = yes }
			4467 = { remove_dwarven_minority_size_effect = yes }
			4434 = { remove_dwarven_minority_size_effect = yes }
			random_owned_province = {
				limit = { NOT = { province_group = hold_province } }
				add_base_tax = 1
				add_base_production = 1
				add_base_manpower = 1
			}
			random_owned_province = {
				limit = { NOT = { province_group = hold_province } }
				add_base_tax = 1
				add_base_production = 1
				add_base_manpower = 1
			}
			random_owned_province = {
				limit = { NOT = { province_group = hold_province } }
				add_base_tax = 1
				add_base_production = 1
				add_base_manpower = 1
			}
			add_country_modifier = { name = krakazol_returning_amethysts duration = 9125 }
			country_event = { id = flavor_krakazol.3 }
		}
	}

	krakazol_bloody_door = {
		icon = mission_ghost_town
		position = 4
		required_missions = { 
			krakazol_amethysts_tree
		}
		
		provinces_to_highlight = {
			area = hovezan_pass_area
			OR = {
				NOT = { owned_by = ROOT }
				is_city = no
				has_province_modifier = expedition_target
			}
		}
		
		trigger = {
			if = {
				limit = { is_subject = yes }
				is_subject = no
			}
			manpower = 3
			hovezan_pass_area = {
				type = all
				owned_by = ROOT
				is_city = yes
				NOT = { has_province_modifier = expedition_target }
			}
			if = {
				limit = { 4289 = { has_construction = any } }
				4289 = { NOT = { has_construction = any } }
			}
			#just incase because fuck monuments
			if = {
				limit = { NOT = { treasury = 1 } }
				treasury = 1
			}
		}
		
		effect = {
			add_manpower = -3
			hidden_effect = {
				4289 = { 
					set_province_flag = krakazol_stramolgiv_found
					add_great_project = { type = dd_stramolgiv } 
				}
			}
			country_event = { id = flavor_krakazol.4 days = 365 }
		}
	}
}

krakazol_4 = { 
	slot = 4
	generic = no
	ai = yes 
	has_country_shield = yes
	potential = { tag = I20 }

	krakazol_find_key = {
		icon = mission_dha_thatchil
		position = 1
		provinces_to_highlight = {
			province_id = 4266
		}
		
		trigger = {
			4266 = { NOT = { has_province_modifier = expedition_target } }
		}
		
		effect = {
			if = {
				limit = { NOT = { rahen_superregion = { has_discovered = ROOT } } }
				rahen_superregion = { discover_country = ROOT }
			}
			add_country_modifier = { name = krakazol_rahen_diplomacy duration = 5475 }
			hidden_effect = { 4266 = { clr_province_flag = krakazol_key_expedition } }
		}
	}

	krakazol_start_brewing = {
		icon = mission_dominate_home_trade_node
		position = 2
		required_missions = { 
			krakazol_find_key
		}
		
		provinces_to_highlight = {
			province_id = 4266
		}
		
		trigger = {
			4266 = {
				base_production = 15
				has_dwarven_hold_2 = yes
				if = {
					limit = { NOT = { trade_goods = gold } }
					has_production_building_trigger = yes
				}
			}
		}
		
		effect = {
			4266 = {
				if = {
					limit = { NOT = { trade_goods = wine } }
					change_trade_goods = wine
				}
				add_permanent_province_modifier = { name = krakazol_amethyst_ale duration = -1 }
				set_province_flag = serpentsmited
			}
		}
	}

	krakazol_strong_base = {
		icon = mission_che_botanical_exports
		position = 4
		required_missions = { 
			krakazol_start_brewing
		}
		
		provinces_to_highlight = {
			owned_by = ROOT
			OR = {
				trade_goods = fungi
				trade_goods = serpentbloom
			}
			OR = {
				NOT = { development = 5 }
				has_production_building_trigger = no
			}
		}
		
		trigger = {
			if = {
				limit = { is_subject = yes }
				is_subject = no
			}
			num_of_owned_provinces_with = {
				value = 4
				OR = {
					trade_goods = fungi
					trade_goods = serpentbloom
				}
				development = 5
				has_production_building_trigger = yes
			}
		}
		
		effect = {
			define_advisor = {
				type = trader
				skill = 2
				discount = yes
				culture = amethyst_dwarf
				religion = ROOT
			}
			add_estate_loyalty = { estate = estate_nobles loyalty = 10 }
			add_estate_loyalty = { estate = estate_burghers loyalty = 10 }
		}
	}
}

krakazol_5 = { 
	slot = 5
	generic = no
	ai = yes 
	has_country_shield = yes
	potential = { tag = I20 }

	krakazol_borrowed_thumbs = {
		icon = mission_rb_conquer_the_isles
		position = 3
		required_missions = { 
			krakazol_start_brewing
		}

		provinces_to_highlight = {
			province_id = 4462
		}
		
		trigger = {
			if = {
				limit = { is_subject = yes }
				is_subject = no
			}
			dip_power = 100
			if = {
				limit = { 4462 = { owner = { NOT = { has_country_modifier = monstrous_nation } } } }
				4462 = { owner = { trust = { who = ROOT value = 60 } } }
			}
			else = { 4462 = { is_claim = ROOT } }
		}
		
		effect = {
			add_dip_power = -100
			4462 = { add_dwarven_minority_size_effect = yes }
			add_country_modifier = { name = krakazol_borrowed_thumbs_payments duration = 3650 }
		}
	}

	krakazol_preparing_land = {
		icon = mission_rb_import_potatoes
		position = 4
		required_missions = { 
			krakazol_borrowed_thumbs
		}
		
		trigger = {
			if = {
				limit = { is_subject = yes }
				is_subject = no
			}
			treasury = 300
			adm_power = 50
			dip_power = 50
			mil_power = 50
		}
		
		effect = {
			add_treasury = -300
			add_adm_power = -50
			add_dip_power = -50
			add_mil_power = -50
			4462 = {
				add_base_tax = 1
				add_base_production = 1
				add_base_manpower = 1
				add_permanent_province_modifier = { name = krakazol_prepared_land duration = -1 }
				if = {
					limit = { NOT = { owned_by = ROOT owned_by = R62 } }
					owner = { add_trust = { who = ROOT value = 10 } }
				}
			}
		}
	}
}

##########Part 2##########
krakazol_1b = { 
	slot = 1
	generic = no
	ai = yes 
	has_country_shield = yes
	potential = { 
		tag = I20 
		has_country_flag = krakazol_part2
	}
	
	krakazol_death_glory = {
		icon = assert_our_sovereignty
		position = 5
		required_missions = { 
			krakazol_beer_chill
			krakazol_slaying_rail
		}

		trigger = {
			if = {
				limit = { is_female = no }
				is_monarch_leader = yes
			}
			army_size = 40
			OR = {
				has_estate_privilege = estate_nobles_officer_corp
				AND = {
					num_of_generals = 3
					estate_influence = { estate = estate_nobles influence = 40 }
				}
			}
		}
		
		effect = {
			add_mil_power = 50
			add_power_projection = { type = mission_rewards_power_projection amount = 5 }
			if = {
				limit = { ruler_has_max_personalities = yes }
				add_stability_or_adm_power = yes
			}
			else = {
				if = {
					limit = { NOT = { ruler_has_personality = inspiring_leader_personality } }
					add_ruler_personality = inspiring_leader_personality
				}
				else_if = {
					limit = { NOT = { ruler_has_personality = conqueror_personality } }
					add_ruler_personality = conqueror_personality
				}
				else_if = {
					limit = { NOT = { ruler_has_personality = strict_personality } }
					add_ruler_personality = strict_personality
				}
			}
		}
	}

	krakazol_listen_commands = {
		icon = mission_diplomacy_missive
		position = 6
		required_missions = { 
			krakazol_death_glory
		}
		
		provinces_to_highlight = {
			owned_by = R62
			NOT = { R62 = { has_spy_network_from = { who = ROOT value = 50 } } }
		}

		trigger = {
			manpower_percentage = 0.8
			if = {
				limit = { exists = R62 }
				has_spy_network_in = { who = R62 value = 30 }
			}
		}
		
		effect = {
			if = {
				limit = { exists = R62 }
				add_spy_network_in = { who = R62 value = -30 }
			}
			dwarovrod_66_68_area = { add_permanent_claim = ROOT }
			4305 = { add_permanent_claim = ROOT }
			4350 = { add_permanent_claim = ROOT }
			add_country_modifier = { name = krakazol_charge duration = 9125 }
		}
	}
}

krakazol_2b = { 
	slot = 2
	generic = no
	ai = yes 
	has_country_shield = yes
	potential = { 
		tag = I20 
		has_country_flag = krakazol_part2
	}
	
	krakazol_balls_steel = {
		icon = mission_ramsteel_gunpowder
		position = 6
		required_missions = {
			krakazol_new_methods
		}
		
		provinces_to_highlight = {
			province_id = 4284
		}

		trigger = {
			4284 = {
				base_production = 15
				has_production_building_trigger = yes
				has_manufactory_trigger = yes
			}
			krakazol_is_drunk = { Sober = yes }
		}
		
		effect = {
			country_event = { id = flavor_krakazol.5 }
		}
	}
}

krakazol_2b_succession = { 
	slot = 2
	generic = no
	ai = yes 
	has_country_shield = yes
	potential = { 
		tag = I20 
		has_country_flag = krakazol_partsuccession
	}
	
	krakazol_ale_choose = {
		icon = mission_crowning
		position = 8
		required_missions = {
			krakazol_axe_face
		}

		trigger = {
			custom_trigger_tooltip = {
				tooltip = krakazol_ale_choose_tooltip
				has_ruler = "Interregnum"
				months_of_ruling = 24
				had_ruler_flag = {
					flag = krakazol_regency
					days = 2
				}
			}
			has_adm_advisor_2 = yes
			has_dip_advisor_2 = yes
			has_mil_advisor_2 = yes
		}
		
		effect = {
			country_event = { id = flavor_krakazol.6 }
			if = {
				limit = { mission_completed = krakazol_need_more }
				set_country_flag = krakazol_part3
				swap_non_generic_missions = yes
			}
		}
	}
}

krakazol_3b = { 
	slot = 3
	generic = no
	ai = yes 
	has_country_shield = yes
	potential = { 
		tag = I20 
		has_country_flag = krakazol_part2
	}
	
	krakazol_new_methods = {
		icon = mission_artificier_experience
		position = 5
		required_missions = {
			krakazol_slaying_rail
			krakazol_bloody_door
			krakazol_strong_base
		}

		trigger = {
			OR = {
				natural_scientist = 2
				artist = 2
			}
			OR = {
				innovativeness = 10
				has_idea_group = innovativeness_ideas
			}
		}
		
		effect = {
			country_event = { id = flavor_krakazol.7 }
		}
	}
	krakazol_darkness_friend = {
		icon = mission_underground_cave
		position = 6
		required_missions = {
			krakazol_new_methods
		}
		
		provinces_to_highlight = {
			owned_by = ROOT
			OR = {
				trade_goods = fungi
				trade_goods = serpentbloom
			}
			NOT = {
				has_production_building_trigger = yes
			}
		}

		trigger = {
			custom_trigger_tooltip = {
				tooltip = krakazol_darkness_friend_tooltip
				all_owned_province = {
					OR = {
						AND = {
							OR = {
								trade_goods = fungi
								trade_goods = serpentbloom
							}
							has_production_building_trigger = yes
						}
						NOT = {
							trade_goods = fungi
							trade_goods = serpentbloom
						}
						is_city = no
					}
				}
			}
			krakazol_is_drunk = { Sober = yes }
		}
		
		effect = {
			country_event = { id = flavor_krakazol.8 }
		}
	}
	krakazol_axe_face = {
		icon = mission_rb_unite_the_clans
		position = 7
		required_missions = {
			krakazol_listen_commands
			krakazol_balls_steel
			krakazol_darkness_friend
			krakazol_cotton_candy
		}
		
		provinces_to_highlight = {
			OR = {
				area = dwarovrod_66_68_area
				province_id = 4305
				province_id = 4350
			}
			NOT = { controlled_by = ROOT }
		}

		trigger = {
			if = {
				limit = { exists = R62 }
				war_score_against = { who = R62 value = 15 }
			}
			else = { NOT = { exists = R62 } }
			if = {
				limit = { 
					R66 = { 
						exists = yes
						any_owned_province = {
							OR = {
								area = dwarovrod_66_68_area
								province_id = 4305
								province_id = 4350
								region = tree_of_stone_region
							}
						}
					} 
				}
				war_with = R66
			}
			else_if = {
				limit = { 
					R81 = { 
						exists = yes
						any_owned_province = {
							OR = {
								area = dwarovrod_66_68_area
								province_id = 4305
								province_id = 4350
								region = tree_of_stone_region
							}
						}
					} 
				}
				war_with = R81
			}
			
			if = {
				limit = { exists = R62 }
				# custom_trigger_tooltip = {
				# 	tooltip = krakazol_axe_face_tooltip
				# 	east_serpentspine_superregion = {
				# 		has_ruler_leader_from = ROOT
				# 		OR = {
				# 			unit_in_battle = yes
				# 			unit_in_siege = yes
				# 		}
				# 	}
				# }
				if = {
					limit = { is_female = no }
					is_monarch_leader = yes
				}
				has_heir = yes
				heir_age = 10
			}
			dwarovrod_66_68_area = { type = all controlled_by = ROOT }
			4305 = { controlled_by = ROOT }
			4350 = { controlled_by = ROOT }
		}
		
		effect = {
			country_event = { id = flavor_krakazol.9 }
		}
	}
}

krakazol_4b = { 
	slot = 4
	generic = no
	ai = yes 
	has_country_shield = yes
	potential = { 
		tag = I20 
		has_country_flag = krakazol_part2
	}
	
	krakazol_cotton_candy = {
		icon = mission_son_own_develop_clothes_and_salt
		position = 6
		required_missions = { 
			krakazol_new_methods
			krakazol_land_purchase
		}
		
		provinces_to_highlight = {
			province_id = 4462
		}

		trigger = {
			treasury = 400
			4462 = {
				base_production = 6
				has_production_building_trigger = yes
				has_courthouse_building_trigger = yes
				NOT = { has_construction = any }
			}
			krakazol_is_drunk = { Sober = yes }
		}
		
		effect = {
			add_treasury = -400
			country_event = { id = flavor_krakazol.10 }
		}
	}
}

krakazol_4b_succession = { 
	slot = 4
	generic = no
	ai = yes 
	has_country_shield = yes
	potential = { 
		tag = I20 
		has_country_flag = krakazol_partsuccession
	}
	
	krakazol_need_more = {
		icon = mission_mountain_castle
		position = 8
		required_missions = {
			krakazol_axe_face
		}
		
		provinces_to_highlight = {
			province_id = 4289
		}

		trigger = {
			4289 = { has_great_project = { type = dd_stramolgiv tier = 2 } }
		}
		
		effect = {
			add_splendor = 50
			if = {
				limit = { mission_completed = krakazol_ale_choose }
				set_country_flag = krakazol_part3
				swap_non_generic_missions = yes
			}
		}
	}
}

krakazol_5b = { 
	slot = 5
	generic = no
	ai = yes 
	has_country_shield = yes
	potential = { 
		tag = I20 
		has_country_flag = krakazol_part2
	}
	
	krakazol_land_purchase = {
		icon = mission_rb_monopolize_the_channel
		position = 5
		required_missions = { 
			krakazol_preparing_land
		}
		
		provinces_to_highlight = {
			province_id = 4462
		}

		trigger = {
			if = {
				limit = { NOT = { owns = 4462 } }
				treasury = 300
				dip_power = 100
				4462 = { is_claim = ROOT }
				NOT = { has_country_modifier = krakazol_borrowed_thumbs_payments }
			}
			else = { owns = 4462 }
		}
		
		effect = {
			if = {
				limit = { NOT = { owns = 4462 } }
				add_treasury = -300
				add_dip_power = -100
				4462 = { owner = { country_event = { id = flavor_krakazol.11 days = 3 } } }
			}
			else = { add_stability_or_adm_power = yes }
		}
	}

	krakazol_contact_lazylarch = {
		icon = sponsor_the_arts
		position = 7
		required_missions = { 
			krakazol_land_purchase
		}
		
		provinces_to_highlight = {
			province_id = 4435
		}

		trigger = {
			legitimacy = 90
			OR = {
				diplomatic_reputation = 2
				statesman = 2
			}
			4435 = { 
				owner = { 
					OR = {
						has_opinion = { who = ROOT value = 75 }
						is_rival = ROOT
					} 
				} 
			}
			if = {
				limit = { has_ruler = "Interregnum" }
				NOT = { has_ruler = "Interregnum" }
			}
		}
		
		effect = {
			country_event = { id = flavor_krakazol.12 }
		}
	}
	krakazol_fulfill_oath = {
		icon = mission_rb_conquer_the_highlands
		position = 8
		required_missions = { 
			krakazol_contact_lazylarch
		}
		
		provinces_to_highlight = {
			area = grozumdihr_area
			OR = {
				NOT = { owned_by = ROOT }
				NOT = { is_city = yes }
				hold_condition = { Damaged = yes }
				AND = {
					province_id = 4265
					NOT = { province_has_center_of_trade_of_level = 2 }
				}
			}
		}

		trigger = {
			grozumdihr_area = {
				type = all
				owned_by = ROOT
				is_city = yes
			}
			4265 = {
				hold_condition = { Repaired = yes }
				if = {
					limit = { has_dlc = "Dharma" }
					province_has_center_of_trade_of_level = 2
				}
				else = { ROOT = { treasury = 200 } }
			}
			if = {
				limit = { has_ruler = "Interregnum" }
				NOT = { has_ruler = "Interregnum" }
			}
		}
		
		effect = {
			if = {
				limit = { NOT = { has_dlc = "Dharma" } }
				add_treasury = -200
			}
			country_event = { id = flavor_krakazol.13 days = 30 }
		}
	}
}

##########Part 3##########
krakazol_1c = { 
	slot = 1
	generic = no
	ai = yes 
	has_country_shield = yes
	potential = { 
		tag = I20 
		has_country_flag = krakazol_part3
	}
	
	krakazol_glassing_market = {
		icon = bohemian_crystal
		position = 9
		required_missions = { 
			krakazol_ale_choose
		}
		
		provinces_to_highlight = {
			province_id = 4265
		}

		trigger = {
			if = {
				limit = { 4265 = { NOT = { has_building = mills } } }
				treasury = 250
			}
			adm_power = 100
			4265 = {
				owned_by = ROOT
				if = {
					limit = { NOT = { trade_goods = gold } }
					has_production_building_trigger = yes
					has_manufactory_trigger = yes
				}
				has_state_edict = edict_advancement_effort
			}
		}
		
		effect = {
			add_adm_power = -100
			4265 = {
				if = {
					limit = { NOT = { trade_goods = glass } }
					change_trade_goods = glass
				}
				else = { add_base_production = 2 }
				add_permanent_province_modifier = { name = krakazol_ale_glasses duration = -1 }
				if = {
					limit = { NOT = { has_building = mills } }
					ROOT = { add_treasury = -250 }
					add_building_construction = { building = mills speed = 0.5 cost = 0 }
				}
			}
		}
	}

	krakazol_strong_seed = {
		icon = mission_kon_conquer_lub
		position = 12
		required_missions = { 
			krakazol_glassing_market
			krakazol_need_drink
		}
		
		provinces_to_highlight = {
			province_id = 4269
		}

		trigger = {
			treasury = 1000
			adm_power = 100
			estate_influence = { estate = estate_mages influence = 40 }
			4269 = {
				owned_by = ROOT
				has_building = mage_tower
				has_courthouse_building_trigger = yes
			}
		}
		
		effect = {
			add_treasury = -1000
			add_adm_power = -100
			4269 = {
				if = {
					limit = { trade_goods = gold }
					add_base_production = 3
				}
				else = { change_trade_goods = gold }
			}
		}
	}

	krakazol_gold_malt = {
		icon = mission_zambezi_gold
		position = 13
		required_missions = { 
			krakazol_strong_seed
		}
		

		trigger = {
			innovativeness = 10
			if = {
				limit = { has_dlc = "Cradle of Civilization" }
				OR = {
					natural_scientist = 4
					court_mage = 4
				}
			}
			else = { adm_power = 100 }
			NOT = { inflation = 0.01 }
			has_estate_privilege = estate_mages_reduced_research_regulations
		}
		
		effect = {
			change_innovativeness = -10
			if = {
				limit = { NOT = { has_dlc = "Cradle of Civilization" } }
				add_adm_power = -100
			}
			country_event = { id = flavor_krakazol.15 }
		}
	}

	krakazol_this_is_drink = {
		icon = bavarian_cultural_dominance
		position = 14
		required_missions = { 
			krakazol_gold_malt
		}
		
		provinces_to_highlight = {
			province_id = 4265
		}

		trigger = {
			estate_influence = { estate = estate_burghers influence = 60 }
			estate_loyalty = { estate = estate_burghers loyalty = 50 }
			has_estate_privilege = estate_burghers_free_enterprise
			4265 = {
				has_expanded_infrastructure_level = { level = 2 }
				has_building = state_house
			}
		}
		
		effect = {
			4265 = { add_human_minority_size_effect = yes }
			change_innovativeness = 10
			add_prestige = 10
		}
	}

	krakazol_chicken_run = {
		icon = mission_alone_in_the_wood
		position = 15
		required_missions = { 
			krakazol_this_is_drink
		}
		
		provinces_to_highlight = {
			OR = {
				AND = {
					province_id = 4446
					OR = {
						NOT = { infantry_in_province = 5 }
						NOT = { has_ruler_leader_from = ROOT }
					}
				}
				AND = {
					region = rahen_coast_region
					owner = {
						num_of_owned_provinces_with = {
							value = 3
							has_terrain = jungle
						}
						NOT = { has_opinion_modifier = { who = ROOT modifier = sent_gift value = 10 } }
					}
				}
			}
		}

		trigger = {
			dip_power = 100
			krakazol_is_drunk = { Drunk = yes }
			4446 = {
				has_ruler_leader_from = ROOT
				infantry_in_province = 5
				has_building = mage_tower
			}
			any_known_country = {
				num_of_owned_provinces_with = {
					value = 3
					has_terrain = jungle
					region = rahen_coast_region
				}
				custom_trigger_tooltip = {
					tooltip = krakazol_chicken_run_tooltip
					has_opinion_modifier = { who = ROOT modifier = sent_gift value = 10 }
				}
			}
		}
		
		effect = {
			add_dip_power = -100
			4446 = { kill_units = { who = ROOT type = infantry amount = 5 } }
			custom_tooltip = krakazol_slaying_cockatrice_unlocked_tooltip
		}
	}

	krakazol_in_footsteps = {
		icon = mission_writing_book
		position = 16
		required_missions = { 
			krakazol_pour_another
		}
		
		provinces_to_highlight = {
			OR = {
				AND = {
					province_id = 4266
					OR = {
						NOT = { has_dwarven_hold_8 = yes }
						NOT = { has_building = university }
					}
				}
				AND = {
					province_id = 4289
					OR = {
						NOT = { development = 50 }
						NOT = { has_building = university }
					}
				}
			}
		}

		trigger = {
			custom_trigger_tooltip = {
				tooltip = krakazol_in_footsteps_tooltip
				OR = {
					has_ruler_modifier = krakazol_drinking_dark_5
					has_ruler_modifier = krakazol_drinking_dark_6
					has_ruler_modifier = krakazol_drinking_dark_7
				}
			}
			4266 = {
				has_dwarven_hold_8 = yes
				has_building = university
			}
			4289 = {
				development = 50
				has_building = university
			}
		}
		
		effect = {
			4266 = { add_permanent_province_modifier = { name = krakazol_institute duration = -1 } }
			4289 = { add_permanent_province_modifier = { name = krakazol_institute duration = -1 } }
		}
	}

	krakazol_alethrone = {
		icon = mission_restore_faith_in_the_throne 
		position = 17
		required_missions = { 
			krakazol_in_footsteps
			krakazol_cant_be_serious
		}

		trigger = {
			treasury = 5000
			splendor = 1500
		}
		
		effect = {
			add_treasury = -5000
			add_splendor = -1500
			country_event = { id = flavor_krakazol.16 }
		}
	}
}

krakazol_2c = { 
	slot = 2
	generic = no
	ai = yes 
	has_country_shield = yes
	potential = { 
		tag = I20 
		has_country_flag = krakazol_part3
	}
	
	krakazol_valkumol = {
		icon = counter_reformation
		position = 9
		required_missions = { 
			krakazol_ale_choose
		}
		
		provinces_to_highlight = {
			province_id = 4266
		}

		trigger = {
			if = {
				limit = { NOT = { has_dlc = "Dharma" } }
				treasury = 1500
			}
			else = { treasury = 500 }
			4266 = {
				has_manufactory_trigger = yes
				has_courthouse_building_trigger = yes
				has_expanded_infrastructure_level = { level = 1 }
				if = {
					limit = { has_dlc = "Dharma" }
					province_has_center_of_trade_of_level = 3
				}
			}
		}
		
		effect = {
			if = {
				limit = { NOT = { has_dlc = "Dharma" } }
				add_treasury = -1500
			}
			else = { add_treasury = -500 }
			country_event = { id = flavor_krakazol.17 }
		}
	}

	krakazol_need_drink = {
		icon = establish_oktoberfest
		position = 11
		required_missions = { 
			krakazol_bottom_flagon
		}
		
		provinces_to_highlight = {
			area = kanzad_area
			OR = {
				NOT = { owned_by = ROOT }
				is_city = no
				hold_condition = { Damaged = yes }
			}
		}

		trigger = {
			kanzad_area = {
				type = all
				owned_by = ROOT
				is_city = yes
			}
			4247 = { hold_condition = { Repaired = yes } }
		}
		
		effect = {
			ambermine_alley_area = { add_permanent_claim = ROOT }
			anduz_area = { add_permanent_claim = ROOT }
			earthseed_area = { add_permanent_claim = ROOT }
		}
	}

	krakazol_barely_challenge = {
		icon = a_show_of_strength
		position = 13
		required_missions = { 
			krakazol_need_drink
		}
		
		provinces_to_highlight = {
			OR = {
				area = ambermine_alley_area
				area = anduz_area
				area = earthseed_area
			}
			OR = {
				NOT = { owned_by = ROOT }
				NOT = { is_city = yes }
			}
		}

		trigger = {
			ambermine_alley_area = {
				type = all
				owned_by = ROOT
				is_city = yes
			}
			anduz_area = {
				type = all
				owned_by = ROOT
				is_city = yes
			}
			earthseed_area = {
				type = all
				owned_by = ROOT
				is_city = yes
			}
		}
		
		effect = {
			add_stability_or_adm_power = yes
			add_adm_power = 25
			add_dip_power = 25
			add_mil_power = 25
			tree_of_stone_region = { add_permanent_claim = ROOT }
		}
	}

	krakazol_parry_this = {
		icon = mission_mithril_cannons
		position = 14
		required_missions = { 
			krakazol_barely_challenge
		}
		
		provinces_to_highlight = {
			OR = {
				AND = {
					province_id = 4247
					OR = {
						NOT = { has_dwarven_hold_3 = yes }
						NOT = { has_multiple_manufactory_trigger = { VAL = 2 } }
						NOT = { has_production_building_trigger = yes }
						NOT = { has_building = state_house }
						NOT = { has_expanded_infrastructure_level = { level = 2 } }
					}
				}
				AND = {
					continent = asia
					NOT = { superregion = forbidden_lands_superregion }
					owner = {
						has_country_modifier = monstrous_nation
						krakazol_drunk_diplomacy = no
					}
				}
			}
		}

		trigger = {
			mil_power = 200
			4247 = {
				has_dwarven_hold_3 = yes
				has_production_building_trigger = yes
				has_building = state_house
				has_multiple_manufactory_trigger = { VAL = 2 }
				has_expanded_infrastructure_level = { level = 2 }
			}
			if = {
				limit = { has_dlc = "Dharma" }
				if = {
					limit = {
						any_known_country = {
							has_country_modifier = monstrous_nation
							any_owned_province = {
								continent = asia
								NOT = { superregion = forbidden_lands_superregion }
							}
						}
					}
					custom_trigger_tooltip = {
						tooltip = krakazol_parry_this_tooltip
						any_known_country = {
							has_country_modifier = monstrous_nation
							any_owned_province = {
								continent = asia
								NOT = { superregion = forbidden_lands_superregion }
							}
							krakazol_drunk_diplomacy = yes
						}
					}
				}
				else_if = {
					limit = { exists = R62 }
					R62 = { krakazol_drunk_diplomacy = yes }
				}
				else = { splendor = 100 }
			}
			else = { dip_power = 100 }
		}
		
		effect = {
			if = {
				limit = { NOT = { has_dlc = "Dharma" } }
				add_dip_power = -100
			}
			add_mil_power = -200
			if = {
				limit = {
					NOT = {
						any_known_country = {
							has_country_modifier = monstrous_nation
							any_owned_province = {
								continent = asia
								NOT = { superregion = forbidden_lands_superregion }
							}
						}
					}
					NOT = { exists = R62 }
				}
				add_splendor = -100
			}
			country_event = { id = flavor_krakazol.18 }
		}
	}

	krakazol_pour_another = {
		icon = mission_establish_jesuit_missions
		position = 15
		required_missions = { 
			krakazol_this_is_drink
			krakazol_parry_this
		}
		
		provinces_to_highlight = {
			OR = {
				AND = {
					province_id = 4446
					OR = {
						NOT = { has_trade_building_trigger = yes }
						NOT = { province_has_center_of_trade_of_level = 2 }
						NOT = { artillery_in_province = 5 }
					}
				}
				AND = {
					province_id = 4462
					OR = {
						NOT = { has_trade_building_trigger = yes }
						NOT = { artillery_in_province = 5 }
					}
				}
			}
		}

		trigger = {
			4446 = {
				has_trade_building_trigger = yes
				if = {
					limit = { has_dlc = "Dharma" }
					province_has_center_of_trade_of_level = 2
				}
				else = { ROOT = { treasury = 200 } }
				artillery_in_province = 5
			}
			4462 = {
				has_trade_building_trigger = yes
				artillery_in_province = 5
			}
		}
		
		effect = {
			if = {
				limit = { NOT = { has_dlc = "Dharma" } }
				add_treasury = -200
			}
			4446 = { 
				kill_units = { who = ROOT type = artillery amount = 5 } 
				add_permanent_province_modifier = { name = krakazol_canned_ale duration = -1 }
			}
			4462 = { 
				kill_units = { who = ROOT type = artillery amount = 5 }
				add_permanent_province_modifier = { name = krakazol_canned_ale duration = -1 }
			}
		}
	}

	krakazol_cant_be_serious = {
		icon = mission_delighted_mage
		position = 16
		required_missions = { 
			krakazol_pour_another
		}

		trigger = {
			has_ruler_modifier = krakazol_drinking_hammered
			if = {
				limit = { has_dlc = "Cradle of Civilization" }
				court_mage = 4
			}
			else = { adm_power = 100 }
			innovativeness = 10
		}
		
		effect = {
			if = {
				limit = { NOT = { has_dlc = "Cradle of Civilization" } }
				add_adm_power = -100
			}
			change_innovativeness = -10
			country_event = { id = flavor_krakazol.19 }
		}
	}

	krakazol_deepest_dark = {
		icon = mission_make_it_fall
		position = 17
		required_missions = { 
			krakazol_cant_be_serious
			krakazol_call_it_mine
		}
		
		provinces_to_highlight = {
			province_id = 4325
			OR = {
				NOT = { has_production_building_trigger = yes }
				NOT = { has_building = mage_tower }
				NOT = { development = 5 }
			}
		}

		trigger = {
			mission_completed = krakazol_spicing_up
			mission_completed = krakazol_seeing_green
			4289 = { has_great_project = { type = dd_stramolgiv tier = 3 } }
			4325 = {
				development = 5
				has_production_building_trigger = yes
				has_building = mage_tower
			}
		}
		
		effect = {
			4325 = {
				if = {
					limit = { culture_group = goblin }
					change_culture = amethyst_dwarf
					change_religion = ROOT
					add_devastation = 30
					add_base_tax = -1
					add_base_production = -1
					add_base_manpower = -1
					hidden_effect = { 
						add_permanent_province_modifier = { name = dwarven_majority_primary duration = -1 }
						remove_province_modifier = goblin_majority_oppressed
						remove_province_modifier = goblin_majority_coexisting
						remove_province_modifier = goblin_majority_integrated
					}
				}
				change_trade_goods = incense
				change_province_name = "Zotrstunz"
				rename_capital = "Zotrstunz"
				add_base_production = 3
			}
		}
	}
}

krakazol_3c = { 
	slot = 3
	generic = no
	ai = yes 
	has_country_shield = yes
	potential = {
		tag = I20 
		has_country_flag = krakazol_part3
	}
	
	krakazol_slayers_call = {
		icon = mission_face_off
		position = 9
		required_missions = { 
			krakazol_axe_face
		}
		

		trigger = {
			mil_power = 100
			estate_loyalty = { estate = estate_adventurers loyalty = 40 }
			estate_influence = { estate = estate_adventurers influence = 30 }
			OR = {
				has_estate_privilege = estate_adventurers_heroes_in_the_army
				has_commanding_three_star = yes
			}
			has_estate_privilege = estate_adventurers_sponsor_beast_slayers
			has_estate_privilege = estate_adventurers_sponsor_monster_hunters
		}
		
		effect = {
			country_event = { id = flavor_krakazol.20 }
		}
	}

	krakazol_bottom_flagon = {
		icon = feast_of_pheasants
		position = 10
		required_missions = {
			krakazol_valkumol
			krakazol_slayers_call
			krakazol_giving_back
		}

		trigger = {
			krakazol_has_ruler_ale_modifier_lvl = { lvl = 5 }
		}
		
		effect = {
			add_adm_power = 50
			add_dip_power = 50
			add_mil_power = 50
			add_prestige = 15
			kanzad_area = { add_permanent_claim = ROOT }
		}
	}

	krakazol_am_dwarf = {
		icon = hussite_regency
		position = 11
		required_missions = { 
			krakazol_bottom_flagon
		}
		
		provinces_to_highlight = {
			if = {
				limit = { 
					ROOT = {
						any_owned_province = {
							trade_goods = mithril
							NOT = { 
								province_group = hold_province
								area = ibran_pass_area
							}
						}
					} 
				}
				owned_by = ROOT
				trade_goods = mithril
				NOT = {
					province_group = hold_province
					area = ibran_pass_area
				}
				NOT = {
					AND = {
						has_manufactory_trigger = yes
						base_production = 6
					}
				}
			}
			else = {
				owned_by = ROOT
				OR = {
					trade_goods = iron
					trade_goods = copper
				}
				NOT = {
					province_group = hold_province
					area = ibran_pass_area
				}
				NOT = {
					AND = {
						has_manufactory_trigger = yes
						base_production = 8
					}
				}
			}
		}

		trigger = {
			innovativeness = 5
			if = {
				limit = { 
					any_owned_province = {
						trade_goods = mithril
						NOT = { 
							province_group = hold_province
							area = ibran_pass_area
						}
					}
				}
				any_owned_province = {
					trade_goods = mithril
					base_production = 6
					has_manufactory_trigger = yes
					NOT = { 
						province_group = hold_province
						area = ibran_pass_area
					}
				}
			}
			else = {
				any_owned_province = {
					OR = {
						trade_goods = iron
						trade_goods = copper
					}
					base_production = 8
					has_manufactory_trigger = yes
					NOT = { 
						province_group = hold_province
						area = ibran_pass_area
					}
				}
			}
		}
		
		effect = {
			change_innovativeness = -5
			if = {
				limit = { NOT = { mithril = 1 } }
				random_owned_province = {
					limit = {
						OR = {
							trade_goods = iron
							trade_goods = copper
						}
						base_production = 8
						has_manufactory_trigger = yes
						NOT = { 
							province_group = hold_province
							area = ibran_pass_area
						}
					}
					change_trade_goods = mithril
				}
			}
			country_event = { id = flavor_krakazol.21 }
		}
	}

	krakazol_digging_hole = {
		icon = mission_treasure_room
		position = 12
		required_missions = { 
			krakazol_am_dwarf
		}
		
		provinces_to_highlight = {
			OR = {
				AND = {
					province_id = 4266
					has_dwarven_hold_6 = no
				}
				AND = {
					owned_by = ROOT
					province_group = hold_province
					has_dwarven_hold_3 = no
				}
			}
		}

		trigger = {
			4266 = { has_dwarven_hold_6 = yes }
			num_of_owned_provinces_with = {
				value = 2
				has_dwarven_hold_3 = yes
				NOT = { province_id = 4266 }
			}
		}
		
		effect = {
			add_splendor = 50
			add_stability_or_adm_power = yes
			custom_tooltip = krakazol_digging_hole_tooltip
			hidden_effect = {
				hold_province = {
					limit = { owned_by = ROOT }
					add_prosperity = 25
				}
			}
		}
	}

	krakazol_numbskulls = {
		icon = mission_confrontation
		position = 13
		required_missions = { 
			krakazol_digging_hole
		}
		
		provinces_to_highlight = {
			continent = asia
			NOT = { superregion = forbidden_lands_superregion }
			owner = {
				has_country_modifier = monstrous_nation
				krakazol_drunk_diplomacy = no
			}
		}

		trigger = {
			prestige = 50
			splendor = 100
			if = {
				limit = { has_dlc = "Dharma" }
				custom_trigger_tooltip = {
					tooltip = krakazol_numbskulls_tooltip
					all_known_country = {
						OR = {
							NOT = { has_country_modifier = monstrous_nation }
							capital_scope = { superregion = forbidden_lands_superregion }
							NOT = { 
								any_owned_province = { 
									OR = { 
										superregion = rahen_superregion
										superregion = north_haless_superregion 
										superregion = south_haless_superregion
									} 
								}
							}

							AND = {
								has_country_modifier = monstrous_nation
								krakazol_drunk_diplomacy = yes
							}
						}
					}
				}
			}
			else = { dip_power = 200 }
		}
		
		effect = {
			if = {
				limit = { NOT = { has_dlc = "Dharma" } }
				add_dip_power = -200
			}
			add_splendor = -100
			add_power_projection = { type = mission_rewards_power_projection amount = 10 }
			tuwad_area = { add_permanent_claim = ROOT }
			dwarovrod_71_74_area = { add_permanent_claim = ROOT }
			gronstunad_area = { add_permanent_claim = ROOT }
		}
	}

	krakazol_cut_head = {
		icon = mission_viking
		position = 14
		required_missions = { 
			krakazol_numbskulls
		}
		
		provinces_to_highlight = {
			OR = {
				area = tuwad_area
				area = dwarovrod_71_74_area
				area = gronstunad_area
			}
			OR = {
				NOT = { owned_by = ROOT }
				hold_condition = { Damaged = yes }
			}
		}

		trigger = {
			tuwad_area = { type = all owned_by = ROOT }
			dwarovrod_71_74_area = { type = all owned_by = ROOT }
			gronstunad_area = { type = all owned_by = ROOT hold_condition = { Repaired = yes } }
		}
		
		effect = {
			jade_mines_region = { add_permanent_claim = ROOT }
		}
	}

	krakazol_call_it_mine = {
		icon = mission_smith
		position = 16
		required_missions = { 
			krakazol_cut_head
		}
		
		provinces_to_highlight = {
			region = jade_mines_region
			NOT = { owned_by = ROOT }
		}

		trigger = {
			jade_mines_region = {
				type = all
				owned_by = ROOT
			}
		}
		
		effect = {
			add_country_modifier = { name = krakazol_mine_victory duration = 9125 }
			4538 = { add_permanent_claim = ROOT }
			4539 = { add_permanent_claim = ROOT }
			4541 = { add_permanent_claim = ROOT }
			4289 = {
				add_permanent_province_modifier = { name = expedition_target duration = -1 }
				set_province_flag = krakazol_3rd_exp
			}
			hidden_effect = { REB = { change_variable = { nbExpedition = 1 } } }
		}
	}

	krakazol_hobbled = {
		icon = mission_impaled_soldies
		position = 17
		required_missions = { 
			krakazol_call_it_mine
		}
		
		provinces_to_highlight = {
			OR = {
				AND = {
					owned_by = ROOT
					culture_group = hobgoblin
				}
				AND = {
					OR = {
						province_id = 4538
						province_id = 4539
						province_id = 4541
					}
					NOT = { owned_by = ROOT }
				}
				AND = {
					province_id = 4289
					NOT = { has_great_project = { type = dd_stramolgiv tier = 3 } }
				}
			}
		}

		trigger = {
			4289 = { has_great_project = { type = dd_stramolgiv tier = 3 } }
			4538 = { owned_by = ROOT }
			4539 = { owned_by = ROOT }
			4541 = { owned_by = ROOT }
			NOT = { any_owned_province = { culture_group = hobgoblin } }
			low_tolerance_hobgoblin_race_trigger = yes
		}
		
		effect = {
			add_power_projection = { type = mission_rewards_power_projection amount = 5 }
			add_stability_or_adm_power = yes
			add_prestige_excess_to_splendour_effect = { VAL = 25 }
			set_country_flag = krakazol_part4
			swap_non_generic_missions = yes
		}
	}
}

krakazol_4c = { 
	slot = 4
	generic = no
	ai = yes 
	has_country_shield = yes
	potential = { 
		tag = I20 
		has_country_flag = krakazol_part3
	}
	
	krakazol_giving_back = {
		icon = mission_women_prayer
		position = 9
		required_missions = { 
			krakazol_need_more
		}
		
		provinces_to_highlight = {
			province_id = 4289
		}

		trigger = {
			4289 = {
				development = 15
				has_building = farm_estate
				has_courthouse_building_trigger = yes
				has_expanded_infrastructure_level = { level = 1 }
			}
		}
		
		effect = {
			add_stability_or_adm_power = yes
			4289 = { add_province_modifier = { name = krakazol_full_power duration = 5475 } }
			tooltip = { add_adk_effect = { add = 3 } }
			hidden_effect = { change_variable = { ancientDwarvenKnowledge = 3 } }
		}
	}

	krakazol_not_yeti = {
		icon = the_alpine_wall
		position = 11
		required_missions = { 
			krakazol_bottom_flagon
		}
		
		provinces_to_highlight = {
			province_id = 4462
		}

		trigger = {
			mil_power = 100
			krakazol_is_drunk = { Drunk = yes }
			4462 = { 
				has_ruler_leader_from = ROOT
				infantry_in_province = 5 
			}
		}
		
		effect = {
			add_mil_power = -100
			4462 = { kill_units = { who = ROOT type = infantry amount = 5 } }
			custom_tooltip = krakazol_slaying_yeti_unlocked_tooltip
		}
	}

	krakazol_one_flagon = {
		icon = mission_thinking_king
		position = 12
		required_missions = { 
			krakazol_not_yeti
		}

		trigger = {
			treasury = 1000
			splendor = 800
		}
		
		effect = {
			add_treasury = -1000
			add_splendor = -800
			add_country_modifier = { name = krakazol_keglord_flagon duration = -1 }
			custom_tooltip = krakazol_one_flagon_tooltip
		}
	}

	krakazol_spicing_up = {
		icon = mission_rb_colonise_spice_islands
		position = 13
		required_missions = { 
			krakazol_digging_hole
			krakazol_thumbs_dirt
		}
		
		provinces_to_highlight = {
			OR = {
				AND = {
					OR = {
						province_id = 4548
						province_id = 4446
						province_id = 4445
					}
					OR = {
						NOT = { base_production = 5 }
						NOT = { has_production_building_trigger = yes }
					}
				}
				AND = {
					province_id = 4446
					NOT = { has_building = state_house }
				}
				AND = {
					continent = asia
					owner = {
						spices = 2 
						NOT = { has_opinion = { who = ROOT value = 75 } }
					}
					NOT = {
						I20 = {
							any_known_country = {
								spices = 2 
								has_opinion = { who = ROOT value = 75 }
							}
						}
					}
				}
			}
		}

		trigger = {
			treasury = 500
			innovativeness = 10
			4548 = {
				base_production = 5
				has_production_building_trigger = yes
			}
			4446 = {
				base_production = 5
				has_production_building_trigger = yes
				has_building = state_house
			}
			4445 = {
				base_production = 5
				has_production_building_trigger = yes
			}
			any_known_country = {
				spices = 2
				has_opinion = { who = ROOT value = 75 }
			}
		}
		
		effect = {
			add_treasury = -500
			change_innovativeness = -10
			country_event = { id = flavor_krakazol.22 }
		}
	}

	krakazol_seeing_green = {
		icon = mission_gain_mana
		position = 14
		required_missions = { 
			krakazol_numbskulls
			krakazol_friends
		}
		
		provinces_to_highlight = {
			province_id = 4350
		}

		trigger = {
			innovativeness = 10
			4350 = {
				development = 60
				has_production_building_trigger = yes
				has_building = state_house
				has_multiple_manufactory_trigger = { VAL = 2 }
				has_expanded_infrastructure_level = { level = 2 }
			}
		}
		
		effect = {
			change_innovativeness = -10
			country_event = { id = flavor_krakazol.23 }
		}
	}

	krakazol_watch_tail = {
		icon = mission_conquer_air
		position = 15
		required_missions = { 
			krakazol_more_dirt
		}
		
		provinces_to_highlight = {
			province_id = 4451
		}

		trigger = {
			mil_power = 100
			krakazol_is_drunk = { Drunk = yes }
			4451 = { 
				owned_by = ROOT
				has_ruler_leader_from = ROOT
				infantry_in_province = 5 
				has_supply_depot = ROOT
			}
		}
		
		effect = {
			add_mil_power = -100
			4451 = { kill_units = { who = ROOT type = infantry amount = 5 } }
			custom_tooltip = krakazol_slaying_manticore_unlocked_tooltip
		}
	}

	krakazol_not_plants = {
		icon = mission_dominate_persian_gulf
		position = 16
		required_missions = { 
			krakazol_watch_tail
		}
		
		provinces_to_highlight = {
			OR = {
				AND = {
					OR = {
						province_id = 4550
						province_id = 4456
						province_id = 4453
						province_id = 4451
					}
					OR = {
						NOT = { development = 15 }
						NOT = { has_production_building_trigger = yes }
					}
				}
				AND = {
					area = ibran_pass_area
					OR = {
						NOT = { owned_by = ROOT }
						NOT = { development = 6 }
						NOT = { has_production_building_trigger = yes }
					}
				}
			}
		}

		trigger = {
			treasury = 500
			4550 = {
				owned_by = ROOT
				development = 15
				has_production_building_trigger = yes
			}
			4456 = {
				owned_by = ROOT
				development = 15
				has_production_building_trigger = yes
			}
			4453 = {
				owned_by = ROOT
				development = 15
				has_production_building_trigger = yes
			}
			4451 = {
				owned_by = ROOT
				development = 15
				has_production_building_trigger = yes
			}
			ibran_pass_area = {
				type = all
				owned_by = ROOT
				development = 6
				OR = {
					has_production_building_trigger = yes
					trade_goods = gold
				}
			}
			ibran_pass_area = { has_building = state_house }
		}
		
		effect = {
			add_treasury = -500
			4550 = { add_base_production = 2 change_trade_goods = cotton }
			4456 = { add_base_production = 2 }
			4453 = { add_base_production = 2 change_trade_goods = cotton }
			4451 = { add_base_production = 2 change_trade_goods = grain }
			ibran_pass_area = { add_base_production = 2 change_trade_goods = cloth }
		}
	}

	krakazol_a_mine = {
		icon = mission_mechanical_mining
		position = 17
		required_missions = { 
			krakazol_call_it_mine
		}
		
		provinces_to_highlight = {
			region = jade_mines_region
			OR = {
				trade_goods = serpentbloom
				trade_goods = fungi
				trade_goods = wool
				trade_goods = wine
				trade_goods = incense
				trade_goods = glass
				trade_goods = livestock
				trade_goods = grain
				trade_goods = fish
				trade_goods = tea
				trade_goods = spices
				trade_goods = coffee
				trade_goods = sugar
				trade_goods = cocoa
				trade_goods = cloves
			}
			NOT = { development = 6 }
		}

		trigger = {
			custom_trigger_tooltip = {
				tooltip = krakazol_a_mine_tooltip
				jade_mines_region = {
					type = all
					OR = {
						AND = {
							OR = {
								trade_goods = serpentbloom
								trade_goods = fungi
								trade_goods = wool
								trade_goods = wine
								trade_goods = incense
								trade_goods = glass
								trade_goods = livestock
								trade_goods = grain
								trade_goods = fish
								trade_goods = tea
								trade_goods = spices
								trade_goods = coffee
								trade_goods = sugar
								trade_goods = cocoa
								trade_goods = cloves
							}
							development = 6
						}
						trade_goods = gems
						trade_goods = copper
						trade_goods = iron
						trade_goods = gold
						trade_goods = mithril
						trade_goods = cloth
						trade_goods = slaves
						trade_goods = salt
						trade_goods = fur
						trade_goods = naval_supplies
						trade_goods = ivory
						trade_goods = chinaware
						trade_goods = cotton
						trade_goods = tobacco
						trade_goods = silk
						trade_goods = dyes
						trade_goods = tropical_wood
						trade_goods = paper
						trade_goods = coal
						trade_goods = damestear
						trade_goods = precursor_relics
					}
				}
			}
		}
		
		effect = {
			custom_tooltip = krakazol_a_mine_tooltip2
			hidden_effect = {
				jade_mines_region = {
					limit = { province_with_mineable_goods = yes }
					add_local_autonomy = -30
					add_base_production = 2
				}
			}
		}
	}
}

krakazol_5c = { 
	slot = 5
	generic = no
	ai = yes 
	has_country_shield = yes
	potential = { 
		tag = I20 
		has_country_flag = krakazol_part3
	}
	
	krakazol_good_labor = {
		icon = mission_rice_farming
		position = 10
		required_missions = { 
			krakazol_fulfill_oath
		}
		
		provinces_to_highlight = {
			NOT = {
				owner = {
					is_rival = ROOT
					is_enemy = ROOT
					has_country_modifier = monstrous_nation
					tag = ROOT
				}
			}
			OR = {
				province_id = 4465
				province_id = 4550
				province_id = 4456
				province_id = 4453
				province_id = 4451
				province_id = 4450
				province_id = 4445
				province_id = 4446
				province_id = 4548
			}
			NOT = { owner = { has_opinion = { who = ROOT value = 75 } } }
		}

		trigger = {
			dip_power = 100
			OR = {
				diplomat = 3
				ruler_has_personality = silver_tongue_personality
				ruler_has_personality = fierce_negotiator_personality
				ruler_has_personality = charismatic_negotiator_personality
				dip = 6
			}
			custom_trigger_tooltip = {
				tooltip = krakazol_good_labor_tooltip
				4465 = { owner = { OR = { has_opinion = { who = ROOT value = 75 } tag = ROOT is_rival = ROOT has_country_modifier = monstrous_nation is_enemy = ROOT } } }
				4550 = { owner = { OR = { has_opinion = { who = ROOT value = 75 } tag = ROOT is_rival = ROOT has_country_modifier = monstrous_nation is_enemy = ROOT } } }
				4456 = { owner = { OR = { has_opinion = { who = ROOT value = 75 } tag = ROOT is_rival = ROOT has_country_modifier = monstrous_nation is_enemy = ROOT } } }
				4453 = { owner = { OR = { has_opinion = { who = ROOT value = 75 } tag = ROOT is_rival = ROOT has_country_modifier = monstrous_nation is_enemy = ROOT } } }
				4451 = { owner = { OR = { has_opinion = { who = ROOT value = 75 } tag = ROOT is_rival = ROOT has_country_modifier = monstrous_nation is_enemy = ROOT } } }
				4450 = { owner = { OR = { has_opinion = { who = ROOT value = 75 } tag = ROOT is_rival = ROOT has_country_modifier = monstrous_nation is_enemy = ROOT } } }
				4445 = { owner = { OR = { has_opinion = { who = ROOT value = 75 } tag = ROOT is_rival = ROOT has_country_modifier = monstrous_nation is_enemy = ROOT } } }
				4446 = { owner = { OR = { has_opinion = { who = ROOT value = 75 } tag = ROOT is_rival = ROOT has_country_modifier = monstrous_nation is_enemy = ROOT } } }
				4548 = { owner = { OR = { has_opinion = { who = ROOT value = 75 } tag = ROOT is_rival = ROOT has_country_modifier = monstrous_nation is_enemy = ROOT } } }
			}
		}
		
		effect = {
			add_dip_power = -100
			add_country_modifier = { name = krakazol_labor_modifier duration = 3650 }
			custom_tooltip = krakazol_good_labor_tooltip2
			hidden_effect = {
				4465 = { add_dwarven_minority_size_effect = yes }
				4550 = { add_dwarven_minority_size_effect = yes }
				4456 = { add_dwarven_minority_size_effect = yes }
				4453 = { add_dwarven_minority_size_effect = yes }
				4451 = { add_dwarven_minority_size_effect = yes }
				4440 = { add_dwarven_minority_size_effect = yes }
				4445 = { add_dwarven_minority_size_effect = yes }
				4446 = { add_dwarven_minority_size_effect = yes }
				4548 = { add_dwarven_minority_size_effect = yes }
			}
		}
	}

	krakazol_herd_me = {
		icon = mission_rb_conquer_wales
		position = 11
		required_missions = { 
			krakazol_bottom_flagon
			krakazol_good_labor
		}
		
		provinces_to_highlight = {
			OR = {
				AND = {
					OR = {
						province_id = 4548
						province_id = 4445
					}
					owner = { NOT = { krakazol_drunk_diplomacy = yes } }
				}
				AND = {
					province_id = 4446
					OR = {
						NOT = { is_claim = ROOT }
						owner = { NOT = { krakazol_drunk_diplomacy = yes } }
					}
				}
			}
			NOT = { owned_by = ROOT }
		}

		trigger = {
			if = {
				limit = { has_dlc = "Dharma" }
				4548 = { 
					if = {
						limit = { NOT = { country_or_subject_holds = ROOT } }
						owner = { krakazol_drunk_diplomacy = yes }
					}
					else = { country_or_subject_holds = ROOT }
				}
				4445 = {
					if = {
						limit = { NOT = { country_or_subject_holds = ROOT } }
						owner = { krakazol_drunk_diplomacy = yes }
					}
					else = { country_or_subject_holds = ROOT }
				}
				4446 = { 
					if = {
						limit = { NOT = { country_or_subject_holds = ROOT } }
						is_claim = ROOT
						owner = { krakazol_drunk_diplomacy = yes }
					}
					else = { country_or_subject_holds = ROOT }
				}
			}
			else = {
				4548 = {
					if = {
						limit = { NOT = { country_or_subject_holds = ROOT } }
						owner = { has_opinion_modifier = { who = ROOT modifier = opinion_insulted } }
					}
					else = { country_or_subject_holds = ROOT }
				}
				4445 = { 
					if = {
						limit = { NOT = { country_or_subject_holds = ROOT } }
						owner = { has_opinion_modifier = { who = ROOT modifier = opinion_insulted } }
					}
					else = { country_or_subject_holds = ROOT }
				}
				4446 = { 
					if = {
						limit = { NOT = { country_or_subject_holds = ROOT } }
						is_claim = ROOT
						owner = { has_opinion_modifier = { who = ROOT modifier = opinion_insulted } }
					}
					else = { country_or_subject_holds = ROOT }
				}
			}
		}
		
		effect = {
			custom_tooltip = krakazol_herd_me_tooltip
			hidden_effect = {
				4548 = { 
					if = {
						limit = { NOT = { country_or_subject_holds = ROOT } }
						province_event = { id = flavor_krakazol.24 }
					}
					else = { add_base_production = 2 }
				}
				4445 = { 
					if = {
						limit = { NOT = { country_or_subject_holds = ROOT } }
						province_event = { id = flavor_krakazol.24 days = 1 }
					}
					else = { add_base_production = 2 }
				}
				4446 = {
					if = {
						limit = { NOT = { country_or_subject_holds = ROOT } }
						province_event = { id = flavor_krakazol.24 days = 2 }
					}
					else = { add_base_production = 2 }
				}
			}
		}
	}

	krakazol_thumbs_dirt = {
		icon = mission_green_village
		position = 12
		required_missions = { 
			krakazol_herd_me
		}
		
		provinces_to_highlight = {
			OR = {
				province_id = 4548
				province_id = 4446
				province_id = 4445
			}
			OR = {
				NOT = { is_core = ROOT }
				local_autonomy = 60
			}
		}

		trigger = {
			adm_power = 100
			4548 = { is_core = ROOT NOT = { local_autonomy = 60 } }
			4445 = { is_core = ROOT NOT = { local_autonomy = 60 } }
			4446 = { is_core = ROOT NOT = { local_autonomy = 60 } }
		}
		
		effect = {
			add_adm_power = -100
			add_prestige = 15
			4548 = { add_permanent_province_modifier = { name = krakazol_prepared_land duration = -1 } }
			4445 = { add_permanent_province_modifier = { name = krakazol_prepared_land duration = -1 } }
			4446 = { add_permanent_province_modifier = { name = krakazol_prepared_land duration = -1 } }
		}
	}

	krakazol_friends = {
		icon = mission_wine_monopolies
		position = 13
		required_missions = { 
			krakazol_thumbs_dirt
		}
		
		provinces_to_highlight = {
			superregion = rahen_superregion
			owner = {
				culture_is_human = yes
				NOT = { has_opinion = { who = ROOT value = 50 } }
				NOT = { is_rival = ROOT }
				capital_scope = { superregion = rahen_superregion }
			}
		}

		trigger = {
			has_country_modifier = racial_focus_human
			OR = {
				medium_tolerance_human_race_trigger = yes
				high_tolerance_human_race_trigger = yes
			}
			custom_trigger_tooltip = {
				tooltip = krakazol_friends_tooltip
				all_known_country = {
					OR = {
						culture_is_human = no
						is_rival = ROOT
						NOT = { capital_scope = { superregion = rahen_superregion } }
						AND = {
							culture_is_human = yes
							capital_scope = { superregion = rahen_superregion }
							has_opinion = { who = ROOT value = 50 }
						}
					}
				}
			}
		}
		
		effect = {
			add_country_modifier = { name = krakazol_friendship duration = 9125 }
		}
	}

	krakazol_more_dirt= {
		icon = mission_secure_khandesh
		position = 14
		required_missions = { 
			krakazol_friends
		}
		
		provinces_to_highlight = {
			OR = {
				province_id = 4550
				province_id = 4456
				province_id = 4453
				province_id = 4451
			}
			owner = {
				NOT = { tag = ROOT }
				OR = {
					NOT = { has_opinion = { who = ROOT value = 100 } }
					NOT = { has_opinion_modifier = { who = ROOT modifier = sent_gift } }
				}
			}
		}

		trigger = {
			treasury = 1000
			dip_power = 200
			splendor = 100
			4550 = {
				if = {
					limit = { NOT = { country_or_subject_holds = ROOT } }
					owner = {
						has_opinion = { who = ROOT value = 100 } 
						has_opinion_modifier = { who = ROOT modifier = sent_gift }
					}
				}
				else = { country_or_subject_holds = ROOT }
			}
			4456 = {
				if = {
					limit = { NOT = { country_or_subject_holds = ROOT } }
					owner = {
						has_opinion = { who = ROOT value = 100 } 
						has_opinion_modifier = { who = ROOT modifier = sent_gift }
					}
				}
				else = { country_or_subject_holds = ROOT }
			}
			4453 = {
				if = {
					limit = { NOT = { country_or_subject_holds = ROOT } }
					owner = {
						has_opinion = { who = ROOT value = 100 } 
						has_opinion_modifier = { who = ROOT modifier = sent_gift }
					}
				}
				else = { country_or_subject_holds = ROOT }
			}
			4451 = {
				if = {
					limit = { NOT = { country_or_subject_holds = ROOT } }
					owner = {
						has_opinion = { who = ROOT value = 100 } 
						has_opinion_modifier = { who = ROOT modifier = sent_gift }
					}
				}
				else = { country_or_subject_holds = ROOT }
			}
		}
		
		effect = {
			add_treasury = -1000
			add_dip_power = -200
			add_splendor = -50
			custom_tooltip = krakazol_more_dirt_tooltip
			hidden_effect = {
				4550 = { 
					if = {
						limit = { NOT = { country_or_subject_holds = ROOT } }
						province_event = { id = flavor_krakazol.24 }
					}
					else = { add_base_production = 2 }
				}
				4456 = { 
					if = {
						limit = { NOT = { country_or_subject_holds = ROOT } }
						province_event = { id = flavor_krakazol.24 days = 1 }
					}
					else = { add_base_production = 2 }
				}
				4453 = { 
					if = {
						limit = { NOT = { country_or_subject_holds = ROOT } }
						province_event = { id = flavor_krakazol.24 days = 2 }
					}
					else = { add_base_production = 2 }
				}
				4451 = {
					if = {
						limit = { NOT = { country_or_subject_holds = ROOT } }
						province_event = { id = flavor_krakazol.24 days = 3 }
					}
					else = { add_base_production = 2 }
				}
			}
		}
	}

	krakazol_too_far = {
		icon = mission_indian_stateman
		position = 15
		required_missions = { 
			krakazol_more_dirt
		}
		
		provinces_to_highlight = {
			OR = {
				province_id = 4465
				province_id = 4450
			}
			NOT = { owned_by = ROOT }
			owner = { NOT = { has_opinion = { who = ROOT value = 100 } } }
		}

		trigger = {
			if = {
				limit = { 
					NOT = { 
						AND = {
							owns = 4465
							owns = 4450 
						}
					}
				}
				treasury = 3000
				dip_power = 200
				splendor = 250
				if = {
					limit = { NOT = { owns = 4465 } }
					4465 = { 
						owner = {  
							OR = {
								has_opinion = { who = ROOT value = 100 }
								is_rival = ROOT
							}
						} 
					}
				}
				if = {
					limit = { NOT = { owns = 4450 } }
					4450 = { 
						owner = {  
							OR = {
								has_opinion = { who = ROOT value = 100 }
								is_rival = ROOT
							}
						} 
					}
				}
			}
			else = {
				owns = 4465
				owns = 4450
			}
		}
		
		effect = {
			if = {
				limit = {
					NOT = {
						AND = {
							owns = 4465
							owns = 4450 
						}
					}
				}
				add_treasury = -3000
				add_dip_power = -250
				add_splendor = -250
				country_event = { id = flavor_krakazol.25 days = 30 }
			}
			else = { add_power_projection = { type = mission_rewards_power_projection amount = 10 } }
		}
	}

	krakazol_give_take = {
		icon = immaculate_government
		position = 16
		required_missions = { 
			krakazol_too_far
		}
		
		provinces_to_highlight = {
			OR = {
				province_id = 4465
				province_id = 4450
			}
			OR = {
				NOT = { owned_by = ROOT }
				NOT = { province_has_current_tech_fort_trigger = yes }
			}
		}

		trigger = {
			high_tolerance_human_race_trigger = yes
			4465 = {
				owned_by = ROOT
				is_core = ROOT
				province_has_current_tech_fort_trigger = yes
			}
			4450 = {
				owned_by = ROOT
				is_core = ROOT
				province_has_current_tech_fort_trigger = yes
			}
		}
		
		effect = {
			add_prestige = 25
			custom_tooltip = krakazol_give_take_tooltip
			hidden_effect = {
				every_known_country = {
					limit = { religion = high_philosophy }
					add_opinion = { who = ROOT modifier = opinion_krakazol_temple_conquest }
				}
			}
			
			4465 = {
				if = {
					limit = { NOT = { religion = high_philosophy } }
					change_religion = high_philosophy
				}
				add_permanent_province_modifier = { name = krakazol_protected_temples duration = -1 }
			}
			4450 = {
				if = {
					limit = { NOT = { religion = high_philosophy } }
					change_religion = high_philosophy
				}
				add_permanent_province_modifier = { name = krakazol_protected_temples duration = -1 }
			}
		}
	}
}


##########Part 4##########
krakazol_1d = { 
	slot = 1
	generic = no
	ai = yes 
	has_country_shield = yes
	potential = { 
		tag = I20 
		has_country_flag = krakazol_part4
	}
	
	krakazol_belly_beast = {
		icon = mission_rb_weather_the_reformation
		position = 18
		required_missions = { 
			krakazol_deepest_dark
		}

		trigger = {
			innovativeness = 15
			if = {
				limit = { has_dlc = "Cradle of Civilization" }
				OR = {
					diplomat = 5
					statesman = 5
				}
			}
			else = { treasury = 1000 }
			OR = {
				dip_power = 200
				ruler_has_personality = silver_tongue_personality
				ruler_has_personality = fierce_negotiator_personality
				ruler_has_personality = charismatic_negotiator_personality
			}
		}
		
		effect = {
			if = {
				limit = { NOT = { has_dlc = "Cradle of Civilization" } }
				add_treasury = -1000
			}
			if = {
				limit = {
					NOT = {
						ruler_has_personality = silver_tongue_personality
						ruler_has_personality = fierce_negotiator_personality
						ruler_has_personality = charismatic_negotiator_personality
					}
				}
				add_dip_power = -200
			}
			change_innovativeness = -15
			country_event = { id = flavor_krakazol.26 }
		}
	}

	krakazol_into_darkness = {
		icon = mission_moon_moon
		position = 19
		required_missions = { 
			krakazol_belly_beast
			krakazol_dreams_demise
		}
		
		provinces_to_highlight = {
			if = {
				limit = { exists = Y02 }
				owned_by = Y02
			}
			else = { province_id = 4842 }
		}

		trigger = {
			power_projection = 25
			prestige = 50
			if = {
				limit = { has_dlc = "Dharma" }
				if = {
					limit = { exists = Y02 }
					Y02 = { krakazol_drunk_diplomacy = yes }
				}
				else = { 4842 = { owner = { krakazol_drunk_diplomacy = yes } } }
			}
			else = { dip_power = 100 }
		}
		
		effect = {
			if = {
				limit = { NOT = { has_dlc = "Dharma" } }
				add_dip_power = -100
			}
			if = {
				limit = { exists = Y02 }
				add_casus_belli = { type = cb_humiliate target = Y02  months = 300 }
			}
			else = { 4842 = { owner = { ROOT = { add_casus_belli = { type = cb_humiliate target = PREV months = 300 } } } } }
		}
	}

	krakazol_dragged_light = {
		icon = crush_heretic_strongholds
		position = 20
		required_missions = { 
			krakazol_into_darkness
		}
		
		provinces_to_highlight = {
			if = {
				limit = { exists = Y02 }
				owned_by = Y02
				NOT = { controlled_by = ROOT }
			}
			else = {
				province_id = 4842
				NOT = { controlled_by = ROOT }
				NOT = { is_looted = yes }
			}
		}

		trigger = {
			if = {
				limit = { exists = Y02 }
				war_with = Y02
				Y02 = {
					all_owned_province = { controlled_by = ROOT }
					capital_scope = {
						controlled_by = ROOT
						is_looted = yes
					}
					OR = {
						war_exhaustion = 5
						ROOT = { war_score = 60 }
					}
				}
			}
			else = {
				4842 = {
					controlled_by = ROOT
					is_looted = yes
					owner = {
						war_with = ROOT
						OR = {
							war_exhaustion = 5
							ROOT = { war_score = 60 }
						}
					}
				}
			}
		}
		
		effect = {
			country_event = { id = flavor_krakazol.27 }
		}
	}
}

krakazol_2d = { 
	slot = 2
	generic = no
	ai = yes 
	has_country_shield = yes
	potential = { 
		tag = I20 
		has_country_flag = krakazol_part4
	}
	
	krakazol_dreams_demise = {
		icon = mission_jungle_pilgrim
		position = 18
		required_missions = { 
			krakazol_hobbled
		}
		
		provinces_to_highlight = {
			province_id = 4323
		}

		trigger = {
			krakazol_is_drunk = { Drunk = yes }
			4323 = { 
				has_ruler_leader_from = ROOT
				infantry_in_province = 5 
			}
			estate_loyalty = { estate = estate_mages loyalty = 50 }
			estate_influence = { estate = estate_mages influence = 40 }
		}
		
		effect = {
			4323 = { kill_units = { who = ROOT type = infantry amount = 5 } }
			custom_tooltip = krakazol_slaying_baku_unlocked_tooltip
		}
	}

	krakazol_swallower_rivers = {
		icon = mission_hydra
		position = 20
		required_missions = { 
			krakazol_dreams_demise
		}
		
		provinces_to_highlight = {
			province_id = 4467
		}

		trigger = {
			splendor = 400
			krakazol_is_drunk = { Drunk = yes }
			if = {
				limit = { has_dlc = "Cradle of Civilization" }
				OR = {
					natural_scientist = 5
					fortification_expert = 5
				}
			}
			else = { mil_power = 100}
			4467 = { 
				has_ruler_leader_from = ROOT
				infantry_in_province = 5 
			}
		}
		
		effect = {
			if = {
				limit = { NOT = { has_dlc = "Cradle of Civilization" } }
				add_mil_power = -100
			}
			add_splendor = -400
			4467 = { kill_units = { who = ROOT type = infantry amount = 5 } }
			custom_tooltip = krakazol_slaying_hydra_special_unlocked_tooltip
		}
	}
}

krakazol_3d = { 
	slot = 3
	generic = no
	ai = yes 
	has_country_shield = yes
	potential = { 
		tag = I20 
		has_country_flag = krakazol_part4
	}
	
	krakazol_explosive_personality = {
		icon = mission_runeforged_cannons
		position = 18
		required_missions = { 
			krakazol_hobbled
		}
		
		provinces_to_highlight = {
			province_id = 4247
			NOT = { has_dwarven_hold_5 = yes }
		}

		trigger = {
			if = {
				limit = { NOT = { 4289 = { has_great_project = { type = dd_stramolgiv tier = 3 } } } }
				4289 = { has_great_project = { type = dd_stramolgiv tier = 3 } }
			}
			mil_power = 200
			innovativeness = 15
			has_mil_advisor_5 = yes
			4247 = { has_dwarven_hold_5 = yes }
		}
		
		effect = {
			add_mil_power = -200
			change_innovativeness = -15
			country_event = { id = flavor_krakazol.28 }
		}
	}

	krakazol_blasted_hills = {
		icon = mission_verdant_secret
		position = 19
		required_missions = { 
			krakazol_explosive_personality
		}
		
		provinces_to_highlight = {
			if = {
				limit = { 
					exists = Y01 
					Y01 = { 
						num_of_owned_provinces_with = {
							value = 3
							region = demon_hills_region
						}
					} 
				}
				owned_by = Y01
				Y01 = {
					NOT = { has_spy_network_from = { who = ROOT value = 30 } }
					NOT = { krakazol_drunk_diplomacy = yes }
				}
			}
			else = {
				province_id = 5430
				owner = {
					NOT = { has_spy_network_from = { who = ROOT value = 30 } }
					NOT = { krakazol_drunk_diplomacy = yes }
				}
			}
		}

		trigger = {
			if = {
				limit = { has_dlc = "Cradle of Civilization" }
				num_of_regiments_at_full_drill = 50
			}
			else = { mil_power = 200 }
			
			if = {
				limit = { has_dlc = "Dharma" }
				if = {
					limit = { 
						exists = Y01 
						Y01 = { 
							num_of_owned_provinces_with = {
								value = 3
								region = demon_hills_region
							}
						} 
					}
					Y01 = {
						krakazol_drunk_diplomacy = yes
						has_spy_network_from = { who = ROOT value = 30 }
					}
				}
				else_if = {
					limit = { owns = 5430 }
					owns = 5430
				}
				else = {
					5430 = {
						owner = {
							krakazol_drunk_diplomacy = yes
							has_spy_network_from = { who = ROOT value = 30 }
						}
					}
				}
			}
			else = { dip_power = 200 }
		}
		
		effect = {
			if = {
				limit = { NOT = { has_dlc = "Dharma" } }
				add_dip_power = -200
			}
			if = {
				limit = { NOT = { has_dlc = "Cradle of Civilization" } }
				add_mil_power = -200
			}
			if = {
				limit = { 
					exists = Y01 
					Y01 = { 
						num_of_owned_provinces_with = {
							value = 3
							region = demon_hills_region
						}
					} 
				}
				add_spy_network_in = { who = Y01 value = -30 }
				add_casus_belli = { type = cb_humiliate target = Y01 months = 300 }
			}
			else_if = {
				limit = { owns = 5430 }
				add_stability_or_adm_power = yes
			}
			else = {
				5430 = {
					owner = {
						ROOT = {
							add_spy_network_in = { who = PREV value = -30 }
							add_casus_belli = { type = cb_humiliate target = PREV months = 300 }
						}
					}
				}
			}
		}
	}

	krakazol_off_heads = {
		icon = mission_silblaidd
		position = 20
		required_missions = {
			krakazol_blasted_hills
		}
		
		provinces_to_highlight = {
			if = {
				limit = { exists = Y01 Y01 = { num_of_cities = 3 } }
				owned_by = Y01
				region = demon_hills_region
				#NOT = { is_looted = yes }
			}
			else = {
				region = demon_hills_region
				owner = { owns = 5430 }
				#is_looted = no shit doesn't work
			}
		}

		trigger = {
			#oni first
			if = {
				limit = { 
					exists = Y01 
					Y01 = { 
						num_of_owned_provinces_with = {
							value = 3
							region = demon_hills_region
						}
					} 
				}
				war_with = Y01
				demon_hills_region = {
					type = all
					OR = {
						NOT = { owned_by = Y01 }
						AND = {
							owned_by = Y01
							controlled_by = ROOT
							is_looted = yes
						}
					}
				}
			}
			else_if = {
				limit = { owns = 5430 }
				owns = 5430
			}
			else = {
				5430 = {
					owner = {
						war_with = ROOT
						demon_hills_region = {
							type = all
							OR = {
								NOT = { owned_by = PREV }
								AND = {
									controlled_by = ROOT
									is_looted = yes
								}
							}
						}
					}
				}
			}
		}
		
		effect = {
			country_event = { id = flavor_krakazol.29 }
		}
	}

	krakazol_cannot_slain = {
		icon = mission_dwarf
		position = 21
		required_missions = { 
			krakazol_dragged_light
			krakazol_swallower_rivers
			krakazol_off_heads
			krakazol_storms_fury
			krakazol_pure_spirits
		}

		trigger = {
			krakazol_is_drunk = { Drunk = yes }
			has_estate_privilege = estate_adventurers_hydra_trophy
			has_estate_privilege = estate_adventurers_kirin_trophy
			splendor = 1200
		}
		
		effect = {
			country_event = { id = flavor_krakazol.30 }
			tooltip = { swap_non_generic_missions = yes }
		}
	}
}

krakazol_4d = { 
	slot = 4
	generic = no
	ai = yes 
	has_country_shield = yes
	potential = { 
		tag = I20 
		has_country_flag = krakazol_part4
	}

	krakazol_fragrant_tusks = {
		icon = mission_elephant_herd
		position = 18
		required_missions = { 
			krakazol_hobbled
			krakazol_a_mine
		}
		
		provinces_to_highlight = {
			OR = {
				AND = {
					OR = {
						province_id = 4538
						province_id = 4539
						province_id = 4541
					}
					OR = {
						NOT = { has_production_building_trigger = yes }
						NOT = { has_trade_building_trigger = yes }
						NOT = { base_production = 8 }
					}
				}
				if = {
					limit = { ROOT = { any_known_country = { culture = ghavaanaj } } }
					owner = {
						culture = ghavaanaj
						OR = {
							NOT = { AND = { alliance_with = ROOT is_subject = no } }
							NOT = { AND = { is_subject_of = ROOT is_subject = no } }
							AND = {
								is_subject = yes
								NOT = { is_subject_of = ROOT }
								NOT = { has_opinion = { who = ROOT value = 125 } }
							}
						}
					}
				}
				else = {
					province_id = 4485
					owner = {
						NOT = { has_opinion = { who = ROOT value = 150 } }
						NOT = { is_rival = ROOT }
					}
				}
			}
		}

		trigger = {
			if = {
				limit = { NOT = { 4289 = { has_great_project = { type = dd_stramolgiv tier = 3 } } } }
				4289 = { has_great_project = { type = dd_stramolgiv tier = 3 } }
			}
			treasury = 5000
			innovativeness = 15
			4538 = {
				has_production_building_trigger = yes
				has_trade_building_trigger = yes
				base_production = 8
			}
			4539 = {
				has_production_building_trigger = yes
				has_trade_building_trigger = yes
				base_production = 8
			}
			4541 = {
				has_production_building_trigger = yes
				has_trade_building_trigger = yes
				base_production = 8
			}
			if = {
				limit = { any_known_country = { culture = ghavaanaj } }
				any_known_country = {
					culture = ghavaanaj
					OR = {
						alliance_with = ROOT
						is_subject_of = ROOT
						AND = {
							is_subject = yes
							has_opinion = { who = ROOT value = 125 }
						}
					}
				}
			}
			else = {
				4485 = {
					owner = {
						OR = {
							has_opinion = { who = ROOT value = 150 }
							is_rival = ROOT
						}
					}
				}
			}
		}
		
		effect = {
			add_treasury = -5000
			change_innovativeness = -15
			country_event = { id = flavor_krakazol.31 }
		}
	}

	krakazol_storms_fury = {
		icon = mission_kirin
		position = 20
		required_missions = { 
			krakazol_fragrant_tusks
		}
		
		provinces_to_highlight = {
			province_id = 4533
		}

		trigger = {
			splendor = 400
			krakazol_is_drunk = { Drunk = yes }
			4630 = { trade_share = { country = ROOT share = 25 } }
			4533 = { 
				has_ruler_leader_from = ROOT
				infantry_in_province = 5 
			}
		}
		
		effect = {
			add_splendor = -400
			4533 = { kill_units = { who = ROOT type = infantry amount = 5 } }
			custom_tooltip = krakazol_slaying_kirin_special_unlocked_tooltip
		}
	}
}

krakazol_5d = { 
	slot = 5
	generic = no
	ai = yes 
	has_country_shield = yes
	potential = { 
		tag = I20 
		has_country_flag = krakazol_part4
	}
	
	krakazol_call_ale = {
		icon = mission_the_tamil_trade_guilds
		position = 18
		required_missions = { 
			krakazol_give_take
		}
		
		provinces_to_highlight = {
			OR = {
				province_id = 4450
				province_id = 4465
			}
			OR = {
				NOT = { has_production_building_trigger = yes }
				NOT = { has_manufactory_trigger = yes }
			}
		}

		trigger = {
			4450 = {
				has_production_building_trigger = yes
				has_manufactory_trigger = yes
			}
			4465 = {
				has_production_building_trigger = yes
				has_manufactory_trigger = yes
			}
			has_ruler_modifier = krakazol_drinking_hammered
		}
		
		effect = {
			country_event = { id = flavor_krakazol.32 }
		}
	}

	krakazol_digging_sideways = {
		icon = mission_burning_separation
		position = 19
		required_missions = {
			krakazol_fragrant_tusks
			krakazol_call_ale
		}
		
		provinces_to_highlight = {
			OR = {
				province_id = 4450
				province_id = 4465
			}
			OR = {
				NOT = { development = 30 }
				NOT = { trade_goods = precursor_relics }
			}
		}

		trigger = {
			has_estate = estate_artificers
			custom_trigger_tooltip = {
				tooltip = krakazol_digging_sideways_tooltip
				has_global_flag = korashi_drill_invented_flag
			}
			4450 = {
				development = 30
				custom_trigger_tooltip = {
					tooltip = krakazol_digging_sideways_tooltip2
					has_province_flag = already_plundered
				}
			}
			4465 = {
				development = 30
				custom_trigger_tooltip = {
					tooltip = krakazol_digging_sideways_tooltip2
					has_province_flag = already_plundered
				}
			}
			krakazol_is_drunk = { Drunk = yes }
		}
		
		effect = {
			country_event = { id = flavor_krakazol.33 }
		}
	}

	krakazol_pure_spirits = {
		icon = mission_pray_light
		position = 20
		required_missions = { 
			krakazol_digging_sideways
		}
		
		provinces_to_highlight = {
			OR = {
				province_id = 4450
				province_id = 4465
			}
			OR = {
				NOT = { has_building = mage_tower }
				NOT = { has_expanded_infrastructure_level = { level = 3 } }
			}
		}

		trigger = {
			innovativeness = 15
			estate_loyalty = { estate = estate_mages loyalty = 50 }
			estate_loyalty = { estate = estate_artificers loyalty = 50 }
			estate_influence = { estate = estate_artificers influence = 40 }
			4450 = { 
				has_building = mage_tower
				has_expanded_infrastructure_level = { level = 2 }
			}
			4465 = { 
				has_building = mage_tower
				has_expanded_infrastructure_level = { level = 2 }
			}
		}
		
		effect = {
			change_innovativeness = -15
			custom_tooltip = krakazol_pure_spirits_tooltip
			country_event = { id = flavor_krakazol.34 }
		}
	}
}
##########Epilogue##########
krakazol_3_epilogue_1 = { 
	slot = 3
	generic = no
	ai = yes 
	has_country_shield = yes
	potential = { 
		tag = I20 
		has_country_flag = krakazol_epilogue_1
	}
	
	krakazol_true_clarity = {
		icon = mission_buddhist_monk_praying
		position = 22
		required_missions = {
			krakazol_cannot_slain
		}

		trigger = {
			krakazol_has_ruler_ale_modifier_lvl = { lvl = 7 }
			has_ruler_modifier = krakazol_drinking_dark_7
			ruler_has_personality = mage_personality
		}
		
		effect = {
			country_event = { id = flavor_krakazol.37 }
		}
	}
}

krakazol_2_epilogue_2 = { 
	slot = 2
	generic = no
	ai = yes 
	has_country_shield = yes
	potential = { 
		tag = I20 
		has_country_flag = krakazol_epilogue_2
	}
	
	krakazol_rivers_ale = {
		icon = mission_pow_just_around_the_riverbend
		position = 23
		required_missions = {
			krakazol_true_clarity
		}
		

		trigger = {
			krakazol_is_drunk = { Drunk = yes }
			treasury = 5000
			dip_power = 100
		}
		
		effect = {
			add_treasury = -5000
			add_dip_power = -100
			define_admiral = {
				fire = 6
				shock = 6
				manuever = 6
				siege = 6
				name = "Ungrim Alebeard"
			}
			custom_tooltip = krakazol_rivers_ale_tooltip
			hidden_effect = {
				4266 = { #20
					galley = ROOT
					galley = ROOT
					galley = ROOT
					galley = ROOT
					galley = ROOT
					galley = ROOT
					galley = ROOT
					galley = ROOT
					galley = ROOT
					galley = ROOT
					galley = ROOT
					galley = ROOT
					galley = ROOT
					galley = ROOT
					galley = ROOT
					galley = ROOT
					galley = ROOT
					galley = ROOT
					galley = ROOT
					galley = ROOT
				}
			}
			add_ruler_modifier = { name = krakazol_boat_quest duration = -1 }
			krakazol_clr_drunk_modifiers = yes
		}
	}
}
krakazol_3_epilogue_2 = { 
	slot = 3
	generic = no
	ai = yes 
	has_country_shield = yes
	potential = { 
		tag = I20 
		has_country_flag = krakazol_epilogue_2
	}
	
	krakazol_find_answer = {
		icon = mission_iberian_conquistador
		position = 24
		required_missions = {
			krakazol_rivers_ale
			krakazol_gold_mint
		}

		trigger = {
			OR = {
				is_divination_2 = yes
				is_divination_3 = yes
				AND = {
					if = {
						limit = { has_dlc = "Cradle of Civilization" }
						court_mage = 5
					}
					else = { treasury = 2000 }
					estate_influence = { estate = estate_mages influence = 50 }
				}
			}
		}
		
		effect = {
			if = {
				limit = { NOT = { has_dlc = "Cradle of Civilization" } }
				add_treasury = -2000
			}
			4266 = { kill_units = { who = ROOT type = galley amount = 20 } }
			country_event = { id = flavor_krakazol.38 days = 90 random = 90 }
		}
	}

	krakazol_magic_unbound = {
		icon = mission_comet_star_animated
		position = 25
		required_missions = {
			krakazol_find_answer
		}

		trigger = {
			custom_trigger_tooltip = {
				tooltip = krakazol_magic_unbound_tooltip
				has_country_flag = krakazol_reached_island
			}
			has_ruler_modifier = krakazol_drinking_hammered
			is_evocation_3 = yes
		}
		
		effect = {
			country_event = { id = flavor_krakazol.39 }
		}
	}
}
krakazol_4_epilogue_2 = { 
	slot = 4
	generic = no
	ai = yes 
	has_country_shield = yes
	potential = { 
		tag = I20 
		has_country_flag = krakazol_epilogue_2
	}
	
	krakazol_gold_mint = {
		icon = dominant_economy
		position = 23
		required_missions = {
			krakazol_true_clarity
		}
		
		trigger = {
			krakazol_has_ruler_ale_modifier_lvl = { lvl = 7 }
			has_ruler_modifier = krakazol_drinking_yellow_7
		}
		
		effect = {
			add_inflation = -2
			krakazol_clr_drunk_modifiers = yes
		}
	}
}

krakazol_3_epilogue_3 = { 
	slot = 3
	generic = no
	ai = yes 
	has_country_shield = yes
	potential = { 
		tag = I20 
		has_country_flag = krakazol_epilogue_3
	}
	krakazol_end_sobriety = {
		icon = mission_well_of_majesty
		position = 26
		required_missions = {
			krakazol_magic_unbound
		}
		
		provinces_to_highlight = {
			province_id = 4547
		}

		trigger = {
			krakazol_is_drunk = { Drunk = yes }
			4547 = { development = 40 }
		}
		
		effect = {
			country_event = { id = flavor_krakazol.40 }
		}
	}
}