luciande_1_missions = { 
	slot = 1
	generic = no
	ai = yes 
	has_country_shield = yes
	potential = { 
		tag = B34
		has_country_flag = B34_lucian
	}	

	luciande_tiresome_facade = {
		icon = mission_shady_encounter
		position = 4
		required_missions = {
			luciande_curse_of_mortality
		}

		provinces_to_highlight = {
			is_capital = yes
			owner = {
				NOT = { has_country_modifier = monstrous_nation } 
				NOT = {
					has_opinion = {
						who = ROOT
						value = -100
					}
				}
			}
		}

		trigger = {
			custom_trigger_tooltip = {
				tooltip = luciande_fated_blood_tt
				had_country_flag = {
					flag = luciande_fated_blood
					days = 365
				}
			}
			custom_trigger_tooltip = {
				tooltip = facade10
				check_variable = {
					which = suspicionPoints
					value = 10
				}
			}
			calc_true_if = {
				all_known_country = {
					NOT = { has_country_modifier = monstrous_nation }
					has_opinion = {
						who = ROOT
						value = -100
					}
				}
				amount = 3
			}
		}

		effect = {
			country_event = { 
				id = flavor_luciande.2
			}
			clr_country_flag = luciande_fated_blood
		}
	}
	
	luciande_finest_blood = {
		icon = mission_potion
		position = 5
		required_missions = {
			luciande_tiresome_facade
		}

		provinces_to_highlight = {
			is_capital = yes
			owner = {
				has_commanding_three_star = yes
			}
		}

		trigger = {
			any_known_country = {
				AND = {
					has_commanding_three_star = yes
					has_spy_network_from = {
						who = ROOT
						value = 30
					}
				}
			}
		}

		effect = {
			custom_tooltip = luciande_vampire_recruits_tt
			set_country_flag = B34_vampire_recruits
		}
	}

	luciande_into_moregod = {
		icon = mission_magnificent_castle
		position = 6
		required_missions = {
		}

		provinces_to_highlight = {
			OR = {
				province_id = 3
				province_id = 451
			}
		}

		trigger = {
			AND = {
				3 = {
					owner = {
						has_spy_network_from = {
							who = ROOT
							value = 30
						}
					}
				}
				treasury = 300
				custom_trigger_tooltip = { 
					tooltip = luciande_sent_gift_tt
					451 = {
						owner = {
							has_opinion_modifier = {
								modifier = sent_gift
								who = ROOT
								value = 25
							}
						}
					}
				}
				is_year = 1520
			}
		}

		effect = {
			country_event = {
				id = flavor_luciande.3
				days = 30
			}
			add_treasury = -300
		}
	}

	luciande_investigating_the_curse = {
		icon = mission_alone_in_the_wood
		position = 7
		required_missions = {
			luciande_into_moregod
		}

		provinces_to_highlight = {
		}

		trigger = {
			AND = {
				has_estate_privilege = estate_mages_reduced_research_regulations
				court_mage = 3
			}
		}

		effect = {
			add_country_modifier = {
				name = B34_busy_researchers
				duration = -1
				hidden = no
			}
			country_event = {
				id = flavor_luciande.5
			}
		}
	}
}

luciande_2_missions = { 
	slot = 2
	generic = no
	ai = yes 
	has_country_shield = yes
	potential = { 
		tag = B34
		has_country_flag = B34_lucian
	}
	
	luciande_the_mind = {
		icon = mission_thinking_king
		position = 2
		required_missions = { 
		}

		provinces_to_highlight = {
		}

		trigger = {
			AND = {
				ruler_age = 60
				adm_power = 50
			}
		}

		effect = {
			rohibon_area = {
				add_permanent_claim = ROOT
			}
			country_event = {
				id = flavor_luciande.8
			}
		}
	}
	
	luciande_west_camp = {
		icon = gory_to_the_black_army
		position = 4
		required_missions = { 
			luciande_curse_of_mortality
		}

		provinces_to_highlight = {
			OR = {
				province_id = 358
				province_id = 778
			}
			NOT = { has_manpower_building_trigger = yes }
			NOT = { infantry_in_province = 1 }
		}

		trigger = {
			AND = {
				358 = {
					AND = {
						has_manpower_building_trigger = yes
						num_of_units_in_province = {
							who = ROOT
							type = any
							amount = 2
						}
					}
				}
				778 = {
					AND = {
						has_manpower_building_trigger = yes
						num_of_units_in_province = {
							who = ROOT
							type = any
							amount = 2
						}
					}
				}
			}
		}

		effect = {
			358 = {
				add_province_modifier = {
					name = B34_west_camp
					duration = -1
					hidden = no
				}
				kill_units = {
					who = owner
					type = infantry
					amount = 2
				}
				add_base_manpower = 1
			}
			778 = {
				add_province_modifier = {
					name = B34_west_camp
					duration = -1
					hidden = no
				}
				kill_units = {
					who = owner
					type = infantry
					amount = 2
				}
				add_base_manpower = 1
			}
			
		}
	}
	

	luciande_cassiers_pincer = {
		icon = push_on_to_bulgaria
		position = 5
		required_missions = {
			luciande_west_camp
			luciande_tiresome_facade
		}

		provinces_to_highlight = { 
			is_capital = yes
			owner = {
				tag = A32
			}
		}

		trigger = {
			AND = {
				if = {
					limit = {
						exists = A32
					}
					A32 = {
						has_spy_network_from = {
							who = ROOT
							value = 50
						}
					}
				}
				else = {
					352 = {
						owner = {
							has_spy_network_from = {
								who = ROOT
								value = 50
							}
						}
					}
				}
				OR = {
					army_professionalism = 0.20
					army_tradition = 40
				}
				has_estate_privilege = estate_vampires_cassiers_command
			}
		}

		effect = {
			261 = {
				add_permanent_claim = ROOT
			}
			354 = {	
				add_permanent_claim = ROOT
			}
			360 = {
				add_permanent_claim = ROOT
			}
			361 = {
				add_permanent_claim = ROOT
			}
			356 = {
				add_permanent_claim = ROOT
			}
			359 = {
				add_permanent_claim = ROOT
			}
			A32 = {
				remove_fow = 180
			}
			hidden_effect = {
				set_country_flag = luciande_fow
			}
		}
	}
	
	luciande_as_above = {
		icon = mission_swiss_mercenaries_flipped
		position = 6
		required_missions = { 
			luciande_cassiers_pincer
		}

		provinces_to_highlight = {
			OR = {
				province_id = 359 #ainethil
				province_id = 360 #thanas
				province_id = 261 #carodir's pass
			}
			NOT = { owned_by = ROOT }
		}

		trigger = {
			owns = 359
			owns = 360
			owns = 261
		}

		effect = {
			custom_tooltip = luciande_cassiers_pincer_tt
			if = {
				limit = {
					mission_completed = luciande_so_below
					has_country_flag = luciande_fow
				}
				add_country_modifier = {
					name = B34_masterful_planning
					duration = -1
				}
				clr_country_flag = luciande_fow
			}
			hidden_effect = {
				country_event = {
					id = flavor_luciande.12
				}
			}
			
			
		}
	}
}

luciande_2_ending_missions = {
	slot = 2
	generic = no
	ai = yes 
	has_country_shield = yes
	potential = { 
		tag = B34 
		has_country_flag = B34_deadest_quiet
		has_country_flag = B34_lucian
	}

	luciande_the_silent_pass = {
		icon = mission_moon_moon
		position = 12
		required_missions = {
			luciande_dead_quiet
		}

		provinces_to_highlight = { 
			OR = {
				province_id = 356
				province_id = 261
			}
			NOT = { province_has_current_tech_fort_trigger = yes }
			NOT = { has_building = ramparts }
		}

		trigger = {
			356 = {
				province_has_current_tech_fort_trigger = yes
				has_building = ramparts
			}
			261 = {
				province_has_current_tech_fort_trigger = yes
				has_building = ramparts
			}
			treasury = 300
			mil_power = 100
		}

		effect = {
			add_treasury = -300
			add_mil_power = -100

			unlock_merc_company = {
				merc_company = merc_crimson_executioners
				free_merc = yes
			}
		}
	}

	luciande_controlling_history = {
		icon = mission_burning_man
		position = 13
		required_missions = {
			luciande_the_silent_pass
		}

		provinces_to_highlight = { 
			AND = {
				OR = {
					area = north_ibevar_area
					area = south_ibevar_area
				}
				OR = {
					has_elven_majority_trigger = yes
					has_elven_minority_trigger = yes
				}
				has_rebel_faction = yes
			}
		}

		trigger = {
			custom_trigger_tooltip = {
				tooltip = luciande_purge_elves_tt
				all_owned_province = {
					OR = {
						AND = {
							NOT = { area = north_ibevar_area }
							NOT = { area = south_ibevar_area }
						}
						AND = {
							NOT = { 
								has_elven_minority_trigger = yes
							}
							NOT = {
								has_elven_majority_trigger = yes
							}
						}
					}
				}
			}
			num_of_rebel_controlled_provinces = 1
		}

		effect = {
			random_owned_province = {
				limit = {
					has_rebel_faction = yes
				}
				clear_rebels = yes
			}
			add_country_modifier = {
				name = B34_an_iron_fist
				duration = -1
				hidden = no
			}
		
			random_owned_province = {
				limit = {
					is_capital = no
				}
				change_culture = cardesti
			}
			random_owned_province = {
				limit = {
					is_capital = no
					NOT = {
						culture = cardesti
					}
				}
				change_culture = cardesti
			}
			random_owned_province = {
				limit = {
					is_capital = no
					NOT = {
						culture = cardesti
					}	
				}
				change_culture = cardesti
			}
		}
	}

	luciande_cardesti_control = {
		icon = mission_assassination
		position = 14
		required_missions = {
			luciande_controlling_history
		}

		provinces_to_highlight = { 
			owned_by = B34
			culture = cardesti
			NOT = { local_autonomy = 20 }
		}

		trigger = {
			has_global_modifier_value = {
				which = spy_offence
				value = 0.5
			}
			accepted_culture = cardesti
			custom_trigger_tooltip = {
			tooltip = luciande_cardesti_control_tt
				all_owned_province = {
					OR = {
						NOT = { culture = cardesti }
					local_autonomy = 20                    
					}
				}
			}
		}

		effect = {
			random_owned_province = {
				limit = {
					culture = cardesti
					NOT = {
						has_province_modifier = B34_cardesti_camp
					}
				}
				add_province_modifier = {
					name = B34_cardesti_camp
					duration = -1
					hidden = no
				}
			}
			random_owned_province = {
				limit = {
					culture = cardesti
					NOT = {
						has_province_modifier = B34_cardesti_camp
					}
				}
				add_province_modifier = {
					name = B34_cardesti_camp
					duration = -1
					hidden = no
				}
			}
			random_owned_province = {
				limit = {	
					culture = cardesti
					NOT = {
						has_province_modifier = B34_cardesti_camp
					}
				}
				add_province_modifier = {
					name = B34_cardesti_camp
					duration = -1
					hidden = no
				}
			}
		}
	}
}

luciande_3_missions = { 
	slot = 3
	generic = no
	ai = yes 
	has_country_shield = yes
	potential = { 
		tag = B34
		has_country_flag = B34_lucian
	}

	luciande_edge_of_escann = {
		icon = mission_assemble_an_army
		position = 1
		required_missions = { 
		}

		provinces_to_highlight = {  
			area = cursewood_area
			NOT = { owned_by = B34 }
		}

		trigger = {
			army_size_percentage = 0.8
			cursewood_area = {
				type = all
				owned_by = ROOT
			}
		}

		effect = {
			valefort_area = {
				add_permanent_claim = ROOT
			}
			whistlevale_area = {
				add_permanent_claim = ROOT
			}
		}
	}

	luciande_the_body = {
		icon = mission_fortify_rajputana
		position = 2
		required_missions = { 
			luciande_edge_of_escann
		}

		provinces_to_highlight = {
			OR = {
				AND = {
					OR = {
						area = valefort_area
						area = whistlevale_area
					}
					NOT = { owned_by = B34 }
				}
				AND = {
					province_id = 780
					base_manpower = 6
				}
			}
		}

		trigger = {
			valefort_area = {
				type = all
				owned_by = ROOT
			}
			whistlevale_area = {
				type = all
				owned_by = ROOT
			}	
			780 = {
				base_manpower = 6
			}
			treasury = 100
		}

		effect = {
			set_capital = 780
			780 = {
				add_building_construction = {
					building = fort_15th
					speed = 1
					cost = 0.5
				}
			}
			verteben_area = {
				add_permanent_claim = ROOT
			}
			rohibon_area = {
				add_permanent_claim = ROOT
			}
		}
	}

	luciande_curse_of_mortality = {
		icon = mission_build_up_to_force_limit
		position = 3
		required_missions = { 
			luciande_the_mind
			luciande_the_body
			luciande_the_heart
		}

		provinces_to_highlight = {
			area = rohibon_area
			NOT = { owned_by = B34 }
		}

		trigger = {
		
			rohibon_area = {
				type = all
				owned_by = ROOT
			}
			NOT = {
				has_leader = "Cassier silna Fox"
			}
		}

		effect = {
			country_event = {
				id = flavor_luciande.9
			}
			add_country_modifier = {
				name = B34_dark_ambitions
				duration = 7300		
				hidden = no
			}
		}
	}

	luciande_guardian_of_the_godshield = {
		icon = mission_mountain_castle
		position = 5
		required_missions = {
			luciande_curse_of_mortality
		}

		provinces_to_highlight = {  
			OR = {
				AND = {
					province_id = 780
					base_manpower = 8
					has_building = ramparts
				}
				AND = {
					area = verteben_area
					NOT = { owned_by = B34 }
				}
			}
		}

		trigger = {
			780 = {
				base_manpower = 8
				has_building = ramparts
			}
			verteben_area = {
				type = all
				owned_by = ROOT
			}
		}

		effect = {
			780 = {
				add_province_modifier = {
					name = B34_looming_citadel
					duration = -1
					hidden = no
				}
			}
			merescker_area = {
				add_permanent_claim = ROOT
			}
		}
	}

	luciande_so_below = {
		icon = swiss_mercenaries
		position = 6
		required_missions = {
			luciande_cassiers_pincer
		}

		provinces_to_highlight = {
			OR = {
				province_id = 361 #blaiddscal
				province_id = 354 #larthan
				province_id = 356 #ar einnas
			}
		}

		trigger = {
			owns = 361
			owns = 354
			owns = 356
		}

		effect = {
			custom_tooltip = luciande_cassiers_pincer_tt
			if = {
				limit = {
					mission_completed = luciande_as_above
					has_country_flag = luciande_fow
				}
				add_country_modifier = {
					name = B34_masterful_planning
					duration = -1
					hidden = no
				}
				clr_country_flag = luciande_fow
			}
		}
	}

	luciande_far_from_the_empire = {
		icon = fund_the_monasteries
		position = 7
		required_missions = {
			luciande_as_above
			luciande_so_below
			luciande_dark_contender
			luciande_the_screaming_forest
		}

		provinces_to_highlight = {  
			OR = {
				AND = {
					is_capital = yes
					owned_by = A32
				}
				AND = {
					owned_by = B34
					is_part_of_hre = yes
				}
			}
		}

		trigger = {
			NOT = {
				exists = A32
			}
			all_owned_province = {
				NOT = {
					is_part_of_hre = yes
				}
			}
		}

		effect = {
			350 = { #silent repose
				add_permanent_claim = ROOT
			}
		}
	}

	luciande_forever_silent = {
		icon = mission_seren_cathedral
		position = 8
		required_missions = {
			luciande_investigating_the_curse
			luciande_far_from_the_empire
		}

		provinces_to_highlight = {
			province_id = 350
			NOT = { has_tax_building_trigger = yes } 
			NOT = { province_has_current_tech_fort_trigger = yes } 
		}

		trigger = {
			is_core = 350 #silent repose
			350 = { #silent repose
				has_tax_building_trigger = yes
				province_has_current_tech_fort_trigger = yes
			}
		}

		effect = {
			350 = { #silent repose
				add_province_modifier = {
					name = B34_preparations
					duration = 7300
				}
			}
			add_prestige = 10
			set_country_flag = B34_forever_silent
			hidden_effect = {
				swap_non_generic_missions = yes
			}
		}
	}
}

luciande_3_middle_missions_1 = { 
	slot = 3
	generic = no
	ai = yes 
	has_country_shield = yes
	potential = { 
		tag = B34
		has_country_flag = B34_forever_silent
		has_country_flag = B34_lucian
	}

	luciande_preparations = {
		icon = mission_african_gold
		position = 9
		required_missions = {
			luciande_forever_silent
		}

		provinces_to_highlight = {  
			province_id = 350
			NOT = { development = 30 } 
		}

		trigger = {
			has_estate_privilege = estate_vampires_balins_havens
			has_estate_privilege = estate_vampires_liandiels_concealment
			treasury = 500
			350 = { #silent repose
				development = 30
			}
		}

		effect = {
			add_country_modifier = {
				name = B34_preparing
				duration = 1825
			}
			hidden_effect = {
				facade_suspicion_decrease_10 = yes
				facade_suspicion_decrease_10 = yes
			}
			set_country_flag = B34_making_preparations
			hidden_effect = {
				swap_non_generic_missions = yes
			}
		}
	}
}

luciande_3_middle_missions_2 = { 
	slot = 3
	generic = no
	ai = yes 
	has_country_shield = yes
	potential = { 
		tag = B34
		has_country_flag = B34_making_preparations
		has_country_flag = B34_lucian
	}

	luciande_the_midnight_hour = {
		icon = the_viennese_waltz
		position = 10
		required_missions = {
			luciande_preparations
		}

		provinces_to_highlight = {  
		}

		trigger = {
			NOT = {
				has_country_modifier = B34_preparing
			}
			army_size = 50
			is_at_war = no
		}

		effect = {
			custom_tooltip = luciande_the_midnight_hour_tt
			350 = { #silent repose
				add_province_modifier = {
					name = B34_the_darkest_mountain
					duration = -1
				}
			}
			country_event = {
				id = flavor_luciande.18
			}
		}
	}
}

luciande_3_ending_missions_1 = {
	slot = 3
	generic = no
	ai = yes 
	has_country_shield = yes
	potential = { 
		tag = B34 
		has_country_flag = luciande_finished_war
		has_country_flag = B34_lucian
	}
	
	luciande_dead_quiet = {
		icon = mission_ghost_town
		position = 11
		required_missions = {
			luciande_the_midnight_hour
		}

		provinces_to_highlight = {  
		}

		trigger = {
			stability = 3
			adm_power = 100
			dip_power = 100
			mil_power = 100
			is_at_war = no
		}

		effect = {
			country_event = {
				id = flavor_luciande.26
			}
			add_adm_power = -100
			add_dip_power = -100
			add_mil_power = -100
			
			remove_country_modifier = B34_drifting
			set_country_flag = B34_deadest_quiet
			hidden_effect = {
				swap_non_generic_missions = yes
			}
		}
	}
}

luciande_3_ending_missions_2 = {
	slot = 3
	generic = no
	ai = yes 
	has_country_shield = yes
	potential = { 
		tag = B34 
		has_country_flag = B34_deadest_quiet
		has_country_flag = B34_lucian
	}
	
	luciande_grizzled_and_old = {
		icon = mission_che_the_council_house
		position = 13
		required_missions = {
			luciande_dead_quiet
		}

		provinces_to_highlight = { 
			province_id = 435
			NOT = {
				num_of_units_in_province = {
					who = ROOT
					type = any
					amount = 20
				}
			}
			OR = {
				NOT = { owner = { war_with = ROOT } }
				NOT = { owned_by = ROOT }
			}
		}

		trigger = {
			OR = {
				435 = {
					owner = {
						war_with = ROOT
					}
					controlled_by = B34
				}
				owns = 435
			}
			435 = {
				num_of_units_in_province = {
					who = ROOT
					type = any
					amount = 20
				}
			}
			
		}

		effect = {
			country_event = {
				id = flavor_luciande.30
			}
			set_country_flag = B34_on_the_hunt
			hidden_effect = {
				swap_non_generic_missions = yes
			}
		}
	}
}

luciande_3_ending_missions_3 = {
	slot = 3
	generic = no
	ai = yes 
	has_country_shield = yes
	potential = { 
		tag = B34 
		has_country_flag = B34_on_the_hunt
		has_country_flag = B34_lucian
	}
	luciande_scouring_the_archives = {
		icon = found_the_vatican_library
		position = 14
		required_missions = {
			luciande_grizzled_and_old
		}

		provinces_to_highlight = { 
			province_id = 441 #arca corvur
			NOT = { owned_by = ROOT }
		}
		

		trigger = {
			controls = 441
		}

		effect = {
			country_event = {
				id = flavor_luciande.31
			}
			set_country_flag = B34_end_of_hunt
			hidden_effect = {
				swap_non_generic_missions = yes
			}
		}
	}	
}

luciande_3_ending_missions_4 = { 
	slot = 3
	generic = no
	ai = yes 
	has_country_shield = yes
	potential = { 
		tag = B34 
		has_country_flag = B34_end_of_hunt
		has_country_flag = B34_lucian
	}
	
	luciande_nearing_the_end = {
		icon = mission_thirsting_queen
		position = 15
		required_missions = {
			luciande_scouring_the_archives
		}

		provinces_to_highlight = { 
			has_province_modifier = B34_ettalinde_clues
		}

		trigger = {
			custom_trigger_tooltip = {
				tooltip = luciande_found_clues_tt
				NOT = {
					OR = {
						western_cannor_superregion = {
							has_province_modifier = B34_ettalinde_clues
						}
						escann_superregion = {
							has_province_modifier = B34_ettalinde_clues
						}
					}
				}
			}
			hidden_trigger = {
				has_country_flag = luciande_no_cheating
			}
		}

		effect = {
			country_event = {
				id = flavor_luciande.41
			}
		}
	}
}

luciande_4_missions = { 
	slot = 4
	generic = no
	ai = yes 
	has_country_shield = yes
	potential = { 
		tag = B34 
		has_country_flag = B34_lucian
	} #luciande

	luciande_hills_of_green = {
		icon = mission_che_the_cave_country
		position = 1
		required_missions = { 
		}

		provinces_to_highlight = {  
			OR = {
				AND = {
					province_id = 777
					NOT = { base_production = 6 }
					NOT = { infantry_in_province = ROOT }
				}
				AND = {
					area = whistlevale_area
					NOT = { infantry_in_province = ROOT }
				}
			}
		}

		trigger = {
			777 = {
				base_production = 6
				infantry_in_province = ROOT
			}
			any_owned_province = {
				AND = {
					area = whistlevale_area
					infantry_in_province = ROOT
				}
			}
		}

		effect = {
			set_country_flag = B34_slave_economy
			custom_tooltip = luciande_hills_of_green_tt
			hidden_effect = {
				every_owned_province = {
					if = {
						limit = {
							area = whistlevale_area
							infantry_in_province = ROOT
						}
						kill_units = {
							who = owner
							type = infantry
							amount = 1
						}
					change_trade_goods = slaves
					add_province_modifier = { name = B34_board_of_chains_boost duration = -1 hidden = yes }
					}
				}
				remove_country_modifier = racial_pop_orcish_purge
				remove_country_modifier = racial_pop_orcish_expulsion
			}
			custom_tooltip = luciande_stop_orc_purge_tt
		}
	}
	
	luciande_the_heart = {
		icon = mission_market
		position = 2
		required_missions = { 
			luciande_hills_of_green
		}

		provinces_to_highlight = { 
			OR = {
				AND = {
					province_id = 451
					owner = {
						NOT = { 
							has_opinion_modifier = {
								who = ROOT
								modifier = improved_relation
								value = 100
							}
						}
					}
				}
				AND = {
					province_id = 216
					owner = {
						NOT = { 
							has_opinion_modifier = {
								who = ROOT
								modifier = improved_relation
								value = 100
							}
						}
					}
				}
				AND = {
					province_id = 777
					NOT = { has_trade_building_trigger = yes }
				}
			}
		}

		trigger = {
			777 = {
				has_trade_building_trigger = yes
			}
			451 = {
				owner = {
					custom_trigger_tooltip = {
						tooltip = luciande_max_improve_relations_tt
						has_opinion_modifier = {
							who = ROOT
							modifier = improved_relation
							value = 100
						}
					}
				}
			}
			216 = {
				owner = {
					custom_trigger_tooltip = {
						tooltip = luciande_max_improve_relations_tt
						has_opinion_modifier = {
							who = ROOT
							modifier = improved_relation
							value = 100
						}
					}
				}
			}
			treasury = 250	
		}

		effect = {
			country_event = {
				id = flavor_luciande.35
			}
			777 = {
				add_building_construction = {
					building = tradecompany
					speed = 1
					cost = 0.5
				}
			}
		}
	}

	luciande_east_camp = {
		icon = gory_to_the_black_army
		position = 4
		required_missions = {
			luciande_curse_of_mortality
		}

		provinces_to_highlight = {  
			province_id = 769
			NOT = { has_manpower_building_trigger = yes }
		}

		trigger = {
			769 = {
				has_manpower_building_trigger = yes
				num_of_units_in_province = {
					who = ROOT
					type = any
					amount = 2
				}
			}
		}

		effect = {
			769 = {
				add_province_modifier = {
					name = B34_east_camp
					duration = -1
					hidden = no
				}
				add_base_manpower = 1
				kill_units = {
					who = owner
					type = infantry
					amount = 2
				}
			}
		}
	}

	luciande_a_new_order = {
		icon = mission_marwari_horses
		position = 5
		required_missions = {
			luciande_east_camp
		}

		provinces_to_highlight = {  
			area = taran_plains_area
			NOT = { owned_by = ROOT }
		}

		trigger = {
			taran_plains_area = {
				type = all
				owned_by = ROOT
			}
			cavalry_fraction = 0.15
		}

		effect = {
			country_event = {
				id = flavor_luciande.39
			}
		}
	}

	luciande_dark_contender = {
		icon = mission_sinister_castle
		position = 6
		required_missions = { 
			luciande_guardian_of_the_godshield
			luciande_a_new_order
		}

		provinces_to_highlight = {
			OR = {
				AND = {
					area = merescker_area
					NOT = { owned_by = ROOT }
				}
				
			}
		}

		trigger = {
			merescker_area = {
				type = all
				owned_by = ROOT
			}
			all_rival_country = {
				OR = {
					has_opinion_modifier = {
						who = ROOT
						modifier = insulted
					}	
					has_opinion_modifier = {
						who = ROOT
						modifier = scornfully_insulted
					}
				}
				NOT = {
					army_size = ROOT
				}
			}
		}
		

		effect = {
			every_rival_country = {
				B34 = { #luciande
					add_legitimacy = 5
					add_prestige = 5
					add_power_projection = {
						type = mission_rewards_power_projection
						amount = 10
					}
				}
			}
		}
	}
}

luciande_4_ending_missions = {
	slot = 4
	generic = no
	ai = yes 
	has_country_shield = yes
	potential = {
		tag = B34
		has_country_flag = B34_deadest_quiet
		has_country_flag = B34_lucian
	} #luciande
	
	luciande_overseeing_the_slave_markets = {
		icon = mission_magic_tower
		position = 12
		required_missions = {
			luciande_dead_quiet
		}

		provinces_to_highlight = {
			OR = {
				AND = {
					province_id = 776
					has_building = mage_tower
				}
				AND = {
					trade_goods = slaves
					owned_by = B34
				}
			}
		}

		trigger = {
			776 = {
				has_building = mage_tower
			}
			num_of_owned_provinces_with = {
				value = 5
				trade_goods = slaves
			}
			
		}

		effect = {
			776 = { #widor
				add_province_modifier = {
					name = B34_the_black_tower
					duration = -1
				}
				change_province_name = "Slaver's Watch"
			}
		}
	}
	
	luciande_bureaucratic_slavery = {
		icon = adjust_the_general_means
		position = 13
		required_missions = {
			luciande_overseeing_the_slave_markets
		}

		provinces_to_highlight = {
			OR = {
				AND = {
					trade_goods = slaves
					NOT = { has_manufactory_trigger = yes }
					owned_by = B34
				}
				AND = {
					province_id = 776
					NOT = { base_tax = 6 }
					NOT = { has_manufactory_trigger = yes }
				}
			}
		}

		trigger = {
			776 = {
				has_manufactory_trigger = yes
				base_tax = 6
			}
			num_of_owned_provinces_with = {
				value = 5
				trade_goods = slaves
				has_building = tradecompany
			}
		}

		effect = {
			776 = {
				change_trade_goods = paper 
			}
			custom_tooltip = luciande_upgraded_board_2_tt
			set_country_flag = luciande_tier2_slaves_flag
			
			hidden_effect = {
				every_owned_province = {
					limit = { has_province_modifier = B34_board_of_chains_boost }
					remove_province_modifier = B34_board_of_chains_boost
					add_province_modifier = {
						name = B34_board_of_chains_boost_upgraded
						duration = -1
						hidden = yes
					}
				}
			}
			hidden_effect = {
				country_event = {
					id = flavor_luciande.52
					days = 1
				}
			}
		}
	}
	
	luciande_a_neccessary_good = {
		icon = personal_diplomacy
		position = 14
		required_missions = {
			luciande_bureaucratic_slavery
		}

		provinces_to_highlight = {
			is_capital = yes
			owner = {
				tag = G95
			}
		}

		trigger = {
			if = {
				limit = {
					exists = G95
				}
				G95 = {
					custom_trigger_tooltip = {
						tooltip = luciande_sent_gift_tt
						has_opinion_modifier = {
							modifier = sent_gift
							who = ROOT
							value = 25
						}
					}
					custom_trigger_tooltip = {
						tooltip = luciande_max_improve_relations_tt
						has_opinion_modifier = {
							who = ROOT
							modifier = improved_relation
							value = 100
						}
					}
				}
			}
			else = {
				has_institution = global_trade
			}
		}
		effect = {
			if = {
				limit = {
					exists = G95
					G95 = {
						has_opinion_modifier = {
							who = ROOT
							modifier = improved_relation
							value = 100
						}
					}
					G95 = {
						has_opinion_modifier = {
							modifier = sent_gift
							who = ROOT
							value = 25
						}
					}
				}
				country_event = {
					id = flavor_luciande.42
				}
			}
			custom_tooltip = luciande_upgraded_board_3_tt
			set_country_flag = luciande_tier3_slaves_flag
			
			hidden_effect = {
				every_owned_province = {
					limit = { has_province_modifier = B34_board_of_chains_boost_upgraded }
					remove_province_modifier = B34_board_of_chains_boost_upgraded
					add_province_modifier = {
						name = B34_board_of_chains_boost_upgraded_2
						duration = -1
						hidden = yes
					}
				}
			}
			hidden_effect = {
				country_event = {
					id = flavor_luciande.53
					days = 1
				}
			}
		}
	}
}

luciande_slot_5_blank = {
	slot = 5
	generic = no
	ai = yes
	potential = {
		tag = B34 #luciande
		has_country_flag = B34_lucian
	}
	has_country_shield = yes
}

luciande_5_missions = { 
	slot = 5
	generic = no
	ai = yes 
	has_country_shield = yes
	potential = { 
		tag = B34
		has_country_flag = B34_lucian
	}

	luciande_the_undying_trade = {
		icon = mission_guarded_market
		position = 4
		required_missions = {
			luciande_curse_of_mortality
		}

		provinces_to_highlight = {
			OR = {
				AND = {
					is_capital = yes
					owner = {
						OR = {
							has_country_modifier = racial_pop_orcish_expulsion
							has_country_modifier = racial_pop_orcish_purge
						}
					}
				}
				AND = {
					province_id = 777
					province_has_center_of_trade_of_level = 2
				}
			}
		}

		trigger = {
			if = {
				limit = {
					has_dlc = "Dharma"
				}
				
				777 = {
					province_has_center_of_trade_of_level = 2
				}
			}
			else = {
				treasury = 200
			}
			any_known_country = {
				OR = {
					AND = {
						OR = {
							has_country_modifier = racial_pop_orcish_expulsion
							has_country_modifier = racial_pop_orcish_purge
						}
						custom_trigger_tooltip = {
							tooltip = luciande_max_improve_relations_tt
							has_opinion_modifier = {
								who = ROOT
								modifier = improved_relation
								value = 100
							}
						}
					}
					has_opinion = {
						who = ROOT
						value = 100
					}
				}
			}
		}

		effect = {
			custom_tooltip = luciande_upgraded_board_tt
			if = {
				limit = {
					NOT = { has_dlc = "Dharma" }
				}
				777 = {
					add_center_of_trade_level = 1
				}
			}
			set_country_flag = luciande_tier1_slaves_flag
			
			every_owned_province = {
				limit = {
					trade_goods = slaves
				}
				add_province_modifier = {
					name = B34_board_of_chains_boost
					duration = -1
					hidden = yes
				}
			}
			hidden_effect = {
				country_event = {
					id = flavor_luciande.51
					days = 1
				}
			}
		}
	}

	luciande_grand_visions = {
		icon = mission_dwarf
		position = 5
		required_missions = {
			luciande_the_undying_trade
		}

		provinces_to_highlight = {
			province_id = 912
		}

		trigger = {
			912 = {  #anvilwright
				owner = {
					has_spy_network_from = {
						who = ROOT
						value = 50
					}				
				}
			}
			OR = {
				advisor = spymaster
				advisor = diplomat
			}
		}

		effect = {
			country_event = {
				id = flavor_luciande.47
			}
		}
	}

	luciande_the_screaming_forest = {
		icon = mission_misty_forest
		position = 6
		required_missions = {
			luciande_grand_visions
		}

		provinces_to_highlight = { 
			OR = {
				AND = {
					owned_by = B34
					culture = green_orc
					NOT = { infantry_in_province = ROOT }
				}
				AND = {
					province_id = 355
					NOT = { province_has_current_tech_fort_trigger = yes }
				}
			}
		}

		trigger = {
			all_owned_province = {
				OR = {
					NOT = { culture = green_orc }
					infantry_in_province = ROOT
				}	
			}
			355 = {
				province_has_current_tech_fort_trigger = yes
			}
		}

		effect = {
			hidden_effect = {
				every_owned_province = {
					limit = {
						culture = green_orc
						NOT = { province_id = 355 }
					}
					add_devastation = 25
					if = {
						limit = {
							ROOT = { primary_culture = luciander }
						}
						change_culture = luciander
					}
					else = {
						change_culture = roilsardi
					}
					if = {
						limit = { ROOT = { religion = corinite } }
						change_religion = corinite
					}
					else = {
						change_religion = regent_court
					}
				}
			}
			custom_tooltip = luciande_orc_farm_tt
			355 = {
				change_culture = green_orc
				change_trade_goods = livestock
				change_religion = great_dookan
				add_province_modifier = {
					name = B34_orc_hunting_grounds
					duration = -1
				}
			}
		}
	}
}