
snecboth1_missions = {
	slot = 1 
	generic = no
	ai = yes 
	potential = {
		primary_culture = snecboth
		NOT = { tag = H21 }
	}
	
	snecboth_prepare_for_winter_hardship = {
		icon = mission_scandinavian_port_authority
		required_missions = {  }
		position = 1
		
		trigger = {
			treasury = 50
			manpower_percentage = 0.9
			adm_power = 100
		}
		
		effect = {
			add_country_modifier = {
				name = "snecboth_winter_stores"
				duration = 5475
			}
		}
	}
	
	snecboth_encasement_of_frost = {
		icon = mission_conquer_moscow
		required_missions = { snecboth_prepare_for_winter_hardship }
		position = 2
		
		trigger = {
			any_known_country = {
				NOT = { primary_culture = snecboth }
				war_with = ROOT
			}
		}
		
		effect = {
			add_country_modifier = {
				name = "snecboth_frost_encasement"
				duration = 7300
			}
		}
	}
	
	snecboth_arctic_legion = {
		icon = mission_duel_snow
		required_missions = { snecboth_encasement_of_frost }
		position = 3
		
		trigger = {
			land_forcelimit = 20
		}
		
		effect = {
			add_army_tradition = 10
			add_country_modifier = {
				name = "snecboth_winter_legion"
				duration = 18250
			}
		}
	}
}

snecboth2_missions = {
	slot = 2 
	generic = no
	ai = yes 
	potential = {
		primary_culture = snecboth
		NOT = { tag = H21 }
	}
	
	snecboth_boreal_cavalry_mission = {
		icon = mission_weather_the_troubles
		required_missions = { snecboth_encasement_of_frost }
		position = 3
		
		trigger = {
			num_of_cavalry = 10
		}
		
		effect = {
			add_mil_power = 25
			add_country_modifier = {
				name = "snecboth_boreal_cavalry_mod"
				duration = 18250
			}
		}
	}
	
	snecboth_snow_yet_unthawed = {
		icon = mission_protect_white_sea_trade
		required_missions = { 
			snecboth_arctic_legion
			snecboth_boreal_cavalry_mission
		}
		position = 4
		
		trigger = {
			army_tradition = 65
			army_professionalism = 0.1
			naval_forcelimit = 25
		}
		
		effect = {
			add_country_modifier = {
				name = "snecboth_glacial_permanency"
				duration = -1
			}
		}
	}
}

snecboth3_missions = {
	slot = 3 
	generic = no
	ai = yes 
	potential = {
		primary_culture = snecboth
		NOT = { tag = H21 }
	}
	
	snecboth_necessary_fratricide = {
		icon = mission_defeat_muscovy
		required_missions = { }
		position = 1
		
		provinces_to_highlight = {
			OR = {
				AND = {
					ROOT = { tag = H16 }
					OR = {
						province_id = 1112
						province_id = 1974
					}
					NOT = { is_core = ROOT }
				}
				AND = {
					ROOT = { tag = H18 }
					OR = {
						province_id = 1974
						province_id = 1775
					}
					NOT = { is_core = ROOT }
				}
				AND = {
					ROOT = { tag = H17 }
					OR = {
						province_id = 1112
						province_id = 1775
					}
					NOT = { is_core = ROOT }
				}
			}
		}
		
		trigger = {
			if = {
				limit = { tag = H16 }
				OR = {
					1112 = {
						is_core = ROOT
					}
					1974 = {
						is_core = ROOT
					}
				}
			}
			if = {
				limit = { tag = H18 }
				OR = {
					1974 = {
						is_core = ROOT
					}
					1775 = {
						is_core = ROOT
					}
				}
			}
			if = {
				limit = { tag = H17 }
				OR = {
					1112 = {
						is_core = ROOT
					}
					1775 = {
						is_core = ROOT
					}
				}
			}
		}
		
		effect = {
			gemradcurt_area = {
				limit = {
					NOT = { is_core = ROOT }
					NOT = { is_permanent_claim = ROOT }
				}
				add_permanent_claim = ROOT
			}
			dartir_area = {
				limit = {
					NOT = { is_core = ROOT }
					NOT = { is_permanent_claim = ROOT }
				}
				add_permanent_claim = ROOT
			}
			fardach_area = {
				limit = {
					NOT = { is_core = ROOT }
					NOT = { is_permanent_claim = ROOT }
				}
				add_permanent_claim = ROOT
			}
		}
	}
	
	snecboth_reclaim_darblath = {
		icon = mission_conquer_50_development
		required_missions = { snecboth_stronger_together }
		position = 3
		
		provinces_to_highlight = {
			OR = {
				AND = {
					area = fogharbac_area
					NOT = { owned_by = ROOT }
				}
				owned_by = H14
			}
		}
		
		trigger = {
			fogharbac_area = {
				type = all
				owned_by = ROOT
			}
			NOT = { exists = H14 }
		}
		
		effect = {
			add_army_tradition = 10
			add_country_modifier = {
				name = "snecboth_victory_over_invaders"
				duration = 5475
			} 
		}
	}
	
	snecboth_revenge_on_tuathak = {
		icon = mission_conquer_romania
		required_missions = { snecboth_reclaim_darblath }
		position = 4
		
		provinces_to_highlight = {
			province_id = 2159
			NOT = { owned_by = ROOT }
		}
		
		trigger = {
			2159 = {
				owned_by = ROOT
			}
		}
		
		effect = {
			add_prestige = 15
			increase_legitimacy_medium_effect = yes
			add_adm_power = 100
		}
	}
	
	snecboth_a_new_capital = {
		icon = mission_colonial
		required_missions = { 
			snecboth_snecboth_diaspora
			snecboth_revenge_on_tuathak
		}
		position = 5
		
		provinces_to_highlight = {
			province_id = 1974
			OR = {
				NOT = { has_courthouse_building_trigger = yes }
				NOT = { has_fort_building_trigger = yes }
				NOT = { base_manpower = 5 }
			}
		}
		
		trigger = {
			1974 = {
				has_courthouse_building_trigger = yes
				has_fort_building_trigger = yes
				base_manpower = 5
			}
		}
		
		effect = {
			1974 = {
				move_capital_effect = yes
				change_province_name = "Reokrun" #Frozenthrone
				rename_capital = "Reokrun" #Frozenthrone
				add_base_tax = 2
				add_base_production = 2
				add_base_manpower = 1
			}
		}
	}
}

snecboth4_missions = {
	slot = 4
	generic = no
	ai = yes 
	potential = {
		primary_culture = snecboth
		NOT = { tag = H21 }
	}
	
	snecboth_thawing_point = {
		icon = mission_rb_settle_the_north
		required_missions = { }
		position = 1
		
		trigger = {
			OR = {
				AND = {
					num_of_allies = 2
					calc_true_if = {
						all_ally = {
							has_opinion = {
								who = ROOT
								value = 150
							}
						}
						amount = 2
					}
				}
				AND = {
					any_rival_country = {
						has_opinion_modifier = {
							who = ROOT
							modifier = scornfully_insulted
						}
					}
				}
			}
		}
		
		effect = {
			add_adm_power = 25
			add_dip_power = 25
			add_mil_power = 25
		}
	}
	
	snecboth_stronger_together = {
		icon = mission_unite_the_princes
		required_missions = { 
			snecboth_necessary_fratricide
			snecboth_thawing_point
			snecboth_recover_the_tribesmen
		}
		position = 2
		
		provinces_to_highlight = {
			OR = {
				area = gemradcurt_area
				area = dartir_area
				area = fardach_area
			}
			NOT = { country_or_non_sovereign_subject_holds = ROOT }
		}
		
		trigger = {
			gemradcurt_area = {
				type = all
				country_or_non_sovereign_subject_holds = ROOT
			}
			dartir_area = {
				type = all
				country_or_non_sovereign_subject_holds = ROOT
			}
			fardach_area = {
				type = all
				country_or_non_sovereign_subject_holds = ROOT
			}
		}
		
		effect = {
			increase_legitimacy_large_effect = yes
			fogharbac_area = {
				limit = {
					NOT = { is_core = ROOT }
					NOT = { is_permanent_claim = ROOT }
				}
				add_permanent_claim = ROOT
			}
			medhan_area = {
				limit = {
					NOT = { is_core = ROOT }
					NOT = { is_permanent_claim = ROOT }
				}
				add_permanent_claim = ROOT
			}
			jhorgashirr_area = {
				limit = {
					NOT = { is_core = ROOT }
					NOT = { is_permanent_claim = ROOT }
				}
				add_permanent_claim = ROOT
			}
		}
	}
	
	snecboth_liberate_jhorgashirr = {
		icon = mission_steppe_warriors
		required_missions = { snecboth_stronger_together }
		position = 3
		
		provinces_to_highlight = {
			province_id = 1965
			NOT = { owned_by = ROOT }
		}
		
		trigger = {
			1965 = {
				owned_by = ROOT
			}
		}
		
		effect = {
			1965 = {
				change_province_name = "Fardoc" #Coldhope
				rename_capital = "Fardoc"
			}
			add_war_exhaustion = -2
			add_adm_power = 25
		}
	}
	
	snecboth_snecboth_diaspora = {
		icon = mission_rb_conquer_brittany
		required_missions = { snecboth_liberate_jhorgashirr }
		position = 4
		
		provinces_to_highlight = {
			superregion = eordand_superregion
			culture = snecboth
			is_city = yes
			NOT = { owned_by = ROOT }
		}
		
		trigger = {
			custom_trigger_tooltip = {
				tooltip = EORDAND_Snecboth_Diaspora
				NOT = {
					eordand_superregion = {
						culture = snecboth
						is_city = yes
						NOT = { owned_by = ROOT }
					}
				}
			}
		}
		
		effect = {
			add_country_modifier = {
				name = "snecboth_people_united"
				duration = 18250
			}
		}
	}
	
	snecboth_sarbann = {
		icon = mission_advance_to_the_dnieper
		required_missions = { 
			snecboth_snecboth_diaspora
			snecboth_revenge_on_tuathak
		}
		position = 5
		
		provinces_to_highlight = {
			province_id = 1963
			OR = {
				NOT = { owned_by = ROOT }
				NOT = { base_production = 10 }
			}
		}
		
		trigger = {
			1963 = {
				owned_by = ROOT
				base_production = 10
			}
		}
		
		effect = {
			1963 = {
				center_of_trade = 1
			}
		}
	}
}

snecboth5_missions = {
	slot = 5 
	generic = no
	ai = yes 
	potential = {
		primary_culture = snecboth
		NOT = { tag = H21 }
	}
	
	snecboth_recover_the_tribesmen = {
		icon = mission_extent_yasak_to_the_east
		required_missions = { }
		position = 1
		
		provinces_to_highlight = {
			OR = {
				AND = {
					area_for_scope_province = { is_capital_of = ROOT }
					NOT = { owned_by = ROOT }
				}
				AND = {
					is_capital_of = ROOT
					OR = {
						NOT = { base_tax = 3 }
						NOT = { base_production = 3 }
						NOT = { base_manpower = 3 }
					}
				}
			}
		}
		
		trigger = {
			capital_scope = {
				area_for_scope_province = {
					type = all
					owned_by = ROOT 
				}
				base_tax = 3
				base_production = 3
				base_manpower = 3
			}
		}
		
		effect = {
			add_stability_or_adm_power = yes
			capital_scope = {
				add_province_modifier = {
					name = "growth_of_capital"
					duration = 9125
				}
			}
		}
	}
	
	snecboth_make_contact_with_anholtir = {
		icon = mission_protect_white_sea_trade
		required_missions = { snecboth_stronger_together }
		position = 3
		
		provinces_to_highlight = {
			area = anholtir_area
			NOT = { owned_by = ROOT }
		}
		
		trigger = {
			anholtir_area = {
				owned_by = ROOT
				type = all
			}
		}
		
		effect = {
			2797 = {
				add_province_modifier = {
					name = "snecboth_precursor_temple"
					duration = -1
				}
			}
		}
	}
	
	snecboth_pretenders_of_pelomar = {
		icon = mission_rb_unite_the_clans
		required_missions = {  }
		position = 5
		
		provinces_to_highlight = {
			OR = {
				AND = {
					province_id = 2049
					OR = {
						NOT = { owned_by = ROOT }
						NOT = { is_core = ROOT }
					}
				}
				owned_by = H08
			}
		}
		
		trigger = {
			owns_core_province = 2049
			NOT = { exists = H08 }
		}
		
		effect = {
			sidmargbal_area = {
				limit = {
					NOT = { is_core = ROOT }
					NOT = { is_permanent_claim = ROOT }
				}
				add_permanent_claim = ROOT
			}
			drisleak_area = {
				limit = {
					NOT = { is_core = ROOT }
					NOT = { is_permanent_claim = ROOT }
				}
				add_permanent_claim = ROOT
			}
			country_event = { id = eordand.3 }
		}
	}
}