#Designed and coded by: Pivert08

H85_truedagger_column_1 = {
	slot = 1
	generic = no
	ai = yes
	ai = yes
	potential = {
		tag = H85
	}
	has_country_shield = yes

    H85_find_their_homes = {
		icon = mission_burning_man
		position = 14
		required_missions = {
			H85_enlightened_minds
		}
	
		trigger = { 
			OR = {
				AND = {
					estate_influence = {
						estate = estate_mages
						influence = 50
					}
					custom_trigger_tooltip = {
						tooltip = truedagger_find_their_homes_tt
						OR = {
							has_country_modifier = magic_estate_scrying_internal_dissidents_3
							has_country_modifier = magic_estate_scrying_internal_dissidents_2
							has_country_modifier = magic_estate_scrying_internal_dissidents_1
						}
					}
				}
				AND = {
					custom_trigger_tooltip = {
						tooltip = truedagger_banned_magic_tt
						has_country_flag = banned_magic
					}
					estate_influence = {
						estate = estate_artificers
						influence = 50
					}
				}
			}
		}

		effect = {
			add_country_modifier = {
				name = truedagger_mage_enforcers
    			duration = 9125
			}
		}
	}

	H85_eternal_loyalty = {
		icon = mission_sweat_fealty
		position = 15
		required_missions = {
			H85_find_their_homes
		}
	
		trigger = { 
			NOT = {
				AND = {
					estate_influence = {
						estate = estate_adventurers
						influence = 50
					}
					estate_influence = {
						estate = estate_burghers
						influence = 50
					}
					estate_influence = {
						estate = estate_church
						influence = 50
					}
					estate_influence = {
						estate = estate_artificers
						influence = 50
					}
					estate_influence = {
						estate = estate_nobles
						influence = 70
					}
				}
			}
			AND = {
				estate_loyalty = {
    				estate = estate_adventurers
    				loyalty = 40
				}
				estate_loyalty = {
    				estate = estate_church
    				loyalty = 40
				}
				estate_loyalty = {
    				estate = estate_burghers
    				loyalty = 40
				}
				estate_loyalty = {
    				estate = estate_nobles
    				loyalty = 60
				}
				estate_loyalty = {
					estate = estate_artificers
					loyalty = 40
				}
			}
			if = {
				limit = {
					NOT = {
						has_country_flag = banned_magic
					}
				}
				NOT = {
					estate_influence = {
						estate = estate_mages
						influence = 50
					}
				}
				estate_loyalty = {
    				estate = estate_mages
    				loyalty = 40
				}
			}
			has_estate_privilege = estate_nobles_courtiers_shadow_daggers
		}

		effect = {
			add_country_modifier = {
				name = truedagger_eternal_service
				duration = -1
			}
		}
	}
}

H85_truedagger_column_2 = {
	slot = 2
	generic = no
	ai = yes
	potential = {
		tag = H85
	}
	has_country_shield = yes

	H85_seizing_amldihr = {
		icon = mission_treasure_room
		position = 2
		required_missions = {
			H85_new_opportunities
		}
		provinces_to_highlight = {
			area = amldihr_area
			NOT = {
				owned_by = ROOT
			}
			is_city = yes
		}

		trigger = {
			custom_trigger_tooltip = {
				tooltip = truedagger_amldihr_tt
				OR = {
					amldihr_area = {
						type = all
						owned_by = ROOT
						is_city = yes
					}
					has_country_flag = flag_truedagger_purged_warband
				}
			}
		}
		
		effect = {
			set_capital = 4119
			add_country_modifier = {
				name = truedagger_restoration_efforts
    			duration = 5475
			}
			if = {
				limit = {
					NOT = {
						has_country_flag = flag_truedagger_purged_warband
					}
				}
				add_treasury = 200
				country_event = {
					id = flavor_truedagger.2
				}
			}
			if = {
				limit = {
					has_country_flag = flag_truedagger_purged_warband
				}
				add_treasury = 100
				clr_country_flag = flag_truedagger_purged_warband
				4128 = {
					cede_province = H85
				}
				2992 = {
					cede_province = H85
				}
			}
		}
	}

	H85_the_kronium_hold = {
		icon = mission_magnificent_castle
		position = 3
		required_missions = {
			H85_seizing_amldihr
		}

		provinces_to_highlight = {
			province_id = 4119
			NOT = {
				development = 40
			}
			OR = {
				has_province_modifier = ruined_hold 
				has_province_modifier = infested_hold
				has_province_modifier = partially_ruined_hold
			}
		}

		trigger = { 
			4119 = {
				development = 40
				NOT = {
					OR = {
						has_province_modifier = ruined_hold 
						has_province_modifier = infested_hold
						has_province_modifier = partially_ruined_hold
					}
				}
			}
		}
		
		
		effect = {
			amldihr_area = {
				add_base_manpower = 1
				add_base_production = 1
				add_base_tax = 1
			}
			
			
			4119 = {
				add_province_modifier = {
					name = truedagger_a_proper_capital
					duration = 7300
				}	
			}
			
			4122 = {
				add_province_modifier = {
					name = truedagger_building_arena
					duration = 3650
				}	
			}

			4120 = {
				add_permanent_claim = ROOT
			}
			4121 = {
				add_permanent_claim = ROOT
			}
		}
	}

	H85_a_blue_roof = {
		icon = mission_che_the_cave_country
		position = 4
		required_missions = {
			H85_the_kronium_hold
		}
		
		provinces_to_highlight = {
			OR = {
				province_id = 4120
				province_id = 4121
			}
			NOT = {
				owned_by = ROOT
			}
		}
		trigger = { 
			4120 = {
				owned_by = ROOT
			}
			4121 = {
				owned_by = ROOT
			}
		}

		effect = {
			royal_terrace_area = {
				add_permanent_claim = ROOT
				discover_country = H85
			}
			add_country_modifier = {
				name = truedagger_colonizing_roofless_cavern
				duration = 9125
			}
		}
	}

	H85_the_goblin_village = {
		icon = mission_city_prosperity
		position = 5
		required_missions = {
			H85_a_blue_roof
		}

		provinces_to_highlight = {
			province_id = 4123
			NOT = {
				AND = {
					owned_by = ROOT
					base_tax = 7
					development = 20
					has_trade_building_trigger = yes
				}
			}
		}
		trigger = { 
			4123 = {
				owned_by = ROOT
				base_tax = 7
				development = 20
				has_trade_building_trigger = yes
			}
		}

		effect = {
			4123 =  {
				change_culture = ROOT
				change_religion = ROOT
				add_base_tax = 2
			}
			add_country_modifier = {
				name = truedagger_goblins_meeting
				duration = 5475
			}
			country_event = { id = flavor_truedagger.28 }
		}
	}

	H85_the_shadow_daggers = {
		icon = mission_the_covenant
		position = 6
		required_missions = {
			H85_the_goblin_village
		}
		provinces_to_highlight = {
			province_id = 4123
			unrest = 0
			local_autonomy = 10
		}
		trigger = { 
			4123 = {
				NOT = { local_autonomy = 10 }
				NOT = {
					unrest = 0
				}
			}
			OR = {
				advisor = spymaster
				has_dip_advisor_2 = yes
			}
			stability = 2
			dip_power = 100
		}

		effect = {
			add_country_modifier ={
				name = truedagger_the_shadow_daggers
				duration = -1
			}
			add_dip_power = -100
		}
	}

	H85_infiltrate_the_railyard = {
		icon = mission_dual_diplomacy
		position = 7
		required_missions = {
			H85_the_shadow_daggers
			H85_the_serpents_vale
		}
		provinces_to_highlight = {
			province_id = 2931
			NOT = {
				OR = {
					owned_by = ROOT
					owner = {
						has_spy_network_from = {
							who = ROOT
							value = 70
						}
					}
				}
			}
		}
		trigger = { 
			2931 = {
				OR = {
					owned_by = ROOT
					owner = {
						has_spy_network_from = {
							who = ROOT
							value = 70
						}
					}
				}
			}
		}

		effect = {
			skulkers_lair_area = {
				add_permanent_claim = ROOT
			}
			railyard_area = {
				add_permanent_claim = ROOT
			}
			custom_tooltip = truedagger_infiltrate_the_railyard_tt
			hidden_effect = {
				if = {
					limit = {
						2931 = {
							NOT = { owned_by = ROOT }
							has_fort_building_trigger = yes
						}
					}
					2931 = {
						add_province_modifier = {
							name = truedagger_railyard_infiltrated
							duration = 5475
						}
					}
				}
				else_if = {
					limit = {
						2931 = {
							NOT = { owned_by = ROOT }
						}
					}
					2931 = {
						set_province_flag = flag_truedagger_infiltrate_er_natvir
					}
				}
			}
		}
	}

	H85_take_er_natvir = {
		icon = mission_door_trade
		position = 8
		required_missions = {
			H85_infiltrate_the_railyard
		}
		provinces_to_highlight = {
			province_id = 2931
			NOT = {
				AND = {
					owned_by = ROOT
					province_has_center_of_trade_of_level = 2
					has_trade_building_trigger = yes
				}
			}	
			OR = {
				has_province_modifier = ruined_hold 
				has_province_modifier = infested_hold
				has_province_modifier = partially_ruined_hold
			}
		}
		trigger = { 
			2931 = {
				owned_by = ROOT
				province_has_center_of_trade_of_level = 2
				has_trade_building_trigger = yes
				NOT = {
					OR = {
						has_province_modifier = ruined_hold 
						has_province_modifier = infested_hold
						has_province_modifier = partially_ruined_hold
					}
				}
			}
		}

		effect = {
			2931 = {
				add_permanent_province_modifier = {
					name = truedagger_er_natvir_trade
					duration = -1
				}
			}
		}
	}

	H85_new_operations = {
		icon = mission_assassination
		position = 9
		required_missions = {
			H85_take_er_natvir
		}
		trigger = { 
			any_rival_country = {
				has_spy_network_from = {
					who = ROOT
					value = 80
				}
			}
			mil_power = 50
			dip_power = 50
			adm_power = 50
		}

		effect = {
			random_rival_country = { 
				limit = {
					has_spy_network_from = {
						who = ROOT
						value = 80
					}
				}
				country_event = {
					id = flavor_truedagger.8
				}
			}
			add_mil_power = -50
			add_dip_power = -50
			add_adm_power = -50
			country_event = {
				id = flavor_truedagger.9
			}
			custom_tooltip = truedagger_new_operations_tt
			set_country_flag = flag_truedagger_can_do_assassination
			hidden_effect = {
				set_variable = {
					which = truedagger_assassinations
					value = 0
				}
			}
		}
	}

	H85_new_talents = {
		icon = mission_noble_council
		position = 11
		required_missions = {
			H85_the_intrigue_court
		}
		trigger = { 
			estate_influence = {
				estate = estate_nobles
				influence = 50
			}
			estate_loyalty = {
				estate = estate_nobles
				loyalty = 65
			}
			dip_power = 50
			check_variable = {
				which = truedagger_assassinations
				value = 3
			}
			custom_trigger_tooltip = {
				tooltip = truedagger_new_talents_tt
				NOT = {
					has_ruler_flag = flag_truedagger_intrigue_founder
				}
			}
		}

		effect = {
			add_country_modifier = {
				name = truedagger_fresh_recruits
				duration = 3650
			}
			add_dip_power = -50
			custom_tooltip = truedagger_assassination_1_tt
			set_country_flag = flag_truedagger_assassination_1
		}
	}

	H85_influences_from_the_court = {
		icon = mission_confrontation
		position = 12
		required_missions = {
			H85_new_talents
		}
		trigger = { 
			estate_influence = {
				estate = estate_nobles
				influence = 60
			}
			estate_loyalty = {
				estate = estate_nobles
				loyalty = 70
			}
			has_estate_privilege = estate_nobles_advisors
			NOT = {
				has_country_modifier = truedagger_fresh_recruits
			}
		}

		effect = {
			add_country_modifier = {
				name = truedagger_increasing_courtier_influence
				duration = 3650
			}
			set_country_flag = flag_truedagger_courtiers_shadow_daggers
			set_estate_privilege = estate_nobles_courtiers_shadow_daggers
			set_country_flag = flag_truedagger_increasing_courtier_influence
			custom_tooltip = truedagger_assassination_2_tt
			clr_country_flag = flag_truedagger_assassination_1
			set_country_flag = flag_truedagger_assassination_2
		}
	}

	H85_enlightened_minds = {
		icon = mission_empowerment
		position = 13
		required_missions = {
			H85_influences_from_the_court
			H85_to_the_north
		}
		provinces_to_highlight = {
			province_id = 4020
			NOT = {
				AND = {
					has_courthouse_building_trigger = yes
					has_manufactory_trigger = yes
				}
			}
			unrest = 0
		}
		trigger = { 
			4020 = {
				has_courthouse_building_trigger = yes
				NOT = {
					unrest = 0
				}
			}
			OR = {
				AND = {
					estate_influence = {
						estate = estate_mages
						influence = 40
					}
					4020 = {
						has_building = mage_tower
					}
					custom_trigger_tooltip = {
						tooltip = truedagger_enlightened_minds_tt
						OR = {
							has_country_modifier = magic_estate_scrying_rivals_3
							has_country_modifier = magic_estate_scrying_rivals_2
							has_country_modifier = magic_estate_scrying_rivals_1
							has_country_modifier = magic_estate_scrying_neighbours_3
							has_country_modifier = magic_estate_scrying_neighbours_2
							has_country_modifier = magic_estate_scrying_neighbours_1
						}
					}
				}
				AND = {
					custom_trigger_tooltip = {
						tooltip = truedagger_banned_magic_tt
						has_country_flag = banned_magic
					}
					4020 = {
						has_manufactory_trigger = yes
					}
					estate_influence = {
						estate = estate_artificers
						influence = 40
					}
				}
			}
		}

		effect = {
			add_country_modifier = {
				name = truedagger_mage_forums
				duration = 9125
			}
			custom_tooltip = truedagger_assassination_3_tt
			clr_country_flag = flag_truedagger_assassination_2
			set_country_flag = flag_truedagger_assassination_3
		}
	}

	H85_the_trainig_facility = {
		icon = mission_sinister_castle
		position = 14
		required_missions = {
			H85_enlightened_minds
		}
		provinces_to_highlight = {
			province_id = 4147
			NOT = {
				AND = {
					has_courthouse_building_trigger = yes
					has_manufactory_trigger = yes
				}
			}
			unrest = 0
		}
		trigger = { 
			4147 = {
				has_courthouse_building_trigger = yes
				NOT = {
					unrest = 0
				}
			}
			OR = {
				AND = {
					estate_influence = {
						estate = estate_mages
						influence = 50
					}
					4147 = {
						has_building = mage_tower
					}
					custom_trigger_tooltip = {
						tooltip = truedagger_the_training_facility_tt
						OR = {
							has_country_modifier = magic_estate_aiding_construction_3
							has_country_modifier = magic_estate_aiding_construction_2
							has_country_modifier = magic_estate_aiding_construction_1
						}
					}
				}
				AND = {
					custom_trigger_tooltip = {
						tooltip = truedagger_banned_magic_tt
						has_country_flag = banned_magic
					}
					4147 = {
						has_manufactory_trigger = yes
					}
					estate_influence = {
						estate = estate_artificers
						influence = 50
					}
				}
			}
			treasury = 400
			adm_power = 50 
			dip_power = 50
		}

		effect = {
			4147 = {
				add_permanent_province_modifier = {
					name = truedagger_training_facility
					duration = -1
				}
			}
			add_treasury = -400
			add_adm_power = -50
			add_dip_power = -50
			custom_tooltip = truedagger_assassination_4_tt
			clr_country_flag = flag_truedagger_assassination_3
			set_country_flag = flag_truedagger_assassination_4
			custom_tooltip = truedagger_the_training_facility_efect_tt
			set_country_flag = flag_truedagger_heir_training_facility
		}
	}

	H85_the_daggers_blade = {
		icon = mission_whisper
		position = 15
		required_missions = {
			H85_the_trainig_facility
		}
		trigger = { 
			has_global_modifier_value = {
    			which = spy_offence 
   				value = 0.8
			}
			check_variable = {
				which = truedagger_assassinations
				value = 10
			}
		}

		effect = {
			add_country_modifier = {
				name = truedagger_daggers_blade
				duration = 9125
			}
			custom_tooltip = truedagger_assassination_5_tt
			clr_country_flag = flag_truedagger_assassination_4
			set_country_flag = flag_truedagger_assassination_5
		}
	}
}





		
H85_truedagger_column_3 = {
	slot = 3
	generic = no
	ai = yes
	potential = {
		tag = H85
	}
	has_country_shield = yes
	
    H85_new_opportunities = {
		icon = mission_conquer_50_development
		position = 1
		required_missions = {
		}
		
		trigger = {
			army_size_percentage = 0.75
			mil_power = 25
		}
		
		effect = {
			define_ruler_to_general = {
				fire = 1
    			shock = 5
  				manuever = 2
    			siege = 2
			}
			
			amldihr_area = {
				discover_country = ROOT
			}
			
			amldihr_area = {
				add_permanent_claim = ROOT
			}

			add_country_modifier = {
				name = truedagger_to_amldihr
    			duration = 5475
			}

			add_mil_power = -25
		}
	}

	H85_conquer_the_ogres = {
		icon = mission_rb_conquer_wales
		position = 5
		required_missions = {
			H85_a_blue_roof
		}
		provinces_to_highlight = {
			area = royal_terrace_area
			NOT = {
				owned_by = ROOT
			}
		}
		trigger = { 
			royal_terrace_area = {
				type = all
				owned_by = ROOT
			}
			NOT = { 
				exists = J32
			}
			NOT = { 
				exists = J48
			}
		}

		effect = {
			add_country_modifier = {
				name = truedagger_nothing_more_than_orcs
				duration = 10950
			}
			serpents_vale_region = {
				add_permanent_claim = ROOT
			}
		}
	}
	
	H85_the_serpents_vale = {
		icon = mission_verdant_secret
		position = 6
		required_missions = {
			H85_conquer_the_ogres
		}
		provinces_to_highlight = {
			region = serpents_vale_region
			NOT = {
				owned_by = ROOT
			}
		}
		trigger = { 
			serpents_vale_region = {
				type = all
				owned_by = ROOT
			}

			if = {
				limit = { 
					NOT = { 
						has_global_flag = irrigation_north 
						has_global_flag = irrigation_north_done
						has_global_flag = serpent_vale_irrigation
					} 
				} 
				custom_trigger_tooltip = {
					tooltip = truedagger_irrigation_unfinished
					NOT = { has_global_flag = irrigation_north }
				}
				custom_trigger_tooltip = {
					tooltip = ramsteel_not_repairing
					NOT = { has_country_flag = repairing_irrigation }
				}
			}
		}

		effect = {
			if = { 
				limit = { 
					NOT = { 
						has_global_flag = irrigation_north
						has_global_flag = irrigation_north_done
						has_global_flag = serpent_vale_irrigation
					} 
				}

				country_event = { id = flavor_truedagger.30 }
			}
			else = {
				add_adm_power = 150
			}
			custom_tooltip = truedagger_the_serpents_vale_tt
			hidden_effect = { set_country_flag = flag_truedagger_irrigation }
		}
	}

	H85_greenskin_fights = {
		icon = mission_rb_unite_the_clans
		position = 7
		required_missions = {
			H85_the_serpents_vale
			H85_orcish_warriors
		}
		provinces_to_highlight = {
			culture = mossmouth_ogre
			NOT = {
				base_manpower = 4
			}
		}
		trigger = { 
			num_of_owned_provinces_with = {
				value = 2
				culture = mossmouth_ogre
				base_manpower = 4
			}
			treasury = 200
		}

		effect = {
			4122 = {
				remove_province_modifier = truedagger_arena_2
				add_permanent_province_modifier = {
					name = truedagger_arena_3
					duration = -1
				}
				add_ogre_minority_size_effect = yes
			} 
			random_owned_province = {
				limit = {
					culture = mossmouth_ogre
					base_manpower = 7
				}
				add_unrest = 10
				add_devastation = 15
				set_province_flag = flag_truedagger_mossmouth_ogre	
			}
			random_owned_province = {
				limit = {
					culture = mossmouth_ogre
					base_manpower = 7
					NOT = {
						has_province_flag = flag_truedagger_mossmouth_ogre
					}
				}
				add_unrest = 10
				add_devastation = 15	
			}
			every_owned_province = {
				limit = {
					has_province_flag = flag_truedagger_mossmouth_ogre
				}
				clr_province_flag = flag_truedagger_mossmouth_ogre
			}
			add_treasury = -200
		}
	}

	H85_improve_the_arena = {
		icon = mission_control_the_desh
		position = 9
		required_missions = {
			H85_greenskin_fights
		}
		provinces_to_highlight = {
			province_id = 4122
			NOT = {
				base_manpower = 20
			}
		}
		trigger = { 
			4122 = {
				base_manpower = 20
			}
			treasury = 300
		}

		effect = {
			4122 = {
				remove_province_modifier = truedagger_arena_3
				add_permanent_province_modifier = {
					name = truedagger_arena_4
					duration = -1
				}
			}
			add_country_modifier = {
				name = truedagger_blood_games
				duration = 3650
			}
			add_treasury = -300
		}
	}

	H85_the_intrigue_court = {
		icon = mission_monarch_in_throne_room
		position = 10
		required_missions = {
			H85_new_operations
			H85_improve_the_arena
			H85_fertile_lands
			H85_riches_of_the_serpentspine
		}
		trigger = { 
			OR = {
				AND = {
					is_tribal = yes
					reform_level = 4
				}
				is_tribal = no
			}
			government_reform_progress = 100
			legitimacy_equivalent = 99
		}

		effect = {
			if = {
				limit = { is_tribal = yes } 
				change_government = monarchy
			}
			add_legitimacy = -50
			change_government_reform_progress = -100
			set_ruler_flag = flag_truedagger_intrigue_founder
			change_government_to_monarchy = yes
			add_government_reform = truedagger_intrigue_court
			hidden_effect = {
				set_variable = { truedagger_heir_events = 0 }
			}
		}
	}

	H85_legitimize_our_claims = {
		icon = mission_rb_monopolize_the_channel
		position = 11
		required_missions = {
			H85_the_intrigue_court
		}
		provinces_to_highlight = {
			OR = {
				province_id = 4147
				province_id = 4236
			}
			NOT = {
				OR = {
					owned_by = ROOT
					is_claim = ROOT
				}
			}
		}

		trigger = { 
			legitimacy = 80
			OR = {
				AND = {
					owns = 4147
					owns = 4236
				}
				AND = {
					4147 = {
						is_claim = ROOT
					}
					4236 = {
						is_claim = ROOT
					}
				}
			}
		}

		effect = {
			orlazam_area = {
				add_permanent_claim = ROOT
			}
			old_dagrinrod_area = {
				add_permanent_claim = ROOT
			}
			mithradhum_area = {
				add_permanent_claim = ROOT
			}
			riftway_area = {
				add_permanent_claim = ROOT
			}
			dwarovrod_10_12_area = {
				add_permanent_claim = ROOT
			}
			dwarovrod_7_9_area = {
				add_permanent_claim = ROOT
			}
		}
	}

	H85_to_the_north = {
		icon = mission_rb_settle_the_north
		position = 12
		required_missions = {
			H85_legitimize_our_claims
		}
		provinces_to_highlight = {
			OR = {
				area = orlazam_area
				area = old_dagrinrod_area
			}
			NOT = {
				owned_by = ROOT
			}
		}
		trigger = { 
			orlazam_area = {
				type = all
				owned_by = ROOT
			}
			old_dagrinrod_area = {
				type = all
				owned_by = ROOT
			}
		}

		effect = {
			vazhatun_area = {
				add_permanent_claim = ROOT
			}
			dagrinrod_13_15_area = {
				add_permanent_claim = ROOT
			}
		}
	}

	H85_the_grand_observatory = {
		icon = mission_rb_trinity_college_dublin
		position = 13
		required_missions = {
			H85_to_the_north
		}
		provinces_to_highlight = {
			OR = {
				area = vazhatun_area
				area = dagrinrod_13_15_area
			}
			NOT = {
				owned_by = ROOT
			}
		}
		trigger = { 
			vazhatun_area = {
				type = all
				owned_by = ROOT
			}
			dagrinrod_13_15_area = {
				type = all
				owned_by = ROOT
			}
			4020 = {
				province_has_current_tech_fort_trigger = yes
			}
		}

		effect = {
			4020 = {
				add_permanent_province_modifier = {
					name = truedagger_gate
					duration = -1
				}
				add_center_of_trade_level = 1
			}
		}
	}

	H85_the_northern_serpentspine = {
		icon = mission_weather_the_troubles
		position = 14
		required_missions = {
			H85_the_grand_observatory
			H85_the_gate_to_escann
		}
		provinces_to_highlight = {
			OR = {
				region = serpents_vale_region
				area = vazhatun_area
				area = dagrinrod_13_15_area
				area = orlazam_area
				area = old_dagrinrod_area
				area = mithradhum_area
				area = riftway_area
				area = dwarovrod_10_12_area
				area = dwarovrod_7_9_area
				area = orldhum_area 
				area = khugdihr_area
				area = fallen_asra_area
				area = dwarfbreak_area
				area = dark_depths_area
				area = dwarovrod_4_6_area
				area = dwarovrod_1_3_area
				area = goblins_bypass_area
				area = amldihr_area
				area = broken_dagger_pass_area
				area = dagrinrod_4_6_area
				area = snotslair_area
				area = skulkers_lair_area
				area = railyard_area
				area = dagrinrod_7_9_area
			}
			NOT = {
				owned_by = ROOT
			}
		}
		trigger = { 
			custom_trigger_tooltip = {
				tooltip = truedagger_the_northern_serpentspine_tt
				serpents_vale_region = {
					type = all
					owned_by = ROOT
				}
				vazhatun_area = {
					type = all
					owned_by = ROOT
				}
				dagrinrod_13_15_area = {
					type = all
					owned_by = ROOT
				}
				orlazam_area = {
					type = all
					owned_by = ROOT
				}
				old_dagrinrod_area = {
					type = all
					owned_by = ROOT
				}
				mithradhum_area = {
					type = all
					owned_by = ROOT
				}
				riftway_area = {
					type = all
					owned_by = ROOT
				}
				dwarovrod_10_12_area = {
					type = all
					owned_by = ROOT
				}
				dwarovrod_7_9_area = {
					type = all
					owned_by = ROOT
				}
				orldhum_area = {
					type = all
					owned_by = ROOT
				}
				khugdihr_area = {
					type = all
					owned_by = ROOT
				}
				fallen_asra_area = {
					type = all
					owned_by = ROOT
				}
				dwarfbreak_area = {
					type = all
					owned_by = ROOT
				}
				dark_depths_area = {
					type = all
					owned_by = ROOT
				}
				dwarovrod_4_6_area = {
					type = all
					owned_by = ROOT
				}
				dwarovrod_1_3_area = {
					type = all
					owned_by = ROOT
				}
				goblins_bypass_area = {
					type = all
					owned_by = ROOT
				}
				amldihr_area = {
					type = all
					owned_by = ROOT
				}
				broken_dagger_pass_area = {
					type = all
					owned_by = ROOT
				}
				dagrinrod_4_6_area = {
					type = all
					owned_by = ROOT
				}
				snotslair_area = {
					type = all
					owned_by = ROOT
				}
				skulkers_lair_area = {
					type = all
					owned_by = ROOT
				}
				railyard_area = {
					type = all
					owned_by = ROOT
				}
				dagrinrod_7_9_area = {
					type = all
					owned_by = ROOT
				}
			}
		}

		effect = {
			add_prestige = 20
			add_country_modifier = {
				name = truedagger_goblin_hegemony
				duration = -1
			}
		}
	}

	H85_all_hail_the_clanboss = {
		icon = mission_empire
		position = 16
		required_missions = {
			H85_eternal_loyalty
			H85_the_northern_serpentspine
			H85_the_daggers_blade
			H85_the_bloody_arena
		}
		trigger = { 
			prestige = 100
			stability = 3
			legitimacy = 99
			NOT = {
				average_unrest = 0
			}
			NOT = {
				average_home_autonomy = 10
			}
			AND = {
				estate_loyalty = {
					estate = estate_mages
					loyalty = 60
				}
				estate_loyalty = {
					estate = estate_adventurers
					loyalty = 60
				}
				estate_loyalty = {
					estate = estate_nobles
					loyalty = 60
				}
				estate_loyalty = {
					estate = estate_burghers
					loyalty = 60
				}
				estate_loyalty = {
					estate = estate_church
					loyalty = 60
				}
				estate_loyalty = {
					estate = estate_artificers
					loyalty = 60
				}
			}
		}

		effect = {
			add_country_modifier = {
				name = truedagger_fear_respect_ruthlessness
				duration = -1
			}
		}
	}
}

H85_truedagger_column_4 = {
	slot = 4
	generic = no
	ai = yes
	potential = {
		tag = H85
	}
	has_country_shield = yes

	H85_rumors_of_reclaimers = {
		icon = mission_dwarf_close_up
		position = 2
		required_missions = {
			H85_new_opportunities
		}
		provinces_to_highlight = {
			OR = {
				province_id = 2991
				province_id = 2992
				province_id = 2993
			}
			NOT = {
				num_of_units_in_province = {
					who = ROOT
					type = infantry
					amount = 5
				}
			}
		}
		trigger = { 
			OR = {
				2991 = {
					num_of_units_in_province = {
						who = ROOT
						type = infantry
						amount = 5
					}
				}
				2992 = {
					num_of_units_in_province = {
						who = ROOT
						type = infantry
						amount = 5
					}
				}
				2993 = {
					num_of_units_in_province = {
						who = ROOT
						type = infantry
						amount = 5
					}
				}
				H70 = {
					exists = no
				}
			}
		}

		effect = {
			if = {
				limit = {
					OR = {
						2991 = {
							num_of_units_in_province = {
								who = ROOT
								type = infantry
								amount = 5
							}
						}
						2992 = {
							num_of_units_in_province = {
								who = ROOT
								type = infantry
								amount = 5
							}
						}
						2993 = {
							num_of_units_in_province = {
								who = ROOT
								type = infantry
								amount = 5
							}
						}
					}
				}
				orlazam_area = {
					discover_country = ROOT
				}
				old_dagrinrod_area = {
					discover_country = ROOT
				}
				add_casus_belli = {
					target = H70
					type = cb_vassalize_mission
					months = 300
				}
				if = {
					limit = {
						2991 = {
							num_of_units_in_province = {
								who = ROOT
								type = infantry
								amount = 5
							}
						}
					}
					2991 = {
						kill_units = {
							who = ROOT
							type = infantry
							amount = 5
						}
					}
				}
				else_if = {
					limit = {
						2992 = {
							num_of_units_in_province = {
								who = ROOT
								type = infantry
								amount = 5
							}
						}
					}
					2992 = {
						kill_units = {
							who = ROOT
							type = infantry
							amount = 5
						}
					}
				}
				else_if = {
					limit = {
						2993 = {
							num_of_units_in_province = {
								who = ROOT
								type = infantry
								amount = 5
							}
						}
					}
					2993 = {
						kill_units = {
							who = ROOT
							type = infantry
							amount = 5
						}
					}
				}
			}
			else = {
				capital_scope = {
					add_dwarven_minority_size_effect = yes
				}
			}
		}
	}

	H85_dwarves_for_the_mines = {
		icon = mission_state_manufactories
		position = 3
		required_missions = {
			H85_rumors_of_reclaimers
		}
		trigger = { 
			OR = {
				AND = {
					H70 = {
						is_subject_of = ROOT
					}
					army_size = H70
					prestige = H70
				}
				H70 = {
					exists = no
				}
			}
		}

		effect = {
			if = {
				limit = {
					H70 = {
						is_subject_of = ROOT
					}
				}
				H70 = {
					every_owned_province = {
						destroy_province = yes
						remove_core = PREV
					}
				}
			}
			broken_dagger_pass_area = {
				limit = {
					OR = {
						owned_by = H85
						is_city = no
					}
				}
				add_core = ROOT
				cede_province = ROOT
				add_base_production = 1
				change_culture = silver_dwarf
				change_religion = ancestor_worship
			}
		}
	}
	
	H85_a_grand_arena = {
		icon = mission_mountain_castle
		position = 4
		required_missions = {
			H85_dwarves_for_the_mines
			H85_the_kronium_hold
		}
		provinces_to_highlight = {
			province_id = 4122
			NOT = {
				owned_by = ROOT
			}
			OR = {
				has_province_modifier = ruined_hold 
				has_province_modifier = infested_hold
				has_province_modifier = partially_ruined_hold
			}
		}
		trigger = { 
			4122 = {
				base_manpower = 10
				NOT = {
					OR = {
						has_province_modifier = ruined_hold 
						has_province_modifier = infested_hold
						has_province_modifier = partially_ruined_hold
					}
				}
			}
			treasury = 100
		}

		effect = {
			4122 = {
				add_permanent_province_modifier = {
					name = truedagger_arena_1
					duration = -1
				}
				add_dwarven_minority_size_effect = yes
			}
			small_decrease_of_dwarven_tolerance_effect = yes
			add_treasury = -100
			add_accepted_culture = silver_dwarf
			hidden_effect = {
				largest_decrease_of_dwarven_tolerance_effect = yes
				largest_decrease_of_dwarven_tolerance_effect = yes
			}
		}
	}

	H85_orcish_warriors = {
		icon = mission_skull
		position = 6
		required_missions = {
			H85_a_grand_arena
		}
		provinces_to_highlight = {
			culture = black_orc
			NOT = {
				base_manpower = 4
			}
		}
		trigger = { 
			num_of_owned_provinces_with = {
				value = 2
				culture = black_orc
				base_manpower = 4
			}
			treasury = 150
		}

		effect = {
			4122 = {
				remove_province_modifier = truedagger_arena_1
				add_permanent_province_modifier = {
					name = truedagger_arena_2
					duration = -1
				}
				add_orcish_minority_size_effect = yes
			}
			random_owned_province = {
				limit = {
					culture = black_orc
					base_manpower = 7
				}
				add_unrest = 10
				add_devastation = 15
				set_province_flag = flag_truedagger_black_orc
			}
			random_owned_province = {
				limit = {
					culture = black_orc
					base_manpower = 7
					NOT = {
						has_province_flag = flag_truedagger_black_orc
					}
				}
				add_unrest = 10
				add_devastation = 15	
			}
			every_owned_province = {
				limit = {
					has_province_flag = flag_truedagger_black_orc
				}
				clr_province_flag = flag_truedagger_black_orc
			}
			add_accepted_culture = black_orc
			small_decrease_of_orcish_tolerance_effect = yes
			add_treasury = -150
		}
	}

	H85_green_farms = {
		icon = mission_rb_import_potatoes
		position = 7
		required_missions = {
			H85_orcish_warriors
			H85_the_serpents_vale
		}
		provinces_to_highlight = {
			region = serpents_vale_region
			trade_goods = grain
			owned_by = ROOT
			NOT = {
				base_production = 7
			}
		}
		trigger = { 
			num_of_owned_provinces_with = {
				value = 3
				region = serpents_vale_region
				trade_goods = grain
				base_production = 7
				NOT = {
					province_id = 4123
				}
			}
		}

		effect = {
			random_owned_province = {
				limit = {
					region = serpents_vale_region
					trade_goods = grain
					base_production = 7
					NOT = {
						province_id = 4123
					}
				}
				add_permanent_province_modifier = {
					name = truedagger_slave_farms
					duration = -1
				}
				change_culture = black_orc
				change_religion = old_dookan
			}
			random_owned_province = {
				limit = {
					region = serpents_vale_region
					trade_goods = grain
					base_production = 7
					NOT = {
						OR = {
							province_id = 4123
							has_province_modifier = truedagger_slave_farms
						}
					}
				}
				add_permanent_province_modifier = {
					name = truedagger_slave_farms
					duration = -1
				}
				change_culture = black_orc
				change_religion = old_dookan
			}
			random_owned_province = {
				limit = {
					region = serpents_vale_region
					trade_goods = grain
					base_production = 7
					NOT = {
						OR = {
							province_id = 4123
							has_province_modifier = truedagger_slave_farms
						}
					}
				}
				add_permanent_province_modifier = {
					name = truedagger_slave_farms
					duration = -1
				}
				change_culture = black_orc
				change_religion = old_dookan
			}
			medium_decrease_of_orcish_tolerance_effect = yes
		}
	}
	
	H85_fertile_lands = {
		icon = mission_green_village
		position = 9
		required_missions = {
			H85_make_them_suffer
		}
		provinces_to_highlight = {
			region = serpents_vale_region
			trade_goods = grain
			owned_by = ROOT
			NOT = {
				base_production = 7
			}
		}
		trigger = { 
			num_of_owned_provinces_with = {
				value = 6
				region = serpents_vale_region
				trade_goods = grain
				base_production = 7
				NOT = {
					OR = {
						has_province_modifier = truedagger_slave_farms
						province_id = 4123
					}
				}
			}
		}

		effect = {
			random_owned_province = {
				limit = {
					region = serpents_vale_region
					trade_goods = grain
					base_production = 7
					NOT = {
						OR = {
							has_province_modifier = truedagger_slave_farms
							province_id = 4123
						}
					}
				}
				add_permanent_province_modifier = {
					name = truedagger_slave_farms
					duration = -1
				}
				change_culture = black_orc
				change_religion = old_dookan
			}
			random_owned_province = {
				limit = {
					region = serpents_vale_region
					trade_goods = grain
					base_production = 7
					NOT = {
						OR = {
							has_province_modifier = truedagger_slave_farms
							province_id = 4123
						}
					}
				}
				add_permanent_province_modifier = {
					name = truedagger_slave_farms
					duration = -1
				}
				change_culture = black_orc
				change_religion = old_dookan
			}
			random_owned_province = {
				limit = {
					region = serpents_vale_region
					trade_goods = grain
					base_production = 7
					NOT = {
						OR = {
							has_province_modifier = truedagger_slave_farms
							province_id = 4123
						}
					}
				}
				add_permanent_province_modifier = {
					name = truedagger_slave_farms
					duration = -1
				}
				change_culture = black_orc
				change_religion = old_dookan
			}
			random_owned_province = {
				limit = {
					region = serpents_vale_region
					trade_goods = grain
					base_production = 7
					NOT = {
						OR = {
							has_province_modifier = truedagger_slave_farms
							province_id = 4123
						}
					}
				}
				add_permanent_province_modifier = {
					name = truedagger_slave_farms
					duration = -1
				}
				change_culture = black_orc
				change_religion = old_dookan
			}
			random_owned_province = {
				limit = {
					region = serpents_vale_region
					trade_goods = grain
					base_production = 7
					NOT = {
						OR = {
							has_province_modifier = truedagger_slave_farms
							province_id = 4123
						}
					}
				}
				add_permanent_province_modifier = {
					name = truedagger_slave_farms
					duration = -1
				}
				change_culture = black_orc
				change_religion = old_dookan
			}
			random_owned_province = {
				limit = {
					region = serpents_vale_region
					trade_goods = grain
					base_production = 7
					NOT = {
						OR = {
							has_province_modifier = truedagger_slave_farms
							province_id = 4123
						}
					}
				}
				add_permanent_province_modifier = {
					name = truedagger_slave_farms
					duration = -1
				}
				change_culture = black_orc
				change_religion = old_dookan
			}
			medium_decrease_of_orcish_tolerance_effect = yes
		}
	}

	H85_down_the_dwarovrod = {
		icon = mission_mithril_cannons
		position = 12
		required_missions = {
			H85_legitimize_our_claims
		}
		provinces_to_highlight = {
			OR = {
				area = mithradhum_area
				area = riftway_area
				area = dwarovrod_10_12_area
				area = dwarovrod_7_9_area
			}
			NOT = {
				owned_by = ROOT
			}
		}
		trigger = { 
			mithradhum_area = {
				type = all
				owned_by = ROOT
			}
			riftway_area = {
				type = all
				owned_by = ROOT
			}
			dwarovrod_10_12_area = {
				type = all
				owned_by = ROOT
			}
			dwarovrod_7_9_area = {
				type = all
				owned_by = ROOT
			}
		}

		effect = {
			orldhum_area = {
				add_permanent_claim = ROOT
			}
			khugdihr_area = {
				add_permanent_claim = ROOT
			}
			fallen_asra_area = {
				add_permanent_claim = ROOT
			}
			dwarfbreak_area = {
				add_permanent_claim = ROOT
			}
			dark_depths_area = {
				add_permanent_claim = ROOT
			}
			dwarovrod_4_6_area = {
				add_permanent_claim = ROOT
			}
			dwarovrod_1_3_area = {
				add_permanent_claim = ROOT
			}
		}
	}

	H85_the_gate_to_escann = {
		icon = mission_market
		position = 13
		required_missions = {
			H85_down_the_dwarovrod
		}
		provinces_to_highlight = {
			OR = {
				area = orldhum_area
				area = khugdihr_area
				area = fallen_asra_area
				area = dwarfbreak_area
				area = dark_depths_area
				area = dwarovrod_4_6_area
				area = dwarovrod_1_3_area
			}
			NOT = {
				owned_by = ROOT
			}
		}
		trigger = { 
			orldhum_area = {
				type = all
				owned_by = ROOT
			}
			khugdihr_area = {
				type = all
				owned_by = ROOT
			}
			fallen_asra_area = {
				type = all
				owned_by = ROOT
			}
			dwarfbreak_area = {
				type = all
				owned_by = ROOT
			}
			dark_depths_area = {
				type = all
				owned_by = ROOT
			}
			dwarovrod_4_6_area = {
				type = all
				owned_by = ROOT
			}
			dwarovrod_1_3_area = {
				type = all
				owned_by = ROOT
			}
			2863 = {
				province_has_current_tech_fort_trigger = yes
			}
		}

		effect = {
			2863 = {
				add_permanent_province_modifier = {
					name = truedagger_gate
					duration = -1
				}
				add_center_of_trade_level = 1
			}
		}
	}
}

H85_truedagger_column_5 = {
	slot = 5
	generic = no
	ai = yes
	potential = {
		tag = H85
	}
	has_country_shield = yes

	H85_improve_the_mines = {
		icon = mission_burning_separation
		position = 5
		required_missions = {
			H85_a_grand_arena
		}
		provinces_to_highlight = {
			area = broken_dagger_pass_area
			NOT = {
				AND = {
					base_production = 4
					OR = {
						has_production_building_trigger = yes
						trade_goods = gold
					}
				}
			}
		}
		trigger = { 
			broken_dagger_pass_area = {
				type = all
				base_production = 4
				OR = {
					has_production_building_trigger = yes
					trade_goods = gold
				}
			}
		}

		effect = {
			broken_dagger_pass_area = {
				add_permanent_province_modifier = {
					name = truedagger_slave_mines
					duration = -1
				}
			}
			medium_decrease_of_dwarven_tolerance_effect = yes
			custom_tooltip = truedagger_improve_the_mines_tt
			hidden_effect = {
				every_owned_province = {
					limit = {
						area = broken_dagger_pass_area
					}
					province_event = {
						id = flavor_truedagger.1
					}
				}
			}
		}
	}

	H85_make_them_suffer = {
		icon = mission_rb_central_belt_coal_mining
		position = 8
		required_missions = {
			H85_improve_the_mines
			H85_green_farms
		}
		provinces_to_highlight = {
			OR = {
				culture = silver_dwarf
				culture = black_orc
			}
			NOT = {
				AND = {
					base_production = 10
					has_production_building_trigger = yes
					has_manufactory_trigger = yes
				}
			}
		}
		trigger = { 
			num_of_owned_provinces_with = {
				value = 4
				OR = {
					culture = silver_dwarf
					culture = black_orc
				}
				base_production = 10
				has_production_building_trigger = yes
				has_manufactory_trigger = yes
			}
			low_tolerance_orcish_race_trigger = yes
			low_tolerance_dwarven_race_trigger = yes
		}

		effect = {
			4119 = {
				add_province_triggered_modifier = truedagger_slavery_economy
			}
			large_decrease_of_dwarven_tolerance_effect = yes
			large_decrease_of_orcish_tolerance_effect = yes
		}
	}

	H85_riches_of_the_serpentspine = {
		icon = mission_mechanical_mining
		position = 9
		required_missions = {
			H85_make_them_suffer
		}
		provinces_to_highlight = {
			region = west_dwarovar_region
			NOT = {
				area = broken_dagger_pass_area
			}
			OR = {
				trade_goods = iron
				trade_goods = gems
				trade_goods = copper
				trade_goods = gold
				trade_goods = mithril
			}
			owned_by = ROOT
			NOT = {
				AND = {
					base_production = 7
					has_production_building_trigger = yes
				}
			}
		}
		trigger = { 
			num_of_owned_provinces_with = {
				value = 5
				region = west_dwarovar_region
				OR = {
					trade_goods = iron
					trade_goods = gems
					trade_goods = copper
					trade_goods = gold
					trade_goods = mithril
				}
				NOT = {
					has_terrain = dwarven_hold
					has_terrain = dwarven_hold_surface
				}
				base_production = 7
				OR = {
					has_production_building_trigger = yes
					trade_goods = gold
				}
				NOT = {
					area = broken_dagger_pass_area
				}
			}
		}

		effect = {
			random_owned_province = {
				limit = {
					region = west_dwarovar_region
					OR = {
						trade_goods = iron
						trade_goods = gems
						trade_goods = copper
						trade_goods = gold
						trade_goods = mithril
					}
					NOT = {
						has_terrain = dwarven_hold
						has_terrain = dwarven_hold_surface
					}
					base_production = 7
					OR = {
						has_production_building_trigger = yes
						trade_goods = gold
					}
					NOT = {
						OR = {
							area = broken_dagger_pass_area
							has_province_modifier = truedagger_slave_mines
						}
					}
				}
				add_permanent_province_modifier = {
					name = truedagger_slave_mines
					duration = -1
				}
				change_culture = silver_dwarf
				change_religion = ancestor_worship
			}
			random_owned_province = {
				limit = {
					region = west_dwarovar_region
					OR = {
						trade_goods = iron
						trade_goods = gems
						trade_goods = copper
						trade_goods = gold
						trade_goods = mithril
					}
					NOT = {
						has_terrain = dwarven_hold
						has_terrain = dwarven_hold_surface
					}
					base_production = 7
					OR = {
						has_production_building_trigger = yes
						trade_goods = gold
					}
					NOT = {
						OR = {
							area = broken_dagger_pass_area
							has_province_modifier = truedagger_slave_mines
						}
					}
				}
				add_permanent_province_modifier = {
					name = truedagger_slave_mines
					duration = -1
				}
				change_culture = silver_dwarf
				change_religion = ancestor_worship
			}
			random_owned_province = {
				limit = {
					region = west_dwarovar_region
					OR = {
						trade_goods = iron
						trade_goods = gems
						trade_goods = copper
						trade_goods = gold
						trade_goods = mithril
					}
					NOT = {
						has_terrain = dwarven_hold
						has_terrain = dwarven_hold_surface
					}
					base_production = 7
					OR = {
						has_production_building_trigger = yes
						trade_goods = gold
					}
					NOT = {
						OR = {
							area = broken_dagger_pass_area
							has_province_modifier = truedagger_slave_mines
						}
					}
				}
				add_permanent_province_modifier = {
					name = truedagger_slave_mines
					duration = -1
				}
				change_culture = silver_dwarf
				change_religion = ancestor_worship
			}
			random_owned_province = {
				limit = {
					region = west_dwarovar_region
					OR = {
						trade_goods = iron
						trade_goods = gems
						trade_goods = copper
						trade_goods = gold
						trade_goods = mithril
					}
					NOT = {
						has_terrain = dwarven_hold
						has_terrain = dwarven_hold_surface
					}
					base_production = 7
					OR = {
						has_production_building_trigger = yes
						trade_goods = gold
					}
					NOT = {
						OR = {
							area = broken_dagger_pass_area
							has_province_modifier = truedagger_slave_mines
						}
					}
				}
				add_permanent_province_modifier = {
					name = truedagger_slave_mines
					duration = -1
				}
				change_culture = silver_dwarf
				change_religion = ancestor_worship
			}
			random_owned_province = {
				limit = {
					region = west_dwarovar_region
					OR = {
						trade_goods = iron
						trade_goods = gems
						trade_goods = copper
						trade_goods = gold
						trade_goods = mithril
					}
					NOT = {
						has_terrain = dwarven_hold
						has_terrain = dwarven_hold_surface
					}
					base_production = 7
					OR = {
						has_production_building_trigger = yes
						trade_goods = gold
					}
					NOT = {
						OR = {
							area = broken_dagger_pass_area
							has_province_modifier = truedagger_slave_mines
						}
					}
				}
				add_permanent_province_modifier = {
					name = truedagger_slave_mines
					duration = -1
				}
				change_culture = silver_dwarf
				change_religion = ancestor_worship
			}
			medium_decrease_of_dwarven_tolerance_effect = yes
		}
	}

	H85_our_enemies_enchained = {
		icon = mission_have_manufactories
		position = 11
		required_missions = {
			H85_the_intrigue_court
		}
		provinces_to_highlight = {
			OR = {
				has_province_modifier = truedagger_slave_farms
				has_province_modifier = truedagger_slave_mines
			}
			NOT = {
				AND = {
					base_production = 12
					has_manufactory_trigger = yes
					has_production_building_trigger = yes
				}
			}
		}
		trigger = { 
			any_owned_province = {
				has_province_modifier = truedagger_slave_farms
				base_production = 12
				has_manufactory_trigger = yes
				has_production_building_trigger = yes
			}
			any_owned_province = {
				has_province_modifier = truedagger_slave_mines
				base_production = 12
				has_manufactory_trigger = yes
				has_production_building_trigger = yes
			}
		}

		effect = {
			random_owned_province = {
				limit = {
					has_province_modifier = truedagger_slave_farms
					base_production = 12
					has_manufactory_trigger = yes
					has_production_building_trigger = yes
				}
				remove_province_modifier = truedagger_slave_farms
				add_permanent_province_modifier = {
					name = truedagger_farm_complex
					duration = -1
				}
			}
			random_owned_province = {
				limit = {
					has_province_modifier = truedagger_slave_mines
					base_production = 12
					has_manufactory_trigger = yes
					has_production_building_trigger = yes
				}
				remove_province_modifier = truedagger_slave_farms
				add_permanent_province_modifier = {
					name = truedagger_tunnels
					duration = -1
				}
			}
		}
	}

	H85_fellow_slavers = {
		icon = mission_alliances
		position = 14
		required_missions = {
			H85_the_gate_to_escann
			H85_our_enemies_enchained
		}
		provinces_to_highlight = {
			province_id = 2836
			NOT = {
				province_has_center_of_trade_of_level = 3
				has_trade_building_trigger = yes
			}
			OR = {
				has_province_modifier = ruined_hold 
				has_province_modifier = infested_hold
				has_province_modifier = partially_ruined_hold
			}
		}
		trigger = { 
			2863 = {
				province_has_center_of_trade_of_level = 3
				has_trade_building_trigger = yes
				NOT = {
					OR = {
						has_province_modifier = ruined_hold 
						has_province_modifier = infested_hold
						has_province_modifier = partially_ruined_hold
					}
				}
			}
			custom_trigger_tooltip = {
				tooltip = truedagger_fellow_slavers_tt
				OR = {
					AND = {
						NOT = {
							has_global_flag = orcish_slave_trade_banned_in_cannor
						}
						any_known_country = {
							capital_scope = {
								OR = {
									region = south_castanor_region
									region = west_castanor_region
									region = inner_castanor_region
								}
							}
							has_opinion = {
								who = ROOT
								value = 100
							}
						}
					}
					AND = {
						has_global_flag = orcish_slave_trade_banned_in_cannor
						any_known_country = {
							capital_scope = {
								OR = {
									continent = north_america
									continent = south_america
								}
							}
							has_opinion = {
								who = ROOT
								value = 100
							}
						}
					}
				}
			}
		}

		effect = {
			2863 = {
				change_trade_goods = slaves
				add_permanent_province_modifier = {
					name = truedagger_slave_market
					duration = -1
				}
			}
		}
	}

	H85_the_bloody_arena = {
		icon = mission_portuguese_oman
		position = 15
		required_missions = {
			H85_fellow_slavers
		}
		provinces_to_highlight = {
			province_id = 4122
			NOT = {
				base_manpower = 40
			}
		}
		trigger = { 
			4122 = {
				OR = {
					base_manpower = 25
					has_dwarven_hold_4 = yes
				}
			}
			treasury = 1000
			prestige = 70
		}

		effect = {
			4122 = {
				remove_province_modifier = truedagger_arena_4
				add_permanent_province_modifier = {
					name = truedagger_arena_5
					duration = -1
				}
			}
			add_treasury = -1000
			custom_tooltip = truedagger_the_bloody_arena_tt
			set_country_flag = flag_truedagger_heir_arena
		}
	}
}