#Verkal Skomdihr
verkalskomdihr_can_build_gate = {
	NOT = { has_province_modifier = verkalskomdihr_the_warding_gate_4 }
	NOT = { province_id = 4100 }
	OR = {
		has_terrain = dwarven_hold
		has_terrain = dwarven_hold_surface
	}
}

#Malacnar
is_companion = {
	custom_trigger_tooltip = { tooltip = malacnar_is_companion }
	hidden_trigger = {
		has_country_flag = malacnar_companion
	}
}
owned_by_companion = {
	custom_trigger_tooltip = { tooltip = malacnar_owned_by_companion }
	hidden_trigger = {
		OR = {
			owner = { has_country_flag = malacnar_companion }
			AND = {
				is_core = G32
				owned_by = G32
			}
		}	 
	}
}
death_or_companion = {
	custom_trigger_tooltip = { tooltip = malacnar_death_or_companion }
	hidden_trigger = {
		OR = {
			NOT = { exists = yes }
			has_country_flag = malacnar_companion
		}	 
	}
}

#Gawed
has_hostile_stronghold = {
	OR = {
		has_province_modifier = magnate_stronghold
		has_province_modifier = crown_stronghold
	}
}

#Roadwarrior
roadwarrior_can_upgrade_main = {
	if = {
		limit = {
			has_country_modifier = roadwarrior_main_1
		}
		adm_power = 100
		dip_power = 100
		mil_power = 100
	}
	else_if = {
		limit = {
			has_country_modifier = roadwarrior_main_2
		}
		adm_power = 300
		dip_power = 300
		mil_power = 300
	}
	else_if = {
		limit = {
			has_country_modifier = roadwarrior_main_3
		}
		adm_power = 500
		dip_power = 500
		mil_power = 500
	}
}
roadwarrior_can_upgrade_fighter = {
	if = {
		limit = {
			has_country_modifier = roadwarrior_fighter_1
		}
		mil_power = 50
	}
	else_if = {
		limit = {
			has_country_modifier = roadwarrior_fighter_2
		}
		mil_power = 100
	}
	else_if = {
		limit = {
			has_country_modifier = roadwarrior_fighter_3
		}
		mil_power = 200
	}
	else_if = {
		limit = {
			has_country_modifier = roadwarrior_fighter_4
		}
		mil_power = 300
	}
	else_if = {
		limit = {
			has_country_modifier = roadwarrior_fighter_5
		}
		mil_power = 500
	}
	else_if = {
		limit = {
			has_country_modifier = roadwarrior_fighter_6
		}
		mil_power = 500
	}
	else_if = {
		limit = {
			has_country_modifier = roadwarrior_fighter_7
		}
		mil_power = 500
	}
	else_if = {
		limit = {
			has_country_modifier = roadwarrior_fighter_8
		}
		mil_power = 500
	}
	else_if = {
		limit = {
			has_country_modifier = roadwarrior_fighter_9
		}
		mil_power = 500
	}
	else = {
		mil_power = 10
	}
}
roadwarrior_can_upgrade_looter = {
	if = {
		limit = { has_country_modifier = roadwarrior_tax_1 }
		dip_power = 50
	}
	else_if = {
		limit = { has_country_modifier = roadwarrior_tax_2 }
		dip_power = 100
	}
	else_if = {
		limit = { has_country_modifier = roadwarrior_tax_3 }
		dip_power = 200
	}
	else_if = {
		limit = { has_country_modifier = roadwarrior_tax_4 }
		dip_power = 300
	}
	else_if = {
		limit = { has_country_modifier = roadwarrior_tax_5 }
		dip_power = 400
	}
	else_if = {
		limit = { has_country_modifier = roadwarrior_tax_6 }
		dip_power = 500
	}
	else = {
		dip_power = 10
	}
}
roadwarrior_can_upgrade_builder = {
	if = {
		limit = { has_country_modifier = roadwarrior_builder_1 }
		adm_power = 50
	}
	else_if = {
		limit = { has_country_modifier = roadwarrior_builder_2 }
		adm_power = 100
	}
	else_if = {
		limit = { has_country_modifier = roadwarrior_builder_3 }
		adm_power = 200
	}
	else_if = {
		limit = { has_country_modifier = roadwarrior_builder_4 }
		adm_power = 300
	}
	else_if = {
		limit = { has_country_modifier = roadwarrior_builder_5 }
		adm_power = 400
	}
	else_if = {
		limit = { has_country_modifier = roadwarrior_builder_6 }
		adm_power = 500
	}
	else_if = {
		limit = { has_country_modifier = roadwarrior_builder_7 }
		adm_power = 500
	}
	else = {
		adm_power = 10
	}
}
roadwarrior_can_upgrade_living = {
	if = {
		limit = {
			has_country_modifier = roadwarrior_living_1
		}
		mil_power = 50
	}
	else_if = {
		limit = {
			has_country_modifier = roadwarrior_living_2
		}
		mil_power = 100
	}
	else_if = {
		limit = {
			has_country_modifier = roadwarrior_living_3
		}
		mil_power = 200
	}
	else_if = {
		limit = {
			has_country_modifier = roadwarrior_living_4
		}
		mil_power = 400
	}
	else_if = {
		limit = {
			has_country_modifier = roadwarrior_living_5
		}
		mil_power = 500
	}
	else_if = {
		limit = {
			has_country_modifier = roadwarrior_living_6
		}
		mil_power = 500
	}
	else_if = {
		limit = {
			has_country_modifier = roadwarrior_living_7
		}
		mil_power = 500
	}
	else_if = {
		limit = {
			has_country_modifier = roadwarrior_living_8
		}
		mil_power = 500
	}
	else_if = {
		limit = {
			has_country_modifier = roadwarrior_living_9
		}
		mil_power = 500
	}
	else = {
		mil_power = 10
	}
}
roadwarrior_can_upgrade_training = {
	if = {
		limit = {
			has_country_modifier = roadwarrior_training_1
		}
		adm_power = 200
	}
	else_if = {
		limit = {
			has_country_modifier = roadwarrior_training_2
		}
		adm_power = 300
	}
	else_if = {
		limit = {
			has_country_modifier = roadwarrior_training_3
		}
		adm_power = 400
	}
	else_if = {
		limit = {
			has_country_modifier = roadwarrior_training_4
		}
		adm_power = 500
	}
	else = {
		adm_power = 100
	}
}
roadwarrior_can_upgrade_portable_arena = {
	if = {
		limit = {
			has_country_modifier = roadwarrior_portable_arena_1
		}
		dip_power = 200
	}
	else_if = {
		limit = {
			has_country_modifier = roadwarrior_portable_arena_2
		}
		dip_power = 300
	}
	else_if = {
		limit = {
			has_country_modifier = roadwarrior_portable_arena_3
		}
		dip_power = 400
	}
	else_if = {
		limit = {
			has_country_modifier = roadwarrior_portable_arena_4
		}
		dip_power = 500
	}
	else = {
		dip_power = 100
	}
}
roadwarrior_can_upgrade_smashers = {
	if = {
		limit = { has_country_modifier = roadwarrior_breaker_1 }
		adm_power = 50
		mil_power = 50
	}
	else_if = {
		limit = { has_country_modifier = roadwarrior_breaker_2 }
		adm_power = 100
		mil_power = 100
	}
	else_if = {
		limit = { has_country_modifier = roadwarrior_breaker_3 }
		adm_power = 200
		mil_power = 200
	}
	else_if = {
		limit = { has_country_modifier = roadwarrior_breaker_4 }
		adm_power = 300
		mil_power = 300
	}
	else_if = {
		limit = { has_country_modifier = roadwarrior_breaker_5 }
		adm_power = 400
		mil_power = 400
	}
	else_if = {
		limit = { has_country_modifier = roadwarrior_breaker_6 }
		adm_power = 500
		mil_power = 500
	}
	else_if = {
		limit = { has_country_modifier = roadwarrior_breaker_7 }
		adm_power = 500
		mil_power = 500
	}
	else = {
		adm_power = 10
		mil_power = 10
	}
}
roadwarrior_can_upgrade_thinkers = {
	if = {
		limit = {
			has_country_modifier = roadwarrior_thinking_1
		}
		dip_power = 200
	}
	else_if = {
		limit = {
			has_country_modifier = roadwarrior_thinking_2
		}
		dip_power = 300
	}
	else_if = {
		limit = {
			has_country_modifier = roadwarrior_thinking_3
		}
		dip_power = 400
	}
	else_if = {
		limit = {
			has_country_modifier = roadwarrior_thinking_4
		}
		dip_power = 500
	}
	else = {
		dip_power = 100
	}
}

#Corintar
corintar_establish_chapter_highlight = {
	OR = {
		owned_by = $tag$
		AND = {
			NOT = { exists = $tag$ }
			NOT = {
				ROOT = { owns_or_non_sovereign_subject_of = $capital$ }
			}
			owner = { owns = $capital$ }
		}
	}
}
corintar_establish_chapter_trigger = {
	if = {
		limit = {
			exists = $tag$
			$tag$ = {
				is_subject = yes
				NOT = { is_subject_of_type = tributary_state }
				NOT = { is_subject_of = ROOT }
			}
		}
		$tag$ = {
			overlord = {
				has_spy_network_from = {
					who = ROOT
					value = 50
				}
			}
		}
	}
	else_if = {
		limit = {
			exists = $tag$
			NOT = { overlord_of = $tag$ }
		}
		has_spy_network_in = {
			who = $tag$
			value = 50
		}
	}
	else_if = {
		limit = {
			NOT = { owns_or_non_sovereign_subject_of = $capital$ }
			$capital$ = {
				owner = {
					is_subject = yes
					NOT = { is_subject_of_type = tributary_state }
				}
			}
		}
		$capital$ = {
			owner = {
				overlord = {
					has_spy_network_from = {
						who = ROOT
						value = 50
					}
				}
			}
		}
	}
	else_if = {
		limit = {
			NOT = { owns_or_non_sovereign_subject_of = $capital$ }
		}
		$capital$ = {
			owner = {
				has_spy_network_from = {
					who = ROOT
					value = 50
				}
			}
		}
	}
	else = {
		owns_or_non_sovereign_subject_of = $capital$
	}
}
corintar_league_war_started = { # returns true if the league war is active, over, or the Empire no longer exists
	OR = {
		emperor = { is_in_league_war = yes }
		hre_religion_locked = yes
		NOT = { hre_size = 1 }
		has_global_flag = peace_of_esmaria
	}
}

#Elikhand
b38_homeland = {
	custom_trigger_tooltip = {
		tooltip = elikhand_homeland
		religion = khetist
		is_state = yes
		OR = {
			region = inner_castanor_region
			region = south_castanor_region
			region = west_castanor_region
			area = cursewood_area
			area = whistlevale_area
		}
	}
}

#Black Demesne
black_demesne_has_available_acolyte = {
	OR = {
		Z75 = { exists = no }
		Z76 = { exists = no }
		Z77 = { exists = no }
		Z78 = { exists = no }
		Z79 = { exists = no }
		Z80 = { exists = no }
		Z81 = { exists = no }
	}
}
black_demesne_can_have_another_acolyte = {
	OR = {
		AND = {
			NOT = { acolyte_dominion = 1 }
			num_of_provinces_owned_or_owned_by_non_sovereign_subjects_with = {
				value = 50
				is_city = yes
			}
		}
		AND = {
			acolyte_dominion = 1
			NOT = { acolyte_dominion = 2 }
			num_of_provinces_owned_or_owned_by_non_sovereign_subjects_with = {
				value = 100
				is_city = yes
			}
		}
		AND = {
			acolyte_dominion = 2
			NOT = { acolyte_dominion = 3 }
			num_of_provinces_owned_or_owned_by_non_sovereign_subjects_with = {
				value = 150
				is_city = yes
			}
		}
		AND = {
			acolyte_dominion = 3
			NOT = { acolyte_dominion = 4 }
			num_of_provinces_owned_or_owned_by_non_sovereign_subjects_with = {
				value = 200
				is_city = yes
			}
		}
		AND = {
			acolyte_dominion = 4
			NOT = { acolyte_dominion = 5 }
			num_of_provinces_owned_or_owned_by_non_sovereign_subjects_with = {
				value = 250
				is_city = yes
			}
		}
		AND = {
			acolyte_dominion = 5
			NOT = { acolyte_dominion = 6 }
			num_of_provinces_owned_or_owned_by_non_sovereign_subjects_with = {
				value = 300
				is_city = yes
			}
		}
		AND = {
			acolyte_dominion = 6
			NOT = { acolyte_dominion = 7 }
			num_of_provinces_owned_or_owned_by_non_sovereign_subjects_with = {
				value = 350
				is_city = yes
			}
		}
		# always = yes #DEBUG
	}
}

#Ghavaanaj
ghavaanaj_has_herd_size_2 = {
	custom_trigger_tooltip = {
		tooltip = ghavaanaj_has_herd_size_2_tt
		OR = {
			has_country_modifier = ghavaanaj_herd_size_2
			has_country_modifier = ghavaanaj_herd_size_3
			has_country_modifier = ghavaanaj_herd_size_4
			has_country_modifier = ghavaanaj_herd_size_5
			has_country_modifier = ghavaanaj_herd_size_6
			has_country_modifier = ghavaanaj_herd_size_7
			has_country_modifier = ghavaanaj_herd_size_8
			has_country_modifier = ghavaanaj_herd_size_9
			has_country_modifier = ghavaanaj_herd_size_10
			has_country_modifier = ghavaanaj_herd_size_11
			has_country_modifier = ghavaanaj_herd_size_12
			has_country_modifier = ghavaanaj_herd_size_13
			has_country_modifier = ghavaanaj_herd_size_14
			has_country_modifier = ghavaanaj_herd_size_15
			has_country_modifier = ghavaanaj_herd_size_16
			has_country_modifier = ghavaanaj_herd_size_17
			has_country_modifier = ghavaanaj_herd_size_18
			has_country_modifier = ghavaanaj_herd_size_19
			has_country_modifier = ghavaanaj_herd_size_20
		}
	}
}
ghavaanaj_has_herd_size_3 = {
	custom_trigger_tooltip = {
		tooltip = ghavaanaj_has_herd_size_3_tt
		OR = {
			has_country_modifier = ghavaanaj_herd_size_3
			has_country_modifier = ghavaanaj_herd_size_4
			has_country_modifier = ghavaanaj_herd_size_5
			has_country_modifier = ghavaanaj_herd_size_6
			has_country_modifier = ghavaanaj_herd_size_7
			has_country_modifier = ghavaanaj_herd_size_8
			has_country_modifier = ghavaanaj_herd_size_9
			has_country_modifier = ghavaanaj_herd_size_10
			has_country_modifier = ghavaanaj_herd_size_11
			has_country_modifier = ghavaanaj_herd_size_12
			has_country_modifier = ghavaanaj_herd_size_13
			has_country_modifier = ghavaanaj_herd_size_14
			has_country_modifier = ghavaanaj_herd_size_15
			has_country_modifier = ghavaanaj_herd_size_16
			has_country_modifier = ghavaanaj_herd_size_17
			has_country_modifier = ghavaanaj_herd_size_18
			has_country_modifier = ghavaanaj_herd_size_19
			has_country_modifier = ghavaanaj_herd_size_20
		}
	}
}
ghavaanaj_has_herd_size_4 = {
	custom_trigger_tooltip = {
		tooltip = ghavaanaj_has_herd_size_4_tt
		OR = {
			has_country_modifier = ghavaanaj_herd_size_4
			has_country_modifier = ghavaanaj_herd_size_5
			has_country_modifier = ghavaanaj_herd_size_6
			has_country_modifier = ghavaanaj_herd_size_7
			has_country_modifier = ghavaanaj_herd_size_8
			has_country_modifier = ghavaanaj_herd_size_9
			has_country_modifier = ghavaanaj_herd_size_10
			has_country_modifier = ghavaanaj_herd_size_11
			has_country_modifier = ghavaanaj_herd_size_12
			has_country_modifier = ghavaanaj_herd_size_13
			has_country_modifier = ghavaanaj_herd_size_14
			has_country_modifier = ghavaanaj_herd_size_15
			has_country_modifier = ghavaanaj_herd_size_16
			has_country_modifier = ghavaanaj_herd_size_17
			has_country_modifier = ghavaanaj_herd_size_18
			has_country_modifier = ghavaanaj_herd_size_19
			has_country_modifier = ghavaanaj_herd_size_20
		}
	}
}
ghavaanaj_has_herd_size_5 = {
	custom_trigger_tooltip = {
		tooltip = ghavaanaj_has_herd_size_5_tt
		OR = {
			has_country_modifier = ghavaanaj_herd_size_5
			has_country_modifier = ghavaanaj_herd_size_6
			has_country_modifier = ghavaanaj_herd_size_7
			has_country_modifier = ghavaanaj_herd_size_8
			has_country_modifier = ghavaanaj_herd_size_9
			has_country_modifier = ghavaanaj_herd_size_10
			has_country_modifier = ghavaanaj_herd_size_11
			has_country_modifier = ghavaanaj_herd_size_12
			has_country_modifier = ghavaanaj_herd_size_13
			has_country_modifier = ghavaanaj_herd_size_14
			has_country_modifier = ghavaanaj_herd_size_15
			has_country_modifier = ghavaanaj_herd_size_16
			has_country_modifier = ghavaanaj_herd_size_17
			has_country_modifier = ghavaanaj_herd_size_18
			has_country_modifier = ghavaanaj_herd_size_19
			has_country_modifier = ghavaanaj_herd_size_20
		}
	}
}
ghavaanaj_has_herd_size_6 = {
	custom_trigger_tooltip = {
		tooltip = ghavaanaj_has_herd_size_6_tt
		OR = {
			has_country_modifier = ghavaanaj_herd_size_6
			has_country_modifier = ghavaanaj_herd_size_7
			has_country_modifier = ghavaanaj_herd_size_8
			has_country_modifier = ghavaanaj_herd_size_9
			has_country_modifier = ghavaanaj_herd_size_10
			has_country_modifier = ghavaanaj_herd_size_11
			has_country_modifier = ghavaanaj_herd_size_12
			has_country_modifier = ghavaanaj_herd_size_13
			has_country_modifier = ghavaanaj_herd_size_14
			has_country_modifier = ghavaanaj_herd_size_15
			has_country_modifier = ghavaanaj_herd_size_16
			has_country_modifier = ghavaanaj_herd_size_17
			has_country_modifier = ghavaanaj_herd_size_18
			has_country_modifier = ghavaanaj_herd_size_19
			has_country_modifier = ghavaanaj_herd_size_20
		}
	}
}
ghavaanaj_has_herd_size_7 = {
	custom_trigger_tooltip = {
		tooltip = ghavaanaj_has_herd_size_7_tt
		OR = {
			has_country_modifier = ghavaanaj_herd_size_7
			has_country_modifier = ghavaanaj_herd_size_8
			has_country_modifier = ghavaanaj_herd_size_9
			has_country_modifier = ghavaanaj_herd_size_10
			has_country_modifier = ghavaanaj_herd_size_11
			has_country_modifier = ghavaanaj_herd_size_12
			has_country_modifier = ghavaanaj_herd_size_13
			has_country_modifier = ghavaanaj_herd_size_14
			has_country_modifier = ghavaanaj_herd_size_15
			has_country_modifier = ghavaanaj_herd_size_16
			has_country_modifier = ghavaanaj_herd_size_17
			has_country_modifier = ghavaanaj_herd_size_18
			has_country_modifier = ghavaanaj_herd_size_19
			has_country_modifier = ghavaanaj_herd_size_20
		}
	}
}
ghavaanaj_has_herd_size_8 = {
	custom_trigger_tooltip = {
		tooltip = ghavaanaj_has_herd_size_8_tt
		OR = {
			has_country_modifier = ghavaanaj_herd_size_8
			has_country_modifier = ghavaanaj_herd_size_9
			has_country_modifier = ghavaanaj_herd_size_10
			has_country_modifier = ghavaanaj_herd_size_11
			has_country_modifier = ghavaanaj_herd_size_12
			has_country_modifier = ghavaanaj_herd_size_13
			has_country_modifier = ghavaanaj_herd_size_14
			has_country_modifier = ghavaanaj_herd_size_15
			has_country_modifier = ghavaanaj_herd_size_16
			has_country_modifier = ghavaanaj_herd_size_17
			has_country_modifier = ghavaanaj_herd_size_18
			has_country_modifier = ghavaanaj_herd_size_19
			has_country_modifier = ghavaanaj_herd_size_20
		}
	}
}
ghavaanaj_has_herd_size_9 = {
	custom_trigger_tooltip = {
		tooltip = ghavaanaj_has_herd_size_9_tt
		OR = {
			has_country_modifier = ghavaanaj_herd_size_9
			has_country_modifier = ghavaanaj_herd_size_10
			has_country_modifier = ghavaanaj_herd_size_11
			has_country_modifier = ghavaanaj_herd_size_12
			has_country_modifier = ghavaanaj_herd_size_13
			has_country_modifier = ghavaanaj_herd_size_14
			has_country_modifier = ghavaanaj_herd_size_15
			has_country_modifier = ghavaanaj_herd_size_16
			has_country_modifier = ghavaanaj_herd_size_17
			has_country_modifier = ghavaanaj_herd_size_18
			has_country_modifier = ghavaanaj_herd_size_19
			has_country_modifier = ghavaanaj_herd_size_20
		}
	}
}
ghavaanaj_has_herd_size_10 = {
	custom_trigger_tooltip = {
		tooltip = ghavaanaj_has_herd_size_10_tt
		OR = {
			has_country_modifier = ghavaanaj_herd_size_10
			has_country_modifier = ghavaanaj_herd_size_11
			has_country_modifier = ghavaanaj_herd_size_12
			has_country_modifier = ghavaanaj_herd_size_13
			has_country_modifier = ghavaanaj_herd_size_14
			has_country_modifier = ghavaanaj_herd_size_15
			has_country_modifier = ghavaanaj_herd_size_16
			has_country_modifier = ghavaanaj_herd_size_17
			has_country_modifier = ghavaanaj_herd_size_18
			has_country_modifier = ghavaanaj_herd_size_19
			has_country_modifier = ghavaanaj_herd_size_20
		}
	}
}
ghavaanaj_has_herd_size_11 = {
	custom_trigger_tooltip = {
		tooltip = ghavaanaj_has_herd_size_11_tt
		OR = {
			has_country_modifier = ghavaanaj_herd_size_11
			has_country_modifier = ghavaanaj_herd_size_12
			has_country_modifier = ghavaanaj_herd_size_13
			has_country_modifier = ghavaanaj_herd_size_14
			has_country_modifier = ghavaanaj_herd_size_15
			has_country_modifier = ghavaanaj_herd_size_16
			has_country_modifier = ghavaanaj_herd_size_17
			has_country_modifier = ghavaanaj_herd_size_18
			has_country_modifier = ghavaanaj_herd_size_19
			has_country_modifier = ghavaanaj_herd_size_20
		}
	}
}
ghavaanaj_has_herd_size_12 = {
	custom_trigger_tooltip = {
		tooltip = ghavaanaj_has_herd_size_12_tt
		OR = {
			has_country_modifier = ghavaanaj_herd_size_12
			has_country_modifier = ghavaanaj_herd_size_13
			has_country_modifier = ghavaanaj_herd_size_14
			has_country_modifier = ghavaanaj_herd_size_15
			has_country_modifier = ghavaanaj_herd_size_16
			has_country_modifier = ghavaanaj_herd_size_17
			has_country_modifier = ghavaanaj_herd_size_18
			has_country_modifier = ghavaanaj_herd_size_19
			has_country_modifier = ghavaanaj_herd_size_20
		}
	}
}
ghavaanaj_has_herd_size_13 = {
	custom_trigger_tooltip = {
		tooltip = ghavaanaj_has_herd_size_13_tt
		OR = {
			has_country_modifier = ghavaanaj_herd_size_13
			has_country_modifier = ghavaanaj_herd_size_14
			has_country_modifier = ghavaanaj_herd_size_15
			has_country_modifier = ghavaanaj_herd_size_16
			has_country_modifier = ghavaanaj_herd_size_17
			has_country_modifier = ghavaanaj_herd_size_18
			has_country_modifier = ghavaanaj_herd_size_19
			has_country_modifier = ghavaanaj_herd_size_20
		}
	}
}
ghavaanaj_has_herd_size_14 = {
	custom_trigger_tooltip = {
		tooltip = ghavaanaj_has_herd_size_14_tt
		OR = {
			has_country_modifier = ghavaanaj_herd_size_14
			has_country_modifier = ghavaanaj_herd_size_15
			has_country_modifier = ghavaanaj_herd_size_16
			has_country_modifier = ghavaanaj_herd_size_17
			has_country_modifier = ghavaanaj_herd_size_18
			has_country_modifier = ghavaanaj_herd_size_19
			has_country_modifier = ghavaanaj_herd_size_20
		}
	}
}
ghavaanaj_has_herd_size_15 = {
	custom_trigger_tooltip = {
		tooltip = ghavaanaj_has_herd_size_15_tt
		OR = {
			has_country_modifier = ghavaanaj_herd_size_15
			has_country_modifier = ghavaanaj_herd_size_16
			has_country_modifier = ghavaanaj_herd_size_17
			has_country_modifier = ghavaanaj_herd_size_18
			has_country_modifier = ghavaanaj_herd_size_19
			has_country_modifier = ghavaanaj_herd_size_20
		}
	}
}
ghavaanaj_has_herd_size_16 = {
	custom_trigger_tooltip = {
		tooltip = ghavaanaj_has_herd_size_16_tt
		OR = {
			has_country_modifier = ghavaanaj_herd_size_16
			has_country_modifier = ghavaanaj_herd_size_17
			has_country_modifier = ghavaanaj_herd_size_18
			has_country_modifier = ghavaanaj_herd_size_19
			has_country_modifier = ghavaanaj_herd_size_20
		}
	}
}
ghavaanaj_has_herd_size_17 = {
	custom_trigger_tooltip = {
		tooltip = ghavaanaj_has_herd_size_17_tt
		OR = {
			has_country_modifier = ghavaanaj_herd_size_17
			has_country_modifier = ghavaanaj_herd_size_18
			has_country_modifier = ghavaanaj_herd_size_19
			has_country_modifier = ghavaanaj_herd_size_20
		}
	}
}
ghavaanaj_has_herd_size_18 = {
	custom_trigger_tooltip = {
		tooltip = ghavaanaj_has_herd_size_18_tt
		OR = {
			has_country_modifier = ghavaanaj_herd_size_18
			has_country_modifier = ghavaanaj_herd_size_19
			has_country_modifier = ghavaanaj_herd_size_20
		}
	}
}
ghavaanaj_has_herd_size_19 = {
	custom_trigger_tooltip = {
		tooltip = ghavaanaj_has_herd_size_19_tt
		OR = {
			has_country_modifier = ghavaanaj_herd_size_19
			has_country_modifier = ghavaanaj_herd_size_20
		}
	}
}
ghavaanaj_has_herd_size_20 = {
	custom_trigger_tooltip = {
		tooltip = ghavaanaj_has_herd_size_20_tt
		OR = {
			has_country_modifier = ghavaanaj_herd_size_20
		}
	}
}

#Rogieria
# Being in the conspiracy but with a tooltip
is_in_shadowmoon_trigger = {
	custom_trigger_tooltip = {
		tooltip = rogieria_in_shadowmoon_conspiracy
		OR = { 
			has_country_flag = in_shadowmoon_conspiracy
			NOT = { is_part_of_hre = yes } # Bypass so you don't get screwed
		}
	}
}

#Seghdihr
seghdihr_sgc_adm_req = {
	treasury = 750
	adm_power = 100
}
seghdihr_sgc_dip_req = {
	treasury = 500
	dip_power = 100
}
seghdihr_sgc_mil_req = {
	manpower = 10
	mil_power = 100
}

#Bianfang
bianfang_ruler_benevolent_personality = {
    OR = {
        ruler_has_personality = just_personality
        ruler_has_personality = righteous_personality
        ruler_has_personality = tolerant_personality
        ruler_has_personality = kind_hearted_personality
        ruler_has_personality = benevolent_personality
        ruler_has_personality = incorruptible_personality
        ruler_has_personality = pious_personality
        ruler_has_personality = inspiring_leader_personality
        ruler_has_personality = humane_personality
    }
}
bianfang_ruler_pragmatic_personality = {
    OR = {
        ruler_has_personality = free_thinker_personality
        ruler_has_personality = well_connected_personality
        ruler_has_personality = calm_personality
        ruler_has_personality = careful_personality
        ruler_has_personality = well_advised_personality
        ruler_has_personality = lawgiver_personality
        ruler_has_personality = midas_touched_personality
        ruler_has_personality = entrepreneur_personality
        ruler_has_personality = industrious_personality
        ruler_has_personality = charismatic_negotiator_personality
        ruler_has_personality = silver_tongue_personality
        ruler_has_personality = architectural_visionary_personality
        ruler_has_personality = expansionist_personality
        ruler_has_personality = fierce_negotiator_personality
        ruler_has_personality = reformist_personality
    }
}
bianfang_ruler_ruthless_personality = {
    OR = {
        ruler_has_personality = secretive_personality
        ruler_has_personality = intricate_web_weaver_personality
        ruler_has_personality = zealot_personality 
        ruler_has_personality = conqueror_personality
        ruler_has_personality = strict_personality
        ruler_has_personality = embezzler_personality
        ruler_has_personality = greedy_personality
        ruler_has_personality = cruel_personality
        ruler_has_personality = malevolent_personality
        ruler_has_personality = petty_personality
        ruler_has_personality = great_conqueror_personality
        ruler_has_personality = mythical_conqueror_personality
        ruler_has_personality = legendary_pirate_personality
    }
}
bianfang_ruler_irrelevant_personality = {
    OR = {
        ruler_has_personality = fertile_personality
        ruler_has_personality = tactical_genius_personality
        ruler_has_personality = bold_fighter_personality
        ruler_has_personality = martial_educator_personality
        ruler_has_personality = navigator_personality
        ruler_has_personality = babbling_buffoon_personality
        ruler_has_personality = infertile_personality
        ruler_has_personality = drunkard_personality
        ruler_has_personality = sinner_personality
        ruler_has_personality = naive_personality
        ruler_has_personality = craven_personality
        ruler_has_personality = loose_lips_personality
        ruler_has_personality = obsessive_perfectionist_personality
        ruler_has_personality = scholar_personality
        ruler_has_personality = mage_personality
        ruler_has_personality = immortal_personality
    }
}
bianfang_has_corvee_conscript_labor = {
	OR = {
		has_province_modifier = bianfang_corvee_labor
		has_province_modifier = bianfang_corvee_labor_shipyard
		has_province_modifier = bianfang_corvee_labor_colony
		has_province_modifier = bianfang_conscript_labor
		has_province_modifier = bianfang_conscript_labor_shipyard
		has_province_modifier = bianfang_conscript_labor_colony
	}
}

#Feiten
feiten_has_envelope_invention = {
	custom_trigger_tooltip = {
		tooltip = feiten_invention_exclusivity_check_tt
		OR = {
			has_estate_privilege = artifice_invention_feiten_ivory_conduits
			has_estate_privilege = artifice_invention_feiten_damestear_ribbing
			has_estate_privilege = artifice_invention_feiten_silken_cladding
		}
	}
	OR = {
		has_estate_privilege = artifice_invention_feiten_ivory_conduits
		has_estate_privilege = artifice_invention_feiten_damestear_ribbing
		has_estate_privilege = artifice_invention_feiten_silken_cladding
	}
}
feiten_has_gondola_invention = {
	custom_trigger_tooltip = {
		tooltip = feiten_invention_exclusivity_check_tt
		OR = {
			has_estate_privilege = artifice_invention_feiten_specialized_construction_arms
			has_estate_privilege = artifice_invention_feiten_expanding_storage_holds
			has_estate_privilege = artifice_invention_feiten_electroplated_armor
		}
	}
	OR = {
		has_estate_privilege = artifice_invention_feiten_specialized_construction_arms
		has_estate_privilege = artifice_invention_feiten_expanding_storage_holds
		has_estate_privilege = artifice_invention_feiten_electroplated_armor
	}
}
feiten_has_armaments_invention = {
	custom_trigger_tooltip = {
		tooltip = feiten_invention_exclusivity_check_tt
		OR = {
			has_estate_privilege = artifice_invention_feiten_skywriting
		has_estate_privilege = artifice_invention_feiten_long_rockets
		has_estate_privilege = artifice_invention_feiten_lightning_amplifier
		}
	}
	OR = {
		has_estate_privilege = artifice_invention_feiten_skywriting
		has_estate_privilege = artifice_invention_feiten_long_rockets
		has_estate_privilege = artifice_invention_feiten_lightning_amplifier
	}
}
feiten_has_propulsion_invention = {
	custom_trigger_tooltip = {
		tooltip = feiten_invention_exclusivity_check_tt
		OR = {
			has_estate_privilege = artifice_invention_feiten_farsight_telescopes
			has_estate_privilege = artifice_invention_feiten_porcelain_caged_firebirds
			has_estate_privilege = artifice_invention_feiten_steel_rudders
		}
	}
	OR = {
		has_estate_privilege = artifice_invention_feiten_farsight_telescopes
		has_estate_privilege = artifice_invention_feiten_porcelain_caged_firebirds
		has_estate_privilege = artifice_invention_feiten_steel_rudders
	}
}

#Allclan

# allclan_developed_cavern = {
# 	has_terrain = cavern
# 	has_province_modifier = allclan_quarried_cavern
# 	OR = {
# 		has_province_modifier = allclan_factory_farm_food
# 		has_province_modifier = allclan_factory_farm_cash_crops
# 		has_province_modifier = allclan_factory_farm_spidersilk
# 		#mining
# 		has_province_modifier = allclan_allclan_artifice_mining_industrial_material
# 		has_province_modifier = allclan_artifice_mining_salt							
# 		has_province_modifier = allclan_artifice_mining_glass							
# 		has_province_modifier = allclan_artifice_mining_gems							
# 		has_province_modifier = allclan_artifice_mining_artifice_material							
# 		has_province_modifier = allclan_artifice_mining_mithril
# 		has_province_modifier = allclan_artifice_mining_gold
# 	}
# }

# allclan_developed_road = {
# 	has_terrain = dwarven_road
# 	has_province_modifier = rocket_rail
# 	OR = {
# 		has_province_modifier = allclan_factory_farm_food
# 		has_province_modifier = allclan_factory_farm_cash_crops
# 		has_province_modifier = allclan_factory_farm_spidersilk
# 		#mining
# 		has_province_modifier = allclan_allclan_artifice_mining_industrial_material
# 		has_province_modifier = allclan_artifice_mining_salt							
# 		has_province_modifier = allclan_artifice_mining_glass							
# 		has_province_modifier = allclan_artifice_mining_gems							
# 		has_province_modifier = allclan_artifice_mining_artifice_material							
# 		has_province_modifier = allclan_artifice_mining_mithril
# 		has_province_modifier = allclan_artifice_mining_gold
# 	}
# }

# has_valid_factory_farm_good = {
# 	OR = {
# 		trade_goods = fungi
# 		trade_goods = wine
# 		trade_goods = livestock
# 		trade_goods = paper
# 		trade_goods = cloth
# 		trade_goods = silk
# 		trade_goods = incense
# 		trade_goods = wool
# 		trade_goods = slaves
# 	}
# }

# has_valid_artifice_mining_good = {
# 	OR = {
# 		trade_goods = copper
# 		trade_goods = iron
# 		trade_goods = gems
# 		trade_goods = glass
# 		trade_goods = gold
# 		trade_goods = mithril
# 		trade_goods = salt
# 		trade_goods = coal
# 		trade_goods = damestear
# 		trade_goods = precursor_relics
# 	}
# }

# factory_farm_check = {
# 	NOT = {
# 		has_province_modifier = allclan_factory_farm_food
# 		has_province_modifier = allclan_factory_farm_cash_crops
# 		has_province_modifier = allclan_factory_farm_spidersilk
# 	}
# 	has_valid_factory_farm_good = yes
# }

# artifice_mining_check = {
# 	NOT = {
# 		has_province_modifier = allclan_allclan_artifice_mining_industrial_material						
# 		has_province_modifier = allclan_artifice_mining_salt							
# 		has_province_modifier = allclan_artifice_mining_glass							
# 		has_province_modifier = allclan_artifice_mining_gems							
# 		has_province_modifier = allclan_artifice_mining_artifice_material							
# 		has_province_modifier = allclan_artifice_mining_mithril
# 		has_province_modifier = allclan_artifice_mining_gold
# 	}
# 	has_valid_artifice_mining_good = yes
# }

# allclan_developed_hold = {
# 	OR = {
# 		has_terrain = dwarven_hold
# 		has_terrain = dwarven_hold_surface
# 	}
# 	has_province_modifier = allclan_hold_mega_industry
# 	OR = {
# 		has_province_modifier = allclan_factory_farm_food
# 		has_province_modifier = allclan_factory_farm_cash_crops
# 		has_province_modifier = allclan_factory_farm_spidersilk
# 		#mining
# 		has_province_modifier = allclan_allclan_artifice_mining_industrial_material	
# 		has_province_modifier = allclan_artifice_mining_salt							
# 		has_province_modifier = allclan_artifice_mining_glass							
# 		has_province_modifier = allclan_artifice_mining_gems							
# 		has_province_modifier = allclan_artifice_mining_artifice_material							
# 		has_province_modifier = allclan_artifice_mining_mithril
# 		has_province_modifier = allclan_artifice_mining_gold
# 	}
# }

# allclan_primed_cavern = {
# 	has_terrain = cavern
# 	has_province_modifier = allclan_quarried_cavern
# }

# allclan_primed_road = {
# 	has_terrain = dwarven_road
# 	has_province_modifier = rocket_rail
# }

# allclan_not_pursuing_major_project = {
# 	custom_trigger_tooltip = {
# 		tooltip = allclan_not_pursuing_a_major_project_tt
# 		NOT = {
# 			has_country_flag = allclan_project_cooldown
# 		}
# 	}
# }

#Hul-az-Krakazol
krakazol_is_drunk = {
	[[Drunk]
		custom_trigger_tooltip = {
			tooltip = krakazol_is_drunk_tooltip
			OR = {
				has_ruler_modifier = krakazol_drinking_tipsy
				has_ruler_modifier = krakazol_drinking_drunk
				has_ruler_modifier = krakazol_drinking_hammered
			}
		}
	]
	[[Sober]
		custom_trigger_tooltip = {
			tooltip = krakazol_is_not_drunk_tooltip
			NOT = {
				has_ruler_modifier = krakazol_drinking_tipsy
				has_ruler_modifier = krakazol_drinking_drunk
				has_ruler_modifier = krakazol_drinking_hammered
			}
		}
	]
}

krakazol_has_ruler_ale_modifier_lvl = {
	krakazol_is_drunk = { Drunk = yes }
	custom_trigger_tooltip = {
		tooltip = krakazol_has_ruler_ale_modifier_lvl_$lvl$_tooltip
		check_variable = { drink_lvl = $lvl$ }
	}
}

krakazol_drunk_diplomacy = {
	custom_trigger_tooltip = {
		tooltip = krakazol_drunk_diplomacy_tooltip
		has_opinion_modifier = { who = I20 modifier = scornfully_insulted }
		has_opinion_modifier = { who = I20 modifier = opinion_krakazol_drunk_insult }
	}
}


siadan_valid_harpy_brothel_province = {
	NOT = { has_province_modifier = siadan_barrack_brothel }
	has_manpower_building_trigger = yes
	has_courthouse_building_trigger = yes
	NOT = { culture_is_harpy = yes }

	num_of_units_in_province = {
		who = ROOT
		amount = 1
	}
}

# Verkal Ozovar

Y63_minor_rune_active = {
	custom_trigger_tooltip = {
		tooltip = Y63_minor_rune_active_tt
		OR = {
			has_country_modifier = Y63_minor_rune_argzana
			has_country_modifier = Y63_minor_rune_jolkin_kanzad
			has_country_modifier = Y63_minor_rune_runic_ward
			has_country_modifier = Y63_minor_rune_gulan_amekh
			has_country_modifier = Y63_minor_rune_dorumhum
			has_country_modifier = Y63_minor_rune_kozenorl
			has_country_modifier = Y63_minor_rune_jolkinbroth
		}
	}
}

Y63_grand_rune_active = {
	custom_trigger_tooltip = {
		tooltip = Y63_grand_rune_active_tt
		OR = {
			has_estate_privilege = estate_mages_grand_rune_amekh
			has_estate_privilege = estate_mages_grand_rune_guntir
			has_estate_privilege = estate_mages_grand_rune_jolkin
			has_estate_privilege = estate_mages_grand_rune_krakdhum
			has_estate_privilege = estate_mages_grand_rune_haln
			has_estate_privilege = estate_mages_grand_rune_kron
			has_estate_privilege = estate_mages_grand_rune_dauth
			has_estate_privilege = estate_mages_grand_rune_kanzad
			has_estate_privilege = estate_mages_grand_rune_bal
		}
	}
}

# Dur-Vazhatun

#LastOfTheMaya added these, but I repurposed his stuff into my own tooltips. Unsure if these are still needed or not. -Druplesnubb
vazhatun_has_knowledge_tt = {
	custom_trigger_tooltip = {
		tooltip = $TOOLTIP$
		check_variable = {
			which = vazhatun_astral_knowledge
			value = $AMOUNT$
		}
	}
}

vazhatun_has_knowledge = {
	[[amount_1] vazhatun_has_knowledge_tt = { TOOLTIP = vazhatun_has_1_astral_knowledge_tt AMOUNT = 1 } ]
	[[amount_5] vazhatun_has_knowledge_tt = { TOOLTIP = vazhatun_has_5_astral_knowledge_tt AMOUNT = 5 } ]
	[[amount_10] vazhatun_has_knowledge_tt = { TOOLTIP = vazhatun_has_10_astral_knowledge_tt AMOUNT = 10 } ]
	[[amount_15] vazhatun_has_knowledge_tt = { TOOLTIP = vazhatun_has_15_astral_knowledge_tt AMOUNT = 15 } ]
	[[amount_20] vazhatun_has_knowledge_tt = { TOOLTIP = vazhatun_has_20_astral_knowledge_tt AMOUNT = 20 } ]
	[[amount_25] vazhatun_has_knowledge_tt = { TOOLTIP = vazhatun_has_25_astral_knowledge_tt AMOUNT = 25 } ]
	[[amount_30] vazhatun_has_knowledge_tt = { TOOLTIP = vazhatun_has_30_astral_knowledge_tt AMOUNT = 30 } ]
	[[amount_45] vazhatun_has_knowledge_tt = { TOOLTIP = vazhatun_has_45_astral_knowledge_tt AMOUNT = 45 } ]
	[[amount_50] vazhatun_has_knowledge_tt = { TOOLTIP = vazhatun_has_50_astral_knowledge_tt AMOUNT = 50 } ]
	[[amount_65] vazhatun_has_knowledge_tt = { TOOLTIP = vazhatun_has_65_astral_knowledge_tt AMOUNT = 65 } ]
	[[amount_90] vazhatun_has_knowledge_tt = { TOOLTIP = vazhatun_has_90_astral_knowledge_tt AMOUNT = 90 } ]
	[[amount_115] vazhatun_has_knowledge_tt = { TOOLTIP = vazhatun_has_115_astral_knowledge_tt AMOUNT = 115 } ]
	[[amount_140] vazhatun_has_knowledge_tt = { TOOLTIP = vazhatun_has_140_astral_knowledge_tt AMOUNT = 140 } ]
	[[amount_180] vazhatun_has_knowledge_tt = { TOOLTIP = vazhatun_has_180_astral_knowledge_tt AMOUNT = 180 } ]
	[[amount_220] vazhatun_has_knowledge_tt = { TOOLTIP = vazhatun_has_220_astral_knowledge_tt AMOUNT = 220 } ]
	[[amount_260] vazhatun_has_knowledge_tt = { TOOLTIP = vazhatun_has_260_astral_knowledge_tt AMOUNT = 260 } ]
	[[amount_300] vazhatun_has_knowledge_tt = { TOOLTIP = vazhatun_has_300_astral_knowledge_tt AMOUNT = 300 } ]
}

#Cestirmark
cestirmark_no_concord_influence = {
	custom_trigger_tooltip = {
		tooltip = H33_no_concord_influence_tt
		NOT = {
			has_country_flag = in_concord_debate
			has_country_modifier = H33_concord_cestirmark_influence
			has_country_modifier = H33_concord_marlliande_influence
			has_country_modifier = H33_concord_zanlib_influence
			has_country_modifier = H33_concord_isobelin_influence
			has_country_modifier = H33_concord_thilvis_influence
			has_country_modifier = H33_concord_valorpoint_influence
		}
	}
}

cestirmark_valid_ynnic_sister_republic = {
	OR = {
		any_known_country = {
			custom_trigger_tooltip = {
				tooltip = H33_republic_$region$_tt
				capital_scope = { colonial_region = colonial_$region$ }
				government = republic
			}
			custom_trigger_tooltip = {
				tooltip = H33_100_improved_relations_tt
				has_opinion_modifier = { who = ROOT modifier = improved_relation value = 100 }
			}
			OR = {
				AND = {
					is_subject = no
					if = {
						limit = { ROOT = { is_great_power = yes } }
						custom_trigger_tooltip = {
							tooltip = H33_great_power_influence_tt
							has_opinion_modifier = { who = ROOT modifier = great_power_influence }
						}				
					} else = {
						custom_trigger_tooltip = {
							tooltip = H33_big_pp_tt
							ROOT = { power_projection = 40 }
						}
					}
				}
				is_subject_of = ROOT
			}
		}
		custom_trigger_tooltip = {
			tooltip = H33_no_valid_sister_republic_tt
			NOT = {
				any_known_country = {
					capital_scope = { colonial_region = colonial_$region$ }
					OR = {
						is_subject = no
						is_subject_of = ROOT
					}
					government = republic
				}
			}
		}
	}
}