

namespace = colonial_culture

# Colonial Culture Change for non-adventurer spawnables, adventurers should use marcher.2 in AdventurerFormables
country_event = {
	id = colonial_culture.1
	title = colonial_culture.1.t
	desc = colonial_culture.1.d
	picture = EUROPEAN_REFUGEES_eventPicture

	is_triggered_only = yes
	
	trigger = {
		has_country_flag = aelantir_spawnable
		
		NOT = {
			tag = H37 #Themaria
			tag = G90 #Asraport
			tag = G98 #CTC
			tag = G99 #DTC
			tag = H39 #Ozgarom
			tag = H30 #Harafe Guys
			tag = H31
			tag = H32
			tag = H50 #Varbuk's Freemen
			tag = H51 #Freemarches
		}
		
		NOT = { has_country_flag = new_colonial_culture }
	}
	
	#TROLLSBAY
	
	option = { #Valorpoint
		name = colonial_culture.1.a
		trigger = {
			OR = {
				tag = H36
				was_tag = H36
			}
		}
		
		ai_chance = {
			factor = 1000
		}
		
		hidden_effect = {
			every_core_province = {
				limit = { 
					OR = {
						continent = north_america
						continent = south_america
					}
				}
				trollsbay_cultures = yes
			}
		}
		
		if = {
			limit = { ruler_culture = ROOT }
			set_ruler_culture = valorman
		}
		if = {
			limit = { has_heir = yes heir_culture = ROOT }
			set_heir_culture = valorman
		}
		if = {
			limit = { has_consort = yes consort_culture = ROOT }
			set_consort_culture = valorman
		}
		
		set_country_flag = new_colonial_culture
		
		change_primary_culture = valorman
		
		add_country_modifier = {
			name = birth_of_a_new_people 
			duration = 3650
		}
		custom_tooltip = birth_of_a_new_people_prov_mod_tt
		hidden_effect = {
			every_owned_province = {
				add_permanent_province_modifier = {
					name = birth_of_a_new_people_prov_mod
					duration = 3650
				}
			}
		}
		
		hidden_effect = {	#TODO: Valorborn getting racist against non mestizos
			subtract_variable = {
				which = elven_race_tolerance_ai
				value = 10
			}
			subtract_variable = {	#Does NOT represent half-Ruinborn
				which = half_elven_race_tolerance_ai
				value = 10
			}
		}
	}
	
	option = { #Thilvis
		name = colonial_culture.1.a
		trigger = {
			OR = {
				tag = G96
				was_tag = G96
			}
		}
		
		ai_chance = {
			factor = 1000
		}
		
		hidden_effect = {
			every_core_province = {
				limit = { 
					OR = {
						continent = north_america
						continent = south_america
					}
				}
				trollsbay_cultures = yes
			}
		}
		
		if = {
			limit = { ruler_culture = ROOT }
			set_ruler_culture = towerfoot_halfling
		}
		if = {
			limit = { has_heir = yes heir_culture = ROOT }
			set_heir_culture = towerfoot_halfling
		}
		if = {
			limit = { has_consort = yes consort_culture = ROOT }
			set_consort_culture = towerfoot_halfling
		}
		
		set_country_flag = new_colonial_culture
		
		change_primary_culture = towerfoot_halfling
		
		add_country_modifier = {
			name = birth_of_a_new_people 
			duration = 3650
		}
		custom_tooltip = birth_of_a_new_people_prov_mod_tt
		hidden_effect = {
			every_owned_province = {
				add_permanent_province_modifier = {
					name = birth_of_a_new_people_prov_mod
					duration = 3650
				}
			}
		}
		
		hidden_effect = {
			change_variable = {		#Humans and halflings get accustomed
				which = human_race_tolerance_ai
				value = 10
			}
			change_variable = {		#Get also accustomed to Ruinborn
				which = ruinborn_race_tolerance_ai
				value = 5
			}
			subtract_variable = {	#Elves and half-elves become less prominent than in Cannor. War with Aelnar possibly worsens their opinion of elves
				which = elven_race_tolerance_ai
				value = 10
			}
			subtract_variable = {
				which = half_elven_race_tolerance_ai
				value = 10
			}
		}
	}
	
	option = { # Isobelin
		name = colonial_culture.1.a
		trigger = {
			OR = {
				tag = G91
				was_tag = G91
			}
		}
		
		ai_chance = {
			factor = 1000
		}
		
		hidden_effect = {
			every_core_province = {
				limit = { 
					OR = {
						continent = north_america
						continent = south_america
					}
				}
				trollsbay_cultures = yes
			}
		}
		
		if = {
			limit = { ruler_culture = ROOT }
			set_ruler_culture = isobeliner
		}
		if = {
			limit = { has_heir = yes heir_culture = ROOT }
			set_heir_culture = isobeliner
		}
		if = {
			limit = { has_consort = yes consort_culture = ROOT }
			set_consort_culture = isobeliner
		}
		
		set_country_flag = new_colonial_culture
		
		change_primary_culture = isobeliner
		
		add_country_modifier = {
			name = birth_of_a_new_people 
			duration = 3650
		}
		custom_tooltip = birth_of_a_new_people_prov_mod_tt
		hidden_effect = {
			every_owned_province = {
				add_permanent_province_modifier = {
					name = birth_of_a_new_people_prov_mod
					duration = 3650
				}
			}
		}
		
		hidden_effect = {
			change_variable = {		#Humans and halflings get accustomed
				which = halfling_race_tolerance_ai
				value = 10
			}
			change_variable = {		#Get also accustomed to Ruinborn
				which = ruinborn_race_tolerance_ai
				value = 5
			}
		}
	}
	
	option = { # Zanlib
		name = colonial_culture.1.a
		trigger = {
			OR = {
				tag = H38
				was_tag = H38
			}
		}
		
		ai_chance = {
			factor = 1000
		}
		
		hidden_effect = {
			every_core_province = {
				limit = { 
					OR = {
						continent = north_america
						continent = south_america
					}
				}
				trollsbay_cultures = yes
			}
		}
		
		if = {
			limit = { ruler_culture = ROOT }
			set_ruler_culture = zanlibi
		}
		if = {
			limit = { has_heir = yes heir_culture = ROOT }
			set_heir_culture = zanlibi
		}
		if = {
			limit = { has_consort = yes consort_culture = ROOT }
			set_consort_culture = zanlibi
		}
		
		set_country_flag = new_colonial_culture
		
		change_primary_culture = zanlibi
		
		add_country_modifier = {
			name = birth_of_a_new_people 
			duration = 3650
		}
		custom_tooltip = birth_of_a_new_people_prov_mod_tt
		hidden_effect = {
			every_owned_province = {
				add_permanent_province_modifier = {
					name = birth_of_a_new_people_prov_mod
					duration = 3650
				}
			}
		}
	}
	
	option = { # Marlliande
		name = colonial_culture.1.a
		trigger = {
			OR = {
				tag = G95
				was_tag = G95
			}
		}
		
		ai_chance = {
			factor = 1000
		}
		
		hidden_effect = {
			every_core_province = {
				limit = { 
					OR = {
						continent = north_america
						continent = south_america
					}
				}
				trollsbay_cultures = yes
			}
		}
		
		if = {
			limit = { ruler_culture = ROOT }
			set_ruler_culture = marlliander
		}
		if = {
			limit = { has_heir = yes heir_culture = ROOT }
			set_heir_culture = marlliander
		}
		if = {
			limit = { has_consort = yes consort_culture = ROOT }
			set_consort_culture = marlliander
		}
		
		set_country_flag = new_colonial_culture
		
		change_primary_culture = marlliander
		
		add_country_modifier = {
			name = birth_of_a_new_people 
			duration = 3650
		}
		custom_tooltip = birth_of_a_new_people_prov_mod_tt
		hidden_effect = {
			every_owned_province = {
				add_permanent_province_modifier = {
					name = birth_of_a_new_people_prov_mod
					duration = 3650
				}
			}
		}
		
		hidden_effect = {
			change_variable = {		#Humans and halflings get accustomed
				which = halfling_race_tolerance_ai
				value = 10
			}
			change_variable = {		#Get also accustomed to Ruinborn
				which = ruinborn_race_tolerance_ai
				value = 5
			}
			subtract_variable = {	#Elves and half-elves become less prominent than in Cannor. War with Aelnar possibly worsens their opinion of elves
				which = elven_race_tolerance_ai
				value = 10
			}
			subtract_variable = {
				which = half_elven_race_tolerance_ai
				value = 10
			}
		}
	}
	
	option = { # Cestirmark
		name = colonial_culture.1.a
		trigger = {
			OR = {
				tag = H33
				was_tag = H33
			}
		}
		
		ai_chance = {
			factor = 1000
		}
		
		hidden_effect = {
			every_core_province = {
				limit = { 
					OR = {
						continent = north_america
						continent = south_america
					}
				}
				trollsbay_cultures = yes
			}
		}
		
		if = {
			limit = { ruler_culture = ROOT }
			set_ruler_culture = cestirmarker
		}
		if = {
			limit = { has_heir = yes heir_culture = ROOT }
			set_heir_culture = cestirmarker
		}
		if = {
			limit = { has_consort = yes consort_culture = ROOT }
			set_consort_culture = cestirmarker
		}
		
		set_country_flag = new_colonial_culture
		
		change_primary_culture = cestirmarker
		
		add_country_modifier = {
			name = birth_of_a_new_people 
			duration = 3650
		}
		custom_tooltip = birth_of_a_new_people_prov_mod_tt
		hidden_effect = {
			every_owned_province = {
				add_permanent_province_modifier = {
					name = birth_of_a_new_people_prov_mod
					duration = 3650
				}
			}
		}
		
		hidden_effect = {
			change_variable = {		#Humans and halflings get accustomed
				which = halfling_race_tolerance_ai
				value = 10
			}
			change_variable = {		#Get also accustomed to Ruinborn
				which = ruinborn_race_tolerance_ai
				value = 5
			}
			subtract_variable = {	#Elves and half-elves become less prominent than in Cannor. War with Aelnar possibly worsens their opinion of elves
				which = elven_race_tolerance_ai
				value = 10
			}
			subtract_variable = {
				which = half_elven_race_tolerance_ai
				value = 10
			}
		}
	}
	
	#YNN RIVER VALLEY
	
	option = { # Ebenmas
		name = colonial_culture.1.c
		trigger = {
			OR = {
				tag = H34
				was_tag = H34
			}
		}
		
		ai_chance = {
			factor = 1000
		}
		
		hidden_effect = {
			every_core_province = {
				limit = { 
					continent = north_america
					OR = {
						culture = ROOT
						# colonial_region = colonial_ynn
						colonial_region = colonial_upper_ynn
						colonial_region = colonial_lower_ynn
						colonial_region = colonial_expanse
					}
				}
				ynn_cultures = yes
			}
		}
		
		if = {
			limit = { ruler_culture = ROOT }
			set_ruler_culture = ebenmasser
		}
		if = {
			limit = { has_heir = yes heir_culture = ROOT }
			set_heir_culture = ebenmasser
		}
		if = {
			limit = { has_consort = yes consort_culture = ROOT }
			set_consort_culture = ebenmasser
		}
		
		set_country_flag = new_colonial_culture
		
		change_primary_culture = ebenmasser
		
		add_country_modifier = {
			name = birth_of_a_new_people 
			duration = 3650
		}
		custom_tooltip = birth_of_a_new_people_prov_mod_tt
		hidden_effect = {
			every_owned_province = {
				add_permanent_province_modifier = {
					name = birth_of_a_new_people_prov_mod
					duration = 3650
				}
			}
		}
		
		hidden_effect = {
			change_variable = {		#Get accustomed to Ruinborn
				which = ruinborn_race_tolerance_ai
				value = 10
			}
			subtract_variable = {	#Elves and half-elves become less prominent than in Cannor.
				which = elven_race_tolerance_ai
				value = 5
			}
			subtract_variable = {	#Does NOT include half-ruinborn
				which = half_elven_race_tolerance_ai
				value = 5
			}
		}
	}
	
	option = { # Corinsfield
		name = colonial_culture.1.a
		trigger = {
			OR = {
				tag = H35
				was_tag = H35
			}
		}
		
		ai_chance = {
			factor = 1000
		}
		
		hidden_effect = {
			every_core_province = {
				limit = { 
					continent = north_america
					OR = {
						culture = ROOT
						# colonial_region = colonial_ynn
						colonial_region = colonial_upper_ynn
						colonial_region = colonial_lower_ynn
						colonial_region = colonial_expanse
					}
				}
				ynn_cultures = yes
			}
		}
		
		if = {
			limit = { ruler_culture = ROOT }
			set_ruler_culture = corinsfielder
		}
		if = {
			limit = { has_heir = yes heir_culture = ROOT }
			set_heir_culture = corinsfielder
		}
		if = {
			limit = { has_consort = yes consort_culture = ROOT }
			set_consort_culture = corinsfielder
		}
		
		set_country_flag = new_colonial_culture
		
		change_primary_culture = corinsfielder
		
		add_country_modifier = {
			name = birth_of_a_new_people 
			duration = 3650
		}
		custom_tooltip = birth_of_a_new_people_prov_mod_tt
		hidden_effect = {
			every_owned_province = {
				add_permanent_province_modifier = {
					name = birth_of_a_new_people_prov_mod
					duration = 3650
				}
			}
		}
		
		hidden_effect = {
			subtract_variable = {	#Elves and half-elves become less prominent than in Cannor. Also hates anything magical
				which = elven_race_tolerance_ai
				value = 20
			}
			subtract_variable = {
				which = half_elven_race_tolerance_ai
				value = 20
			}
		}
	}
	
	option = { # Balgabar
		name = colonial_culture.1.a
		trigger = {
			OR = {
				tag = G94
				was_tag = G94
			}
		}
		
		ai_chance = {
			factor = 1000
		}
		
		hidden_effect = {
			every_core_province = {
				limit = { 
					continent = north_america
					OR = {
						culture = ROOT
						# colonial_region = colonial_ynn
						colonial_region = colonial_upper_ynn
						colonial_region = colonial_lower_ynn
						colonial_region = colonial_expanse
					}
				}
				ynn_cultures = yes
			}
		}
		
		if = {
			limit = { ruler_culture = ROOT }
			set_ruler_culture = steel_dwarf
		}
		if = {
			limit = { has_heir = yes heir_culture = ROOT }
			set_heir_culture = steel_dwarf
		}
		if = {
			limit = { has_consort = yes consort_culture = ROOT }
			set_consort_culture = steel_dwarf
		}
		
		set_country_flag = new_colonial_culture
		
		change_primary_culture = steel_dwarf
		
		add_country_modifier = {
			name = birth_of_a_new_people 
			duration = 3650
		}
		custom_tooltip = birth_of_a_new_people_prov_mod_tt
		hidden_effect = {
			every_owned_province = {
				add_permanent_province_modifier = {
					name = birth_of_a_new_people_prov_mod
					duration = 3650
				}
			}
		}
		
		hidden_effect = {
			change_variable = {		#Get accustomed to Ruinborn
				which = ruinborn_race_tolerance_ai
				value = 10
			}
			subtract_variable = {	#Elves and half-elves become less prominent than in Cannor.
				which = elven_race_tolerance_ai
				value = 5
			}
			subtract_variable = {	#Does NOT include half-ruinborn
				which = half_elven_race_tolerance_ai
				value = 5
			}
		}
	}
	
	option = { # Vanbury Guild
		name = colonial_culture.1.a
		trigger = {
			OR = {
				tag = G97
				was_tag = G97
			}
		}
		
		ai_chance = {
			factor = 1000
		}
		
		hidden_effect = {
			every_core_province = { 
				limit = {
					culture_group = ROOT
				}
				change_culture = vanburian
			}
		}
		
		if = {
			limit = { ruler_culture = ROOT }
			set_ruler_culture = vanburian
		}
		if = {
			limit = { has_heir = yes heir_culture = ROOT }
			set_heir_culture = vanburian
		}
		if = {
			limit = { has_consort = yes consort_culture = ROOT }
			set_consort_culture = vanburian
		}
		
		set_country_flag = new_colonial_culture
		
		change_primary_culture = vanburian
		
		add_country_modifier = {
			name = birth_of_a_new_people 
			duration = 3650
		}
		custom_tooltip = birth_of_a_new_people_prov_mod_tt
		hidden_effect = {
			every_owned_province = {
				add_permanent_province_modifier = {
					name = birth_of_a_new_people_prov_mod
					duration = 3650
				}
			}
		}
	}
	
	option = { # Mykx
		name = colonial_culture.1.a
		trigger = {
			OR = {
				tag = G93
				was_tag = G93
			}
		}
		
		ai_chance = {
			factor = 1000
		}
		
		hidden_effect = {
			every_core_province = { 
				limit = {
					culture_group = ROOT
				}
				change_culture = ruinscourge_gnoll
			}
		}
		
		if = {
			limit = { ruler_culture = ROOT }
			set_ruler_culture = ruinscourge_gnoll
		}
		if = {
			limit = { has_heir = yes heir_culture = ROOT }
			set_heir_culture = ruinscourge_gnoll
		}
		if = {
			limit = { has_consort = yes consort_culture = ROOT }
			set_consort_culture = ruinscourge_gnoll
		}
		
		set_country_flag = new_colonial_culture
		
		change_primary_culture = ruinscourge_gnoll
		
		add_country_modifier = {
			name = birth_of_a_new_people 
			duration = 3650
		}
		custom_tooltip = birth_of_a_new_people_prov_mod_tt
		hidden_effect = {
			every_owned_province = {
				add_permanent_province_modifier = {
					name = birth_of_a_new_people_prov_mod
					duration = 3650
				}
			}
		}
	}
	option = { # Asraport
		name = colonial_culture.1.a
		trigger = {
			OR = {
				tag = G90
				was_tag = G90
			}
		}
		
		ai_chance = {
			factor = 1000
		}
		
		hidden_effect = {
			every_core_province = { 
				limit = {
					culture_group = ROOT
				}
				change_culture = alloy_dwarf
			}
		}
		
		if = {
			limit = { ruler_culture = ROOT }
			set_ruler_culture = alloy_dwarf
		}
		if = {
			limit = { has_heir = yes heir_culture = ROOT }
			set_heir_culture = alloy_dwarf
		}
		if = {
			limit = { has_consort = yes consort_culture = ROOT }
			set_consort_culture = alloy_dwarf
		}
		
		set_country_flag = new_colonial_culture
		
		change_primary_culture = alloy_dwarf
		
		add_country_modifier = {
			name = birth_of_a_new_people 
			duration = 3650
		}
		custom_tooltip = birth_of_a_new_people_prov_mod_tt
		hidden_effect = {
			every_owned_province = {
				add_permanent_province_modifier = {
					name = birth_of_a_new_people_prov_mod
					duration = 3650
				}
			}
		}
	}
	
	option = { # Resist cultural change
		name = colonial_culture.1.b
		ai_chance = {
			factor = 1
		}
		
		add_prestige = -10
		
		set_country_flag = new_colonial_culture
	}
}