
namespace = fahvanosy

#ananoma repair
country_event = {
	id = fahvanosy.1
	title = fahvanosy.1.t
	desc = fahvanosy.1.d
	picture = WAR_OF_THE_ROSES_eventPicture
	

	is_triggered_only = yes
	immediate = {
		hidden_effect = { set_country_flag = ananoma_repair_menu }
	}
	
	option = {		
		name = "fahvanosy.1.a"
		trigger = { 
			5758 = { 
				owned_by = ROOT
				is_city = yes
				is_core = ROOT
				NOT = {
					AND = {
						has_province_flag = ananoma_down
						NOT = {
							ROOT = {
								culture_group = vyzemby
							}
						}
					}
					OR = {
						has_province_modifier = ananoma_standart
						has_province_modifier = ananoma_improved
						has_province_modifier = ananoma_improved_more
						has_construction = any
						has_construction = army
					}
				}
			}	
		}
		goto = 5758
		5758 = {
			add_province_triggered_modifier = ananoma_construction

			if = {
				limit = { owner = { culture_group = vyzemby } }
				add_building_construction = {
					building = ananoma_repair
					speed = 1
					cost = 1
				}
				
			}
			else = {
				add_building_construction = {
					building = ananoma_repair
					speed = 2
					cost = 2
				}
			}
		}
	}
	option = {		
		name = "fahvanosy.1.b"
		trigger = { 
			5763 = { 
				is_city = yes
				is_core = ROOT
				owned_by = ROOT
				NOT = {
					AND = {
						has_province_flag = ananoma_down
						NOT = {
							ROOT = {
								culture_group = vyzemby
							}
						}
					}
					OR = {
						has_province_modifier = ananoma_standart
						has_province_modifier = ananoma_improved
						has_province_modifier = ananoma_improved_more
						has_construction = any
						has_construction = army
					}
				}
			}				
		}
		goto = 5763
		5763 = {
			add_province_triggered_modifier =  ananoma_construction

			if = {
				limit = { owner = { culture_group = vyzemby } }
				add_building_construction = {
					building = ananoma_repair
					speed = 1
					cost = 1
				}
				
			}
			else = {
				add_building_construction = {
					building = ananoma_repair
					speed = 2
					cost = 2
				}
			}
		}
	}
	option = {		
		name = "fahvanosy.1.c"
		trigger = { 
			5710 = { 
				owned_by = ROOT
				is_city = yes
				is_core = ROOT
				NOT = {
					AND = {
						has_province_flag = ananoma_down
						NOT = {
							ROOT = {
								culture_group = vyzemby
							}
						}
					}
					OR = {
						has_province_modifier = ananoma_standart
						has_province_modifier = ananoma_improved
						has_province_modifier = ananoma_improved_more
						has_construction = any
						has_construction = army
					}
				}
			}
		
		}
		goto = 5710
		5710 = {
			add_province_triggered_modifier = ananoma_construction
			if = {
				limit = { owner = { culture_group = vyzemby } }
				add_building_construction = {
					building = ananoma_repair
					speed = 1
					cost = 1
				}
				
			}
			else = {
				add_building_construction = {
					building = ananoma_repair
					speed = 2
					cost = 2
				}
			}
		}
	}
	option = {		
		name = "fahvanosy.1.d"
		trigger = { 
			5840 = { 
				owned_by = ROOT
				is_city = yes
				is_core = ROOT
				NOT = {
					AND = {
						has_province_flag = ananoma_down
						NOT = {
							ROOT = {
								culture_group = vyzemby
							}
						}
					}
					OR = {
						has_province_modifier = ananoma_standart
						has_province_modifier = ananoma_improved
						has_province_modifier = ananoma_improved_more
						has_construction = any
						has_construction = army
					}
				}
			}
		}
		goto = 5840
		5840 = {
			add_province_triggered_modifier = ananoma_construction
			
			if = {
				limit = { owner = { culture_group = vyzemby } }
				add_building_construction = {
					building = ananoma_repair
					speed = 1
					cost = 1
				}
				
			}
			else = {
				add_building_construction = {
					building = ananoma_repair
					speed = 2
					cost = 2
				}
			}
		}
	}
	option = {		
		name = "fahvanosy.1.e"
		trigger = { 
			5845 = { 
				owned_by = ROOT
				is_city = yes
				is_core = ROOT
				NOT = {
					AND = {
						has_province_flag = ananoma_down
						NOT = {
							ROOT = {
								culture_group = vyzemby
							}
						}
					}
					OR = {
						has_province_modifier = ananoma_standart
						has_province_modifier = ananoma_improved
						has_province_modifier = ananoma_improved_more
						has_construction = any
						has_construction = army
					}
				}
			}
		}
		goto = 5845
		5845 = {
			add_province_triggered_modifier = ananoma_construction				
			if = {
				limit = { owner = { culture_group = vyzemby } }
				add_building_construction = {
					building = ananoma_repair
					speed = 1
					cost = 1
				}
				
			}
			else = {
				add_building_construction = {
					building = ananoma_repair
					speed = 2
					cost = 2
				}
			}
		}
	}
	option = {		
		name = "fahvanosy.1.f"
		trigger = { 
			5758 = { 
				owned_by = ROOT
				is_city = yes
				is_core = ROOT
				NOT = {						
					owner = { culture_group = vyzemby }
					OR = {
						has_province_modifier = ananoma_dilapidated
						has_province_modifier = ananoma_improved
						has_province_modifier = ananoma_improved_more
						has_construction = any
						has_construction = army
					}
				}
			}	
		}
		goto = 5758
		5758 = {
			add_building_construction = {
				building = ananoma_repair
				speed = 2
				cost = 2
			}
			add_province_triggered_modifier = ananoma_construction

		}
	}
	option = {		
		name = "fahvanosy.1.g"
		trigger = { 
			5763 = { 
				owned_by = ROOT
				owner = { culture_group = vyzemby }
				is_city = yes
				is_core = ROOT
				NOT = {
					
					OR = {
						has_province_modifier = ananoma_dilapidated
						has_province_modifier = ananoma_improved
						has_province_modifier = ananoma_improved_more
						has_construction = any
					}
					
				}
			}
		}
		goto = 5763
		5763 = {
			add_building_construction = {
				building = ananoma_repair
				speed = 2
				cost = 2
			}
			add_province_triggered_modifier = ananoma_construction
		}
	}
	option = {		
		name = "fahvanosy.1.h"
		trigger = { 
			5710 = { 
				
				owned_by = ROOT
				is_city = yes
				is_core = ROOT
				owner = { culture_group = vyzemby }
				NOT = {
					
					OR = {
						has_province_modifier = ananoma_dilapidated
						has_province_modifier = ananoma_improved
						has_province_modifier = ananoma_improved_more
						has_construction = any

					}
				}
			}
		
		}
		goto = 5710
		5710 = {
			add_building_construction = {
				building = ananoma_repair
				speed = 2
				cost = 2
			}
			add_province_triggered_modifier = ananoma_construction
		}
	}
	option = {		
		name = "fahvanosy.1.i"
		trigger = { 
			5840 = { 
				is_city = yes
				is_core = ROOT
				owned_by = ROOT
				owner = { culture_group = vyzemby }
				NOT = {
					
					OR = {
						has_province_modifier = ananoma_dilapidated
						has_province_modifier = ananoma_improved
						has_province_modifier = ananoma_improved_more
						has_construction = any

					}
				}
			}
		}
		goto = 5840
		5840 = {
			add_building_construction = {
				building = ananoma_repair
				speed = 2
				cost = 2
			}
			add_province_triggered_modifier = ananoma_construction
		}
	}
	option = {		
		name = "fahvanosy.1.k"
		trigger = { 
			5845 = { 
				owned_by = ROOT
				is_city = yes
				is_core = ROOT
				owner = { culture_group = vyzemby }
				NOT = {
					
					OR = {
						has_province_modifier = ananoma_dilapidated
						has_province_modifier = ananoma_improved
						has_province_modifier = ananoma_improved_more
						has_construction = any

					}
				}
			}
		}
		goto = 5845
		5845 = {
			add_building_construction = {
				building = ananoma_repair
				speed = 2
				cost = 2
			}
			add_province_triggered_modifier = ananoma_construction
		}
	}
	option = {
        name = fahvanosy.1.l
        ai_chance = { factor = 0 }
	}
	after = {
		clr_country_flag = ananoma_repair_menu
	}
	
}

#Ananoma upgrade
country_event = {
	id = fahvanosy.2
	title = fahvanosy.2.t
	desc = fahvanosy.2.d
	picture = WAR_OF_THE_ROSES_eventPicture
	

	is_triggered_only = yes
	immediate = {
		hidden_effect = { set_country_flag = ananoma_repair_menu }
	}
	
	option = {		
		name = "fahvanosy.2.a"
		trigger = { 
			5758 = { 
				owned_by = ROOT
				is_city = yes
				is_core = ROOT
				NOT = {						
					
					OR = {
						has_province_modifier = ananoma_dilapidated
						has_province_modifier = ananoma_improved
						has_province_modifier = ananoma_improved_more
						has_construction = any
						has_construction = army
					}
				}
			}	
		}
		goto = 5758
		5758 = {
			add_building_construction = {
				building = ananoma_repair
				speed = 2
				cost = 2
			}
			add_province_triggered_modifier =  ananoma_construction

		}
	}
	option = {		
		name = "fahvanosy.2.b"
		trigger = { 
			5763 = { 
				owned_by = ROOT
				
				is_city = yes
				is_core = ROOT
				NOT = {
					
					OR = {
						has_province_modifier = ananoma_dilapidated
						has_province_modifier = ananoma_improved
						has_province_modifier = ananoma_improved_more
						has_construction = any
						has_construction = army
					}
					
				}
			}
		}
		goto = 5763
		5763 = {
			add_building_construction = {
				building = ananoma_repair
				speed = 2
				cost = 2
			}
			add_province_triggered_modifier = ananoma_construction
		}
	}
	option = {		
		name = "fahvanosy.2.c"
		trigger = { 
			5710 = { 
				
				owned_by = ROOT
				is_city = yes
				is_core = ROOT
				NOT = {
					
					OR = {
						has_province_modifier = ananoma_dilapidated
						has_province_modifier = ananoma_improved
						has_province_modifier = ananoma_improved_more
						has_construction = any
						has_construction = army
					}
				}
			}
		
		}
		goto = 5710
		5710 = {
			add_building_construction = {
				building = ananoma_repair
				speed = 2
				cost = 2
			}
			add_province_triggered_modifier = ananoma_construction
		}
	}
	option = {		
		name = "fahvanosy.2.d"
		trigger = { 
			5840 = { 
				is_city = yes
				is_core = ROOT
				owned_by = ROOT
				NOT = {
					
					OR = {
						has_province_modifier = ananoma_dilapidated
						has_province_modifier = ananoma_improved
						has_province_modifier = ananoma_improved_more
						has_construction = any
						has_construction = army
					}
				}
			}
		}
		goto = 5840
		5840 = {
			add_building_construction = {
				building = ananoma_repair
				speed = 2
				cost = 2
			}
			add_province_triggered_modifier = ananoma_construction

		}
	}
	option = {		
		name = "fahvanosy.2.e"
		trigger = { 
			5845 = { 
				owned_by = ROOT
				is_city = yes
				is_core = ROOT
				NOT = {
					
					OR = {
						has_province_modifier = ananoma_dilapidated
						has_province_modifier = ananoma_improved
						has_province_modifier = ananoma_improved_more
						has_construction = any
						has_construction = army
					}
				}
			}
		}
		goto = 5845
		5845 = {
			add_building_construction = {
				building = ananoma_repair
				speed = 2
				cost = 2
			}
			add_province_triggered_modifier = ananoma_construction
		}
	}
	option = {
        name = fahvanosy.2.f
        ai_chance = { factor = 0 }
	}
	after = {
		clr_country_flag = ananoma_repair_menu
	}
	
}

#Tear down ananoma
country_event = {
	id = fahvanosy.3
	title = fahvanosy.3.t
	desc = fahvanosy.3.d
	picture = WAR_OF_THE_ROSES_eventPicture
	

	is_triggered_only = yes
	immediate = {
		hidden_effect = { set_country_flag = ananoma_repair_menu }
	}
	
	option = {		
		name = "fahvanosy.3.a"
		trigger = { 
			5758 = { 
				owned_by = ROOT
				is_city = yes
				is_core = ROOT
				OR = {
					has_province_modifier = ananoma_dilapidated
					has_province_modifier = ananoma_standart
					has_province_modifier = ananoma_improved
					has_province_modifier = ananoma_improved_more
				}
				NOT = {
					
					OR = {							
						has_construction = any
						has_construction = army
						has_province_flag = ananoma_improved_not_vyzemby
					}
				}
			}	
		}
		goto = 5758
		5758 = {
			add_building_construction = {
				building = ananoma_tear_down
				speed = 1
				cost = 1
			}
			
		}
	}
	option = {		
		name = "fahvanosy.3.b"
		trigger = { 
			5763 = { 
				owned_by = ROOT
				is_city = yes
				is_core = ROOT
				OR = {
					has_province_modifier = ananoma_dilapidated
					has_province_modifier = ananoma_standart
					has_province_modifier = ananoma_improved
					has_province_modifier = ananoma_improved_more
				}
				NOT = {
					OR = {
						has_construction = any
						has_construction = army
						has_province_flag = ananoma_improved_not_vyzemby
					}
				}
			}				
		}
		goto = 5763
		5763 = {			
			add_building_construction = {
				building = ananoma_tear_down
				speed = 1
				cost = 1
			}
		}
	}
	option = {		
		name = "fahvanosy.3.c"
		trigger = { 
			5710 = { 
				owned_by = ROOT
				is_city = yes
				is_core = ROOT
				OR = {
					has_province_modifier = ananoma_dilapidated
					has_province_modifier = ananoma_standart
					has_province_modifier = ananoma_improved
					has_province_modifier = ananoma_improved_more
				}
				owned_by = ROOT
				NOT = {
					OR = {						
						has_construction = any
						has_construction = army
						has_province_flag = ananoma_improved_not_vyzemby
					}
				}
			}
		
		}
		goto = 5710
		5710 = {
			add_building_construction = {
				building = ananoma_tear_down
				speed = 1
				cost = 1
			}
		}
	}
	option = {		
		name = "fahvanosy.3.d"
		trigger = { 
			5840 = { 
				owned_by = ROOT
				is_city = yes
				is_core = ROOT
				OR = {
					has_province_modifier = ananoma_dilapidated
					has_province_modifier = ananoma_standart
					has_province_modifier = ananoma_improved
					has_province_modifier = ananoma_improved_more
				}
				NOT = {
					OR = {						
						has_construction = any
						has_construction = army
						has_province_flag = ananoma_improved_not_vyzemby
					}
				}
			}
		}
		goto = 5840
		5840 = {
			add_building_construction = {
				building = ananoma_tear_down
				speed = 1
				cost = 1
			}
		}
	}
	option = {		
		name = "fahvanosy.3.e"
		trigger = { 
			5845 = { 
				owned_by = ROOT
				is_city = yes
				is_core = ROOT
				OR = {
					has_province_modifier = ananoma_dilapidated
					has_province_modifier = ananoma_standart
					has_province_modifier = ananoma_improved
					has_province_modifier = ananoma_improved_more
				}
				NOT = {
					OR = {					
						has_construction = any
						has_construction = army
						has_province_flag = ananoma_improved_not_vyzemby
					}
				}
			}
		}
		goto = 5845
		5845 = {
			add_building_construction = {
				building = ananoma_tear_down
				speed = 1
				cost = 1
			}
		}
	}
	option = {
        name = fahvanosy.3.f
        ai_chance = { factor = 0 }
		add_adm_power = 50
	}
	after = {
		clr_country_flag = ananoma_repair_menu
	}
	
}

country_event = {
	id = fahvanosy.4
	title = fahvanosy.4.t
	desc = fahvanosy.4.d
	picture = WAR_OF_THE_ROSES_eventPicture
	

	is_triggered_only = yes
		
	option = {		
		name = "fahvanosy.4.b"
		trigger = { 
			NOT = {
				has_country_flag = first_ananoma
			}
			culture_group = vyzemby
		}
		
		add_stability_or_adm_power = yes
		set_country_flag = first_ananoma
	}
	option = {		
		name = "fahvanosy.4.b"
		trigger = { 
			OR = {
				has_country_flag = first_ananoma
				NOT = { culture_group = vyzemby }
			}
		}
		
		add_prestige = 10
	}
}

country_event = {
	id = fahvanosy.5
	title = fahvanosy.5.t
	desc = fahvanosy.5.d
	picture = WAR_OF_THE_ROSES_eventPicture
	

	is_triggered_only = yes
	option = {		
		name = "fahvanosy.4.b"
		
		add_prestige = 10
		add_years_of_income = 0.5
	}
}