

namespace = shadow

country_event = {
	id = shadow.1
	title = shadow.1.t
	desc = shadow.1.d
	picture = BORDER_TENSION_eventPicture
	
	fire_only_once = yes
	
	trigger = {
		tag = S70
	}
	
	mean_time_to_happen = {
		days = 1
	}
	
	option = {
		name = shadow.1.a
		
		if = {
			limit = { ai = yes }
			add_country_modifier = {
				name = yezel_mora_horde_starter
				duration = 36500
			}
		}
		else = {
			add_country_modifier = {
				name = yezel_mora_horde_starter
				duration = 3650
			}
		}

		declare_war_with_cb = {
			who = L66
			casus_belli = cb_hags_will
		}

		6714 = {
			infantry = S70
			infantry = S70
			infantry = S70
			infantry = S70
			infantry = S70
			infantry = S70
			infantry = S70
			infantry = S70
			infantry = S70
			infantry = S70
			infantry = S70
			infantry = S70
			infantry = S70
			infantry = S70
			infantry = S70
			infantry = S70
			infantry = S70
			infantry = S70
			infantry = S70
			infantry = S70
		}

		hidden_effect = {
			mengi_region = {
				set_province_flag = hag_conquest_flag
				add_claim = ROOT
			}
		}

	}
}

#Turn new ruler into based general event. Needs to be strong enough to counter angel ruler
country_event = {
	id = shadow.2
	title = shadow.2.t
	desc = shadow.2.d
	picture = BORDER_TENSION_eventPicture
	
	is_triggered_only = yes
	
	trigger = {
		tag = S70
	}
	
	mean_time_to_happen = {
		days = 1
	}
	
	option = {
		name = shadow.2.a
		
		convert_ruler_to_general = 100
	}

	# option = {
	# 	name = shadow.2.a
		
	# 	trigger = {
	# 		army_tradition = 50 
	# 	}
	# 	convert_ruler_to_general = yes
	# }
	# option = {
	# 	name = shadow.2.b
		
	# 	trigger = {
	# 		NOT = { army_tradition = 50 }
	# 	}

	# 	convert_ruler_to_general = 50
	# }
}

#inform the player they got  a province from night coven collapse
country_event = {
	id = shadow.3
	title = shadow.3.t
	desc = shadow.3.d
	picture = BORDER_TENSION_eventPicture
	
	is_triggered_only = yes
	
	trigger = {
		ai = no #ai doesn't need to see this
	}
	
	mean_time_to_happen = {
		days = 1
	}
	
	option = {
		name = shadow.3.a
	}
}

#inform the player they got  a same culture province from night coven collapse
country_event = {
	id = shadow.4
	title = shadow.4.t
	desc = shadow.4.d
	picture = BORDER_TENSION_eventPicture
	
	is_triggered_only = yes
	
	trigger = {
		ai = no #ai doesn't need to see this
	}
	
	mean_time_to_happen = {
		days = 1
	}
	
	option = {
		name = shadow.4.a
	}
}