namespace = flavour_railskulker

#missions

#a disaster in the caves
country_event = {
	id = flavour_railskulker.1
	title = flavour_railskulker.1.title
	desc = flavour_railskulker.1.desc
	picture = BATTLE_eventPicture
	
	is_triggered_only = yes
	
	option = {
		name = flavour_railskulker.1.option1
		railyard_exchange_area = {
			add_permanent_claim = ROOT
			discover_country = ROOT
			}
		stunad_kozenad_area = {
			add_permanent_claim = ROOT
			discover_country = ROOT
			}
		add_manpower = -3
		}
	}
	
#the dagrite railforge
country_event = {
	id = flavour_railskulker.2
	title = flavour_railskulker.2.title
	desc = flavour_railskulker.2.desc
	picture = EKLUZAGNU_eventPicture
	
	is_triggered_only = yes
	
	option = {
		name = flavour_railskulker.2.option1
		add_country_modifier = {
			name = railskulker_artifacts_on_display
			duration = 3650
			}
		}
	}
	
#bring them home
country_event = {
	id = flavour_railskulker.3
	title = flavour_railskulker.3.title
	desc = flavour_railskulker.3.desc
	picture = COUNTRY_COLLAPSE_eventPicture
	
	is_triggered_only = yes
	
	option = {
		name = flavour_railskulker.3.option1
		mithradhum_area = {
			add_permanent_claim = ROOT
			}
		}
	}
	
#an explosion in councils
country_event = {
	id = flavour_railskulker.4
	title = flavour_railskulker.4.title
	desc = flavour_railskulker.4.desc
	picture = GREAT_BUILDING_eventPicture
	
	is_triggered_only = yes
	
	option = {
		name = flavour_railskulker.4.option1
		add_adm_power = 50
		add_dip_power = 50
		add_mil_power = 50
		change_government_reform_progress = 50
		
		set_country_flag = railskulker_missions_pt2
		swap_non_generic_missions = yes
		}
	}
	
#this is mine now
country_event = {
	id = flavour_railskulker.5
	title = flavour_railskulker.5.title
	desc = flavour_railskulker.5.desc
	picture = BORDER_TENSION_eventPicture
	
	is_triggered_only = yes
	
	option = {
		name = flavour_railskulker.5.option1
		add_treasury = 500 
		if = {
			limit = {
				4119 = { #amldihr
					is_prosperous = yes
					}
				}
			}
			
		else = {
			amldihr_area = {
				add_base_tax = -2
				add_base_production = -1
				add_base_manpower = -2
				change_culture = cave_goblin
				change_religion = goblinic_shamanism
				add_devastation = 20
				}
			}
		}
	}
	
#a military occupation
country_event = {
	id = flavour_railskulker.6
	title = flavour_railskulker.6.title
	desc = flavour_railskulker.6.desc
	picture = LAND_MILITARY_eventPicture
	
	is_triggered_only = yes
	
	option = {
		name = flavour_railskulker.6.option1
		serpents_vale_region = {
			add_base_manpower = -2
			add_base_production = -1
			add_base_tax = -2
			}
		4125 = { #Khrechobesh
			add_province_modifier = {
				name = "railskulker_empty_homes" 
				duration = 1825
				}
			}
		4129 = { #Shavturkad
			add_province_modifier = {
				name = "railskulker_empty_homes" 
				duration = 1825
				}
			}
		4123 = { #Mikhvakral
			add_province_modifier = {
				name = "railskulker_empty_homes" 
				duration = 1825
				}
			}
		4151 = { #Venjob
			add_province_modifier = {
				name = "railskulker_empty_homes" 
				duration = 1825
				}
			}
		4152 = { #Assembly Terrace
			add_province_modifier = {
				name = "railskulker_empty_homes" 
				duration = 1825
				}
			}
		4164 = { #Northvale
			add_province_modifier = {
				name = "railskulker_empty_homes" 
				duration = 1825
				}
			}
		4166 = { #Verkal Hul
			add_province_modifier = {
				name = "railskulker_empty_homes" 
				duration = 1825
				}
			}
		4145 = { #Zalenaktrotav
			add_province_modifier = {
				name = "railskulker_empty_homes" 
				duration = 1825
				}
			}
		4143 = { #Lamb Hills
			add_province_modifier = {
				name = "railskulker_empty_homes" 
				duration = 1825
				}
			}
		4142 = { #Serpent's Vale
			add_province_modifier = {
				name = "railskulker_empty_homes" 
				duration = 1825
				}
			}
		4131 = { #Common Terrace
			add_province_modifier = {
				name = "railskulker_empty_homes" 
				duration = 1825
				}
			}		
		}
	}
	
#not quite the same
country_event = {
	id = flavour_railskulker.7
	title = flavour_railskulker.7.title
	desc = flavour_railskulker.7.desc
	picture = FARMING_eventPicture
	
	is_triggered_only = yes
	
	option = {
		name = flavour_railskulker.7.option1
		add_country_modifier = {
			name = "railskulker_vale_subsidies"
			duration = 730
			}
		country_event = { 
			id = flavour_railskulker.8
			days = 730
			}
		}
	}
	
#not so suitable
country_event = {
	id = flavour_railskulker.8
	title = flavour_railskulker.8.title
	desc = flavour_railskulker.8.desc
	picture = FAMINE_eventPicture
	
	is_triggered_only = yes
	
	option = {
		name = flavour_railskulker.8.option1	
		4125 = { #Khrechobesh
			add_province_modifier = {
				name = "railskulker_rampaging_protestors" 
				duration = 1095
				}
			}
		4129 = { #Shavturkad
			add_province_modifier = {
				name = "railskulker_rampaging_protestors" 
				duration = 1095
				}
			}
		4123 = { #Mikhvakral
			add_province_modifier = {
				name = "railskulker_rampaging_protestors" 
				duration = 1095
				}
			}
		4151 = { #Venjob
			add_province_modifier = {
				name = "railskulker_rampaging_protestors" 
				duration = 1095
				}
			}
		4152 = { #Assembly Terrace
			add_province_modifier = {
				name = "railskulker_rampaging_protestors" 
				duration = 1095
				}
			}
		4164 = { #Northvale
			add_province_modifier = {
				name = "railskulker_rampaging_protestors" 
				duration = 1095
				}
			}
		4166 = { #Verkal Hul
			add_province_modifier = {
				name = "railskulker_rampaging_protestors" 
				duration = 1095
				}
			}
		4145 = { #Zalenaktrotav
			add_province_modifier = {
				name = "railskulker_rampaging_protestors" 
				duration = 1095
				}
			}
		4143 = { #Lamb Hills
			add_province_modifier = {
				name = "railskulker_rampaging_protestors" 
				duration = 1095
				}
			}
		4142 = { #Serpent's Vale
			add_province_modifier = {
				name = "railskulker_rampaging_protestors" 
				duration = 1095
				}
			}
		4131 = { #Common Terrace
			add_province_modifier = {
				name = "railskulker_rampaging_protestors" 
				duration = 1095
				}
			}
			
		country_event = {
			id = flavour_railskulker.9
			days = 365
			}
		}
		
	option = {
		name = flavour_railskulker.8.option2
		add_treasury = -1000
		country_event = {
			id = flavour_railskulker.9
			days = 365
			}
		}
	}
	
#other uses
country_event = {
	id = flavour_railskulker.9
	title = flavour_railskulker.9.title
	desc = flavour_railskulker.9.desc
	picture = WESTERNISATION_eventPicture
	
	is_triggered_only = yes

	option = {
		name = flavour_railskulker.9.option1
		remove_country_modifier = railskulker_a_soothing_effect
		add_country_modifier = {
			name = railskulker_improved_mushrooms
			duration = -1
			}
		}
	}

#funny clouds
country_event = {
	id = flavour_railskulker.10
	title = flavour_railskulker.10.title
	desc = flavour_railskulker.10.desc
	picture = ASSASINATION_eventPicture
	
	is_triggered_only = yes
	
	option = {
		name = flavour_railskulker.10.option1
		4122 = { #verkal vazkron
			add_province_modifier = {
				name = "railskulker_extremely_relaxed_defenders"
				duration = 1825
				}
			}
		4119 = { #amldihr
			add_province_modifier = {
				name = "railskulker_extremely_relaxed_defenders"
				duration = 1825
				}
			}	
		4128 = { #hall of the ancestors
			add_province_modifier = {
				name = "railskulker_extremely_relaxed_defenders"
				duration = 1825
				}
			}	
		4149 = { #Amlharaz
			add_province_modifier = {
				name = "railskulker_extremely_relaxed_defenders"
				duration = 1825
				}
			}
		}
	}
	
#it works
country_event = {
	id = flavour_railskulker.11
	title = flavour_railskulker.11.title
	desc = flavour_railskulker.11.desc
	picture = INVENTION_eventPicture
	
	is_triggered_only = yes

	option = {
		name = flavour_railskulker.11.option1
		2931 = { #er-natvir
			add_province_modifier = {
				name = "railskulker_sharp_schedules"
				duration = -1
				}
			}
		}
	}
	
#faster faster faster!
country_event = {
	id = flavour_railskulker.12
	title = flavour_railskulker.12.title
	desc = flavour_railskulker.12.desc
	picture = FAR_AND_WIDE_eventPicture
	
	is_triggered_only = yes
	
	option = {
		name = flavour_railskulker.12.option1
		add_country_modifier = {
			name = "railskulker_literal_landships"
			duration = -1
			}
		}
	}
	
#an offer from er natvir
country_event = {
	id = flavour_railskulker.13
	title = flavour_railskulker.13.title
	desc = flavour_railskulker.13.desc
	picture = DIPLOMACY_eventPicture
	
	is_triggered_only = yes
	
	option = {
		name = flavour_railskulker.13.option1
		H75 = {
			country_event = { id = flavour_railskulker.14 }
			}
		add_treasury = 500
		}
		
	option = {
		name = flavour_railskulker.13.option2
		H75 = {
			country_event = { id = flavour_railskulker.19 }
			}
		}
	}
	
#... accepts
country_event = {
	id = flavour_railskulker.14
	title = flavour_railskulker.14.title
	desc = flavour_railskulker.14.desc
	picture = DIPLOMACY_eventPicture
	
	is_triggered_only = yes
	
	option = {
		name = flavour_railskulker.14.option1
		vassalize = FROM
		add_treasury = -500
		}
	}
	
#... denies
country_event = {
	id = flavour_railskulker.19
	title = flavour_railskulker.19.title
	desc = flavour_railskulker.19.desc
	picture = DIPLOMACY_eventPicture
	
	is_triggered_only = yes
	
	option = {
		name = flavour_railskulker.19.option1
		add_casus_belli = {
			target = FROM
			months = 60
			type = cb_vassalize_mission
			}
		}
	}
	
#bigger than ever before
country_event = {
	id = flavour_railskulker.15
	title = flavour_railskulker.15.title
	desc = flavour_railskulker.15.desc
	picture = COUNTRY_COLLAPSE_eventPicture
	
	is_triggered_only = yes
	
	option = {
		name = flavour_railskulker.15.option1
		2986 = { #natvirod 1
			add_province_modifier = {
				name = railskulker_railway_gun_preparations
				duration = 1825
				}
			}
		add_prestige = 20
		}
	}
	
#the largest ever made
country_event = {
	id = flavour_railskulker.16
	title = flavour_railskulker.16.title
	desc = flavour_railskulker.16.desc
	picture = COUNTRY_COLLAPSE_eventPicture
	
	is_triggered_only = yes
	
	option = {
		name = flavour_railskulker.16.option1
		2986 = { #natvirod 1
			add_devastation = 50
			add_province_modifier = {
				name = railskulker_railway_gun_ruins
				duration = -1
				}
			}
		add_prestige = -20
		}
	}
	
#test event, ignore
country_event = {
	id = flavour_railskulker.17
	title = flavour_railskulker.17.title
	desc = flavour_railskulker.17.desc
	picture = PRAYING_eventPicture
	
	is_triggered_only = yes

	option = {
		set_country_flag = railskulker_missions_pt3
		swap_non_generic_missions = yes
		}
	}
	

	
#the convoy visits a hold
country_event = {
    id = flavour_railskulker.18
    title = flavour_railskulker.18.title
    desc = flavour_railskulker.18.desc
    picture = FAR_AND_WIDE_eventPicture
            
    is_triggered_only = yes
            
    immediate = {
        hidden_effect = {
            random_owned_province = {
                limit = {
                    province_group = hold_province
					}
				save_event_target_as = dwarven_hold_target
				}
			}
		}
            
	option = {
		name = flavour_railskulker.18.option1
		event_target:dwarven_hold_target = {
			if = {
				limit = {
					OR = {
						trade_goods = gold
						trade_goods = iron
						trade_goods = copper
						trade_goods = mithril
						trade_goods = gems
						trade_goods = coal
						trade_goods = damestear         
						}
					}
				add_province_modifier = {
					name = railskulker_council_debates_mil
					duration = 1460
					}
				}
			else_if = {
				limit = {
					OR = {
						trade_goods = grain
						trade_goods = wine
						trade_goods = wool
						trade_goods = fish
						trade_goods = fur
						trade_goods = salt
						trade_goods = fungi
						trade_goods = serpentbloom
						trade_goods = slaves
						trade_goods = livestock
						}
					}
				add_province_modifier = {
					name = railskulker_council_debates_adm
					duration = 1460
					}
				}
			else = {
				add_province_modifier = {
					name = railskulker_council_debates_dip
					duration = 1460
					}
				} 
			}
		}
		
	option = {
		name = flavour_railskulker.18.option2
		event_target:dwarven_hold_target = {
			add_province_modifier = {
				name = railskulker_home_of_the_administration
				duration = 1460
				}
			}
		}
	}